<?xml version="1.0" encoding="UTF-8" standalone="no"?>
<!-- Created with Inkscape (http://www.inkscape.org/) -->

<svg
   xmlns:dc="http://purl.org/dc/elements/1.1/"
   xmlns:cc="http://creativecommons.org/ns#"
   xmlns:rdf="http://www.w3.org/1999/02/22-rdf-syntax-ns#"
   xmlns:svg="http://www.w3.org/2000/svg"
   xmlns="http://www.w3.org/2000/svg"
   xmlns:xlink="http://www.w3.org/1999/xlink"
   xmlns:sodipodi="http://sodipodi.sourceforge.net/DTD/sodipodi-0.dtd"
   xmlns:inkscape="http://www.inkscape.org/namespaces/inkscape"
   width="744.09448"
   height="524.40942"
   id="svg3529"
   version="1.1"
   inkscape:version="0.47 r22583"
   sodipodi:docname="2010_07_10_Logo KDE Brasil_Final_.svg"
   inkscape:export-filename="C:\Documents and Settings\Anderson&amp;Raquel\Meus documentos\2010_06_01_Pendrive_Anderson\ArtWork\KDE_Brasil_Logo\Logo Kde brasil_Final\Logo 3D_Engrenagem_220_Final.png"
   inkscape:export-xdpi="220"
   inkscape:export-ydpi="220">
  <defs
     id="defs3531">
    <linearGradient
       inkscape:collect="always"
       id="linearGradient3908">
      <stop
         style="stop-color:#1e75cc;stop-opacity:1;"
         offset="0"
         id="stop3910" />
      <stop
         style="stop-color:#1e75cc;stop-opacity:0;"
         offset="1"
         id="stop3912" />
    </linearGradient>
    <linearGradient
       id="linearGradient4363"
       inkscape:collect="always">
      <stop
         id="stop4365"
         offset="0"
         style="stop-color:#0068c6;stop-opacity:1;" />
      <stop
         id="stop4367"
         offset="1"
         style="stop-color:#1c68c6;stop-opacity:1" />
    </linearGradient>
    <linearGradient
       inkscape:collect="always"
       id="linearGradient3721">
      <stop
         style="stop-color:#0068c6;stop-opacity:1;"
         offset="0"
         id="stop3723" />
      <stop
         style="stop-color:#1c68c6;stop-opacity:1"
         offset="1"
         id="stop3725" />
    </linearGradient>
    <linearGradient
       inkscape:collect="always"
       id="linearGradient3699">
      <stop
         style="stop-color:#0068c6;stop-opacity:1;"
         offset="0"
         id="stop3701" />
      <stop
         style="stop-color:#0068c6;stop-opacity:0;"
         offset="1"
         id="stop3703" />
    </linearGradient>
    <linearGradient
       inkscape:collect="always"
       id="linearGradient5375">
      <stop
         style="stop-color:#ffffff;stop-opacity:1;"
         offset="0"
         id="stop5377" />
      <stop
         style="stop-color:#ffffff;stop-opacity:0;"
         offset="1"
         id="stop5379" />
    </linearGradient>
    <linearGradient
       id="linearGradient4983">
      <stop
         style="stop-color:#ffffff;stop-opacity:1;"
         offset="0"
         id="stop4985" />
      <stop
         style="stop-color:#ffffff;stop-opacity:0;"
         offset="1"
         id="stop4987" />
    </linearGradient>
    <linearGradient
       id="linearGradient4582">
      <stop
         id="stop4584"
         offset="0"
         style="stop-color:#1875e0;stop-opacity:1;" />
      <stop
         style="stop-color:#b2e1de;stop-opacity:1"
         offset="0.650841"
         id="stop4586" />
      <stop
         id="stop4588"
         offset="1"
         style="stop-color:#0068c6;stop-opacity:0;" />
    </linearGradient>
    <linearGradient
       id="linearGradient4568">
      <stop
         style="stop-color:#ffffe0;stop-opacity:1;"
         offset="0"
         id="stop4570" />
      <stop
         id="stop4576"
         offset="0.69358522"
         style="stop-color:#b2e1de;stop-opacity:1" />
      <stop
         style="stop-color:#0068c6;stop-opacity:0;"
         offset="1"
         id="stop4572" />
    </linearGradient>
    <linearGradient
       id="linearGradient4550">
      <stop
         style="stop-color:#0aff00;stop-opacity:1;"
         offset="0"
         id="stop4552" />
      <stop
         id="stop4560"
         offset="0.25"
         style="stop-color:#07ff38;stop-opacity:0.74901961;" />
      <stop
         id="stop4558"
         offset="0.5"
         style="stop-color:#05ff70;stop-opacity:0.49803922;" />
      <stop
         style="stop-color:#00ffe0;stop-opacity:0;"
         offset="1"
         id="stop4554" />
    </linearGradient>
    <linearGradient
       id="linearGradient4534">
      <stop
         id="stop4548"
         offset="0"
         style="stop-color:#92d4ee;stop-opacity:0.71372549;" />
      <stop
         style="stop-color:#ff00e0;stop-opacity:1;"
         offset="1"
         id="stop4538" />
    </linearGradient>
    <linearGradient
       inkscape:collect="always"
       id="linearGradient4444">
      <stop
         style="stop-color:#ffffff;stop-opacity:1;"
         offset="0"
         id="stop4446" />
      <stop
         style="stop-color:#ffffff;stop-opacity:0;"
         offset="1"
         id="stop4448" />
    </linearGradient>
    <inkscape:perspective
       sodipodi:type="inkscape:persp3d"
       inkscape:vp_x="0 : 526.18109 : 1"
       inkscape:vp_y="0 : 1000 : 0"
       inkscape:vp_z="744.09448 : 526.18109 : 1"
       inkscape:persp3d-origin="372.04724 : 350.78739 : 1"
       id="perspective3537" />
    <inkscape:perspective
       id="perspective3547"
       inkscape:persp3d-origin="0.5 : 0.33333333 : 1"
       inkscape:vp_z="1 : 0.5 : 1"
       inkscape:vp_y="0 : 1000 : 0"
       inkscape:vp_x="0 : 0.5 : 1"
       sodipodi:type="inkscape:persp3d" />
    <inkscape:perspective
       id="perspective3602"
       inkscape:persp3d-origin="0.5 : 0.33333333 : 1"
       inkscape:vp_z="1 : 0.5 : 1"
       inkscape:vp_y="0 : 1000 : 0"
       inkscape:vp_x="0 : 0.5 : 1"
       sodipodi:type="inkscape:persp3d" />
    <inkscape:perspective
       id="perspective4406"
       inkscape:persp3d-origin="0.5 : 0.33333333 : 1"
       inkscape:vp_z="1 : 0.5 : 1"
       inkscape:vp_y="0 : 1000 : 0"
       inkscape:vp_x="0 : 0.5 : 1"
       sodipodi:type="inkscape:persp3d" />
    <radialGradient
       inkscape:collect="always"
       xlink:href="#linearGradient4444"
       id="radialGradient4450"
       cx="553.32629"
       cy="141.09944"
       fx="553.32629"
       fy="141.09944"
       r="17.991381"
       gradientUnits="userSpaceOnUse"
       gradientTransform="matrix(1.1582312,2.0054437,-1.6555682,1.7260092,146.04621,-1212.1043)" />
    <radialGradient
       inkscape:collect="always"
       xlink:href="#linearGradient4444"
       id="radialGradient4454"
       gradientUnits="userSpaceOnUse"
       gradientTransform="matrix(1.1582312,2.0054437,-1.6555682,1.7260092,146.04621,-1212.1043)"
       cx="553.32629"
       cy="141.09944"
       fx="553.32629"
       fy="141.09944"
       r="17.991381" />
    <radialGradient
       inkscape:collect="always"
       xlink:href="#linearGradient4444"
       id="radialGradient4477"
       gradientUnits="userSpaceOnUse"
       gradientTransform="matrix(1.1582312,2.0054437,-1.6555682,1.7260092,146.04621,-1212.1043)"
       cx="553.32629"
       cy="141.09944"
       fx="553.32629"
       fy="141.09944"
       r="17.991381" />
    <radialGradient
       inkscape:collect="always"
       xlink:href="#linearGradient4444"
       id="radialGradient4479"
       gradientUnits="userSpaceOnUse"
       gradientTransform="matrix(1.1582312,2.0054437,-1.6555682,1.7260092,146.04621,-1212.1043)"
       cx="553.32629"
       cy="141.09944"
       fx="553.32629"
       fy="141.09944"
       r="17.991381" />
    <radialGradient
       inkscape:collect="always"
       xlink:href="#linearGradient4444"
       id="radialGradient4481"
       gradientUnits="userSpaceOnUse"
       gradientTransform="matrix(4.1653274,-0.38372799,1.7818022,3.5039985,-2111.8648,86.020988)"
       cx="553.32629"
       cy="141.09944"
       fx="553.32629"
       fy="141.09944"
       r="17.991381" />
    <inkscape:perspective
       id="perspective4492"
       inkscape:persp3d-origin="0.5 : 0.33333333 : 1"
       inkscape:vp_z="1 : 0.5 : 1"
       inkscape:vp_y="0 : 1000 : 0"
       inkscape:vp_x="0 : 0.5 : 1"
       sodipodi:type="inkscape:persp3d" />
    <filter
       inkscape:collect="always"
       id="filter5263"
       x="-0.20347106"
       width="1.4069421"
       y="-0.28326347"
       height="1.566527"
       color-interpolation-filters="sRGB">
      <feGaussianBlur
         inkscape:collect="always"
         stdDeviation="3.6157393"
         id="feGaussianBlur5265" />
    </filter>
    <filter
       inkscape:collect="always"
       id="filter5331"
       color-interpolation-filters="sRGB">
      <feGaussianBlur
         inkscape:collect="always"
         stdDeviation="1.1639955"
         id="feGaussianBlur5333" />
    </filter>
    <filter
       inkscape:collect="always"
       id="filter5363"
       color-interpolation-filters="sRGB">
      <feGaussianBlur
         inkscape:collect="always"
         stdDeviation="0.3992262"
         id="feGaussianBlur5365" />
    </filter>
    <radialGradient
       inkscape:collect="always"
       xlink:href="#linearGradient5375"
       id="radialGradient5381"
       cx="587.37573"
       cy="136.20944"
       fx="587.37573"
       fy="136.20944"
       r="17.991381"
       gradientUnits="userSpaceOnUse"
       gradientTransform="matrix(-1.546708,-1.2439155,0.75848248,-1.9794384,1392.562,1136.4734)" />
    <filter
       inkscape:collect="always"
       id="filter3695"
       color-interpolation-filters="sRGB">
      <feGaussianBlur
         inkscape:collect="always"
         stdDeviation="1.5370094"
         id="feGaussianBlur3697" />
    </filter>
    <linearGradient
       inkscape:collect="always"
       xlink:href="#linearGradient3721"
       id="linearGradient3727"
       x1="723.16351"
       y1="297.09921"
       x2="719.98145"
       y2="326.53253"
       gradientUnits="userSpaceOnUse" />
    <linearGradient
       inkscape:collect="always"
       xlink:href="#linearGradient3721"
       id="linearGradient3810"
       gradientUnits="userSpaceOnUse"
       x1="723.16351"
       y1="297.09921"
       x2="719.98145"
       y2="326.53253" />
    <linearGradient
       inkscape:collect="always"
       xlink:href="#linearGradient3721"
       id="linearGradient3812"
       gradientUnits="userSpaceOnUse"
       x1="723.16351"
       y1="297.09921"
       x2="719.98145"
       y2="326.53253" />
    <linearGradient
       inkscape:collect="always"
       xlink:href="#linearGradient3721"
       id="linearGradient3814"
       gradientUnits="userSpaceOnUse"
       x1="723.16351"
       y1="297.09921"
       x2="719.98145"
       y2="326.53253" />
    <linearGradient
       inkscape:collect="always"
       xlink:href="#linearGradient3721"
       id="linearGradient3870"
       gradientUnits="userSpaceOnUse"
       x1="723.16351"
       y1="297.09921"
       x2="719.98145"
       y2="326.53253" />
    <linearGradient
       inkscape:collect="always"
       xlink:href="#linearGradient3721"
       id="linearGradient3888"
       gradientUnits="userSpaceOnUse"
       x1="723.16351"
       y1="297.09921"
       x2="719.98145"
       y2="326.53253" />
    <linearGradient
       inkscape:collect="always"
       xlink:href="#linearGradient3721"
       id="linearGradient3890"
       gradientUnits="userSpaceOnUse"
       x1="723.16351"
       y1="297.09921"
       x2="719.98145"
       y2="326.53253" />
    <linearGradient
       inkscape:collect="always"
       xlink:href="#linearGradient3721"
       id="linearGradient3892"
       gradientUnits="userSpaceOnUse"
       x1="723.16351"
       y1="297.09921"
       x2="719.98145"
       y2="326.53253" />
    <linearGradient
       inkscape:collect="always"
       xlink:href="#linearGradient3721"
       id="linearGradient3894"
       gradientUnits="userSpaceOnUse"
       x1="723.16351"
       y1="297.09921"
       x2="719.98145"
       y2="326.53253" />
    <linearGradient
       inkscape:collect="always"
       xlink:href="#linearGradient3721"
       id="linearGradient3918"
       gradientUnits="userSpaceOnUse"
       x1="723.16351"
       y1="297.09921"
       x2="719.98145"
       y2="326.53253" />
    <linearGradient
       inkscape:collect="always"
       xlink:href="#linearGradient3721"
       id="linearGradient3954"
       gradientUnits="userSpaceOnUse"
       x1="723.16351"
       y1="297.09921"
       x2="719.98145"
       y2="326.53253" />
    <linearGradient
       inkscape:collect="always"
       xlink:href="#linearGradient3721"
       id="linearGradient4035"
       gradientUnits="userSpaceOnUse"
       x1="723.16351"
       y1="297.09921"
       x2="719.98145"
       y2="326.53253" />
    <linearGradient
       inkscape:collect="always"
       xlink:href="#linearGradient3721"
       id="linearGradient4037"
       gradientUnits="userSpaceOnUse"
       x1="723.16351"
       y1="297.09921"
       x2="719.98145"
       y2="326.53253" />
    <linearGradient
       inkscape:collect="always"
       xlink:href="#linearGradient3721"
       id="linearGradient4039"
       gradientUnits="userSpaceOnUse"
       x1="723.16351"
       y1="297.09921"
       x2="719.98145"
       y2="326.53253" />
    <linearGradient
       inkscape:collect="always"
       xlink:href="#linearGradient3721"
       id="linearGradient4041"
       gradientUnits="userSpaceOnUse"
       x1="723.16351"
       y1="297.09921"
       x2="719.98145"
       y2="326.53253" />
    <linearGradient
       inkscape:collect="always"
       xlink:href="#linearGradient3721"
       id="linearGradient4043"
       gradientUnits="userSpaceOnUse"
       x1="723.16351"
       y1="297.09921"
       x2="719.98145"
       y2="326.53253" />
    <linearGradient
       inkscape:collect="always"
       xlink:href="#linearGradient3721"
       id="linearGradient4045"
       gradientUnits="userSpaceOnUse"
       x1="723.16351"
       y1="297.09921"
       x2="719.98145"
       y2="326.53253" />
    <linearGradient
       inkscape:collect="always"
       xlink:href="#linearGradient3721"
       id="linearGradient4047"
       gradientUnits="userSpaceOnUse"
       x1="723.16351"
       y1="297.09921"
       x2="719.98145"
       y2="326.53253" />
    <linearGradient
       inkscape:collect="always"
       xlink:href="#linearGradient3721"
       id="linearGradient4078"
       gradientUnits="userSpaceOnUse"
       x1="723.16351"
       y1="297.09921"
       x2="719.98145"
       y2="326.53253"
       gradientTransform="translate(0,276.75)" />
    <linearGradient
       inkscape:collect="always"
       xlink:href="#linearGradient3721"
       id="linearGradient4081"
       gradientUnits="userSpaceOnUse"
       x1="723.16351"
       y1="297.09921"
       x2="719.98145"
       y2="326.53253"
       gradientTransform="translate(0,276.75)" />
    <linearGradient
       inkscape:collect="always"
       xlink:href="#linearGradient3721"
       id="linearGradient4084"
       gradientUnits="userSpaceOnUse"
       x1="723.16351"
       y1="297.09921"
       x2="719.98145"
       y2="326.53253"
       gradientTransform="translate(0,276.75)" />
    <linearGradient
       inkscape:collect="always"
       xlink:href="#linearGradient3721"
       id="linearGradient4087"
       gradientUnits="userSpaceOnUse"
       x1="723.16351"
       y1="297.09921"
       x2="719.98145"
       y2="326.53253"
       gradientTransform="translate(0,276.75)" />
    <linearGradient
       inkscape:collect="always"
       xlink:href="#linearGradient3721"
       id="linearGradient4090"
       gradientUnits="userSpaceOnUse"
       x1="723.16351"
       y1="297.09921"
       x2="719.98145"
       y2="326.53253"
       gradientTransform="translate(0,276.75)" />
    <linearGradient
       inkscape:collect="always"
       xlink:href="#linearGradient3721"
       id="linearGradient4093"
       gradientUnits="userSpaceOnUse"
       x1="723.16351"
       y1="297.09921"
       x2="719.98145"
       y2="326.53253"
       gradientTransform="translate(0,276.75)" />
    <linearGradient
       inkscape:collect="always"
       xlink:href="#linearGradient3721"
       id="linearGradient4126"
       gradientUnits="userSpaceOnUse"
       x1="723.16351"
       y1="297.09921"
       x2="719.98145"
       y2="326.53253" />
    <linearGradient
       inkscape:collect="always"
       xlink:href="#linearGradient3721"
       id="linearGradient4128"
       gradientUnits="userSpaceOnUse"
       x1="723.16351"
       y1="297.09921"
       x2="719.98145"
       y2="326.53253" />
    <linearGradient
       inkscape:collect="always"
       xlink:href="#linearGradient3721"
       id="linearGradient4130"
       gradientUnits="userSpaceOnUse"
       x1="723.16351"
       y1="297.09921"
       x2="719.98145"
       y2="326.53253" />
    <linearGradient
       inkscape:collect="always"
       xlink:href="#linearGradient3721"
       id="linearGradient4132"
       gradientUnits="userSpaceOnUse"
       x1="723.16351"
       y1="297.09921"
       x2="719.98145"
       y2="326.53253" />
    <linearGradient
       inkscape:collect="always"
       xlink:href="#linearGradient3721"
       id="linearGradient4134"
       gradientUnits="userSpaceOnUse"
       x1="723.16351"
       y1="297.09921"
       x2="719.98145"
       y2="326.53253" />
    <linearGradient
       inkscape:collect="always"
       xlink:href="#linearGradient3721"
       id="linearGradient4136"
       gradientUnits="userSpaceOnUse"
       x1="723.16351"
       y1="297.09921"
       x2="719.98145"
       y2="326.53253" />
    <linearGradient
       inkscape:collect="always"
       xlink:href="#linearGradient3721"
       id="linearGradient4138"
       gradientUnits="userSpaceOnUse"
       x1="723.16351"
       y1="297.09921"
       x2="719.98145"
       y2="326.53253" />
    <linearGradient
       inkscape:collect="always"
       xlink:href="#linearGradient3721"
       id="linearGradient4193"
       gradientUnits="userSpaceOnUse"
       x1="723.16351"
       y1="297.09921"
       x2="719.98145"
       y2="326.53253" />
    <linearGradient
       inkscape:collect="always"
       xlink:href="#linearGradient3721"
       id="linearGradient4195"
       gradientUnits="userSpaceOnUse"
       x1="723.16351"
       y1="297.09921"
       x2="719.98145"
       y2="326.53253" />
    <linearGradient
       inkscape:collect="always"
       xlink:href="#linearGradient3721"
       id="linearGradient4197"
       gradientUnits="userSpaceOnUse"
       x1="723.16351"
       y1="297.09921"
       x2="719.98145"
       y2="326.53253" />
    <linearGradient
       inkscape:collect="always"
       xlink:href="#linearGradient3721"
       id="linearGradient4199"
       gradientUnits="userSpaceOnUse"
       x1="723.16351"
       y1="297.09921"
       x2="719.98145"
       y2="326.53253" />
    <linearGradient
       inkscape:collect="always"
       xlink:href="#linearGradient3721"
       id="linearGradient4201"
       gradientUnits="userSpaceOnUse"
       x1="723.16351"
       y1="297.09921"
       x2="719.98145"
       y2="326.53253" />
    <linearGradient
       inkscape:collect="always"
       xlink:href="#linearGradient3721"
       id="linearGradient4203"
       gradientUnits="userSpaceOnUse"
       x1="723.16351"
       y1="297.09921"
       x2="719.98145"
       y2="326.53253" />
    <linearGradient
       inkscape:collect="always"
       xlink:href="#linearGradient3721"
       id="linearGradient4205"
       gradientUnits="userSpaceOnUse"
       x1="723.16351"
       y1="297.09921"
       x2="719.98145"
       y2="326.53253" />
    <linearGradient
       inkscape:collect="always"
       xlink:href="#linearGradient3721"
       id="linearGradient4208"
       gradientUnits="userSpaceOnUse"
       x1="723.16351"
       y1="297.09921"
       x2="719.98145"
       y2="326.53253"
       gradientTransform="translate(0,140.625)" />
    <linearGradient
       inkscape:collect="always"
       xlink:href="#linearGradient3721"
       id="linearGradient4211"
       gradientUnits="userSpaceOnUse"
       x1="723.16351"
       y1="297.09921"
       x2="719.98145"
       y2="326.53253"
       gradientTransform="translate(0,140.625)" />
    <linearGradient
       inkscape:collect="always"
       xlink:href="#linearGradient3721"
       id="linearGradient4214"
       gradientUnits="userSpaceOnUse"
       x1="723.16351"
       y1="297.09921"
       x2="719.98145"
       y2="326.53253"
       gradientTransform="translate(0,140.625)" />
    <linearGradient
       inkscape:collect="always"
       xlink:href="#linearGradient3721"
       id="linearGradient4217"
       gradientUnits="userSpaceOnUse"
       x1="723.16351"
       y1="297.09921"
       x2="719.98145"
       y2="326.53253"
       gradientTransform="translate(0,140.625)" />
    <linearGradient
       inkscape:collect="always"
       xlink:href="#linearGradient3721"
       id="linearGradient4220"
       gradientUnits="userSpaceOnUse"
       x1="723.16351"
       y1="297.09921"
       x2="719.98145"
       y2="326.53253"
       gradientTransform="translate(0,140.625)" />
    <linearGradient
       inkscape:collect="always"
       xlink:href="#linearGradient3721"
       id="linearGradient4223"
       gradientUnits="userSpaceOnUse"
       x1="723.16351"
       y1="297.09921"
       x2="719.98145"
       y2="326.53253"
       gradientTransform="translate(0,140.625)" />
    <linearGradient
       inkscape:collect="always"
       xlink:href="#linearGradient3721"
       id="linearGradient4251"
       gradientUnits="userSpaceOnUse"
       x1="723.16351"
       y1="297.09921"
       x2="719.98145"
       y2="326.53253" />
    <linearGradient
       inkscape:collect="always"
       xlink:href="#linearGradient3721"
       id="linearGradient4262"
       gradientUnits="userSpaceOnUse"
       x1="723.16351"
       y1="297.09921"
       x2="719.98145"
       y2="326.53253" />
    <linearGradient
       inkscape:collect="always"
       xlink:href="#linearGradient3721"
       id="linearGradient4264"
       gradientUnits="userSpaceOnUse"
       x1="723.16351"
       y1="297.09921"
       x2="719.98145"
       y2="326.53253" />
    <linearGradient
       inkscape:collect="always"
       xlink:href="#linearGradient3721"
       id="linearGradient4328"
       gradientUnits="userSpaceOnUse"
       x1="723.16351"
       y1="297.09921"
       x2="719.98145"
       y2="326.53253" />
    <linearGradient
       inkscape:collect="always"
       xlink:href="#linearGradient3721"
       id="linearGradient4330"
       gradientUnits="userSpaceOnUse"
       x1="723.16351"
       y1="297.09921"
       x2="719.98145"
       y2="326.53253" />
    <linearGradient
       inkscape:collect="always"
       xlink:href="#linearGradient3721"
       id="linearGradient4332"
       gradientUnits="userSpaceOnUse"
       x1="723.16351"
       y1="297.09921"
       x2="719.98145"
       y2="326.53253" />
    <linearGradient
       inkscape:collect="always"
       xlink:href="#linearGradient3721"
       id="linearGradient4334"
       gradientUnits="userSpaceOnUse"
       x1="723.16351"
       y1="297.09921"
       x2="719.98145"
       y2="326.53253" />
    <linearGradient
       inkscape:collect="always"
       xlink:href="#linearGradient3721"
       id="linearGradient4336"
       gradientUnits="userSpaceOnUse"
       x1="723.16351"
       y1="297.09921"
       x2="719.98145"
       y2="326.53253" />
    <linearGradient
       inkscape:collect="always"
       xlink:href="#linearGradient3721"
       id="linearGradient4338"
       gradientUnits="userSpaceOnUse"
       x1="723.16351"
       y1="297.09921"
       x2="719.98145"
       y2="326.53253" />
    <linearGradient
       inkscape:collect="always"
       xlink:href="#linearGradient4363"
       id="linearGradient4340"
       gradientUnits="userSpaceOnUse"
       x1="723.16351"
       y1="297.09921"
       x2="719.98145"
       y2="326.53253" />
    <linearGradient
       inkscape:collect="always"
       xlink:href="#linearGradient3721"
       id="linearGradient4384"
       x1="1207.125"
       y1="407.17468"
       x2="1200.9375"
       y2="455.54968"
       gradientUnits="userSpaceOnUse" />
    <linearGradient
       inkscape:collect="always"
       xlink:href="#linearGradient3721"
       id="linearGradient4418"
       gradientUnits="userSpaceOnUse"
       x1="1207.125"
       y1="407.17468"
       x2="1200.9375"
       y2="455.54968" />
    <linearGradient
       inkscape:collect="always"
       xlink:href="#linearGradient3721"
       id="linearGradient4432"
       gradientUnits="userSpaceOnUse"
       x1="1207.125"
       y1="407.17468"
       x2="1200.9375"
       y2="455.54968" />
    <linearGradient
       inkscape:collect="always"
       xlink:href="#linearGradient3721"
       id="linearGradient4467"
       gradientUnits="userSpaceOnUse"
       x1="1207.125"
       y1="407.17468"
       x2="1200.9375"
       y2="455.54968" />
    <linearGradient
       inkscape:collect="always"
       xlink:href="#linearGradient3721"
       id="linearGradient4475"
       gradientUnits="userSpaceOnUse"
       x1="1207.125"
       y1="407.17468"
       x2="1200.9375"
       y2="455.54968" />
    <linearGradient
       inkscape:collect="always"
       xlink:href="#linearGradient3721"
       id="linearGradient4483"
       gradientUnits="userSpaceOnUse"
       x1="723.16351"
       y1="297.09921"
       x2="719.98145"
       y2="326.53253" />
    <linearGradient
       inkscape:collect="always"
       xlink:href="#linearGradient3721"
       id="linearGradient4485"
       gradientUnits="userSpaceOnUse"
       x1="723.16351"
       y1="297.09921"
       x2="719.98145"
       y2="326.53253" />
    <linearGradient
       inkscape:collect="always"
       xlink:href="#linearGradient3721"
       id="linearGradient4487"
       gradientUnits="userSpaceOnUse"
       x1="723.16351"
       y1="297.09921"
       x2="719.98145"
       y2="326.53253" />
    <linearGradient
       inkscape:collect="always"
       xlink:href="#linearGradient3721"
       id="linearGradient4533"
       gradientUnits="userSpaceOnUse"
       x1="723.16351"
       y1="297.09921"
       x2="719.98145"
       y2="326.53253" />
    <linearGradient
       inkscape:collect="always"
       xlink:href="#linearGradient3721"
       id="linearGradient4535"
       gradientUnits="userSpaceOnUse"
       x1="723.16351"
       y1="297.09921"
       x2="719.98145"
       y2="326.53253" />
    <linearGradient
       inkscape:collect="always"
       xlink:href="#linearGradient3721"
       id="linearGradient4537"
       gradientUnits="userSpaceOnUse"
       x1="723.16351"
       y1="297.09921"
       x2="719.98145"
       y2="326.53253" />
    <linearGradient
       inkscape:collect="always"
       xlink:href="#linearGradient3721"
       id="linearGradient4539"
       gradientUnits="userSpaceOnUse"
       x1="1207.125"
       y1="407.17468"
       x2="1200.9375"
       y2="455.54968" />
    <linearGradient
       inkscape:collect="always"
       xlink:href="#linearGradient3721"
       id="linearGradient4541"
       gradientUnits="userSpaceOnUse"
       x1="1207.125"
       y1="407.17468"
       x2="1200.9375"
       y2="455.54968" />
    <linearGradient
       inkscape:collect="always"
       xlink:href="#linearGradient3721"
       id="linearGradient3109"
       gradientUnits="userSpaceOnUse"
       x1="1207.125"
       y1="407.17468"
       x2="1200.9375"
       y2="455.54968" />
    <linearGradient
       inkscape:collect="always"
       xlink:href="#linearGradient3721"
       id="linearGradient3123"
       gradientUnits="userSpaceOnUse"
       x1="1207.125"
       y1="407.17468"
       x2="1200.9375"
       y2="455.54968" />
    <linearGradient
       inkscape:collect="always"
       xlink:href="#linearGradient3721"
       id="linearGradient3187"
       gradientUnits="userSpaceOnUse"
       x1="1207.125"
       y1="407.17468"
       x2="1200.9375"
       y2="455.54968" />
    <linearGradient
       inkscape:collect="always"
       xlink:href="#linearGradient3721"
       id="linearGradient3213"
       gradientUnits="userSpaceOnUse"
       x1="1207.125"
       y1="407.17468"
       x2="1200.9375"
       y2="455.54968" />
    <filter
       inkscape:collect="always"
       id="filter4042"
       color-interpolation-filters="sRGB">
      <feGaussianBlur
         inkscape:collect="always"
         stdDeviation="1.341906"
         id="feGaussianBlur4044" />
    </filter>
    <filter
       inkscape:collect="always"
       id="filter4141"
       color-interpolation-filters="sRGB">
      <feGaussianBlur
         inkscape:collect="always"
         stdDeviation="2.1805664"
         id="feGaussianBlur4143" />
    </filter>
    <inkscape:perspective
       id="perspective2846"
       inkscape:persp3d-origin="0.5 : 0.33333333 : 1"
       inkscape:vp_z="1 : 0.5 : 1"
       inkscape:vp_y="0 : 1000 : 0"
       inkscape:vp_x="0 : 0.5 : 1"
       sodipodi:type="inkscape:persp3d" />
    <filter
       inkscape:collect="always"
       id="filter3904"
       color-interpolation-filters="sRGB">
      <feGaussianBlur
         inkscape:collect="always"
         stdDeviation="0.35732071"
         id="feGaussianBlur3906" />
    </filter>
    <linearGradient
       inkscape:collect="always"
       xlink:href="#linearGradient3721"
       id="linearGradient3984"
       gradientUnits="userSpaceOnUse"
       gradientTransform="translate(-406.67651,444.06046)"
       x1="1207.125"
       y1="407.17468"
       x2="1200.9375"
       y2="455.54968" />
    <linearGradient
       inkscape:collect="always"
       xlink:href="#linearGradient3721"
       id="linearGradient3986"
       gradientUnits="userSpaceOnUse"
       gradientTransform="translate(-406.67651,444.06046)"
       x1="1207.125"
       y1="407.17468"
       x2="1200.9375"
       y2="455.54968" />
    <linearGradient
       inkscape:collect="always"
       xlink:href="#linearGradient3721"
       id="linearGradient3988"
       gradientUnits="userSpaceOnUse"
       gradientTransform="translate(-406.67651,444.06046)"
       x1="1207.125"
       y1="407.17468"
       x2="1200.9375"
       y2="455.54968" />
    <linearGradient
       inkscape:collect="always"
       xlink:href="#linearGradient3721"
       id="linearGradient3990"
       gradientUnits="userSpaceOnUse"
       gradientTransform="translate(-406.67651,444.06046)"
       x1="1207.125"
       y1="407.17468"
       x2="1200.9375"
       y2="455.54968" />
    <linearGradient
       inkscape:collect="always"
       xlink:href="#linearGradient3721"
       id="linearGradient3992"
       gradientUnits="userSpaceOnUse"
       gradientTransform="translate(-406.67651,444.06046)"
       x1="1207.125"
       y1="407.17468"
       x2="1200.9375"
       y2="455.54968" />
    <linearGradient
       inkscape:collect="always"
       xlink:href="#linearGradient3721"
       id="linearGradient3994"
       gradientUnits="userSpaceOnUse"
       gradientTransform="translate(-406.67651,444.06046)"
       x1="1207.125"
       y1="407.17468"
       x2="1200.9375"
       y2="455.54968" />
    <linearGradient
       inkscape:collect="always"
       xlink:href="#linearGradient3721"
       id="linearGradient4004"
       gradientUnits="userSpaceOnUse"
       gradientTransform="translate(-406.67651,444.06046)"
       x1="1207.125"
       y1="407.17468"
       x2="1200.9375"
       y2="455.54968" />
    <linearGradient
       inkscape:collect="always"
       xlink:href="#linearGradient3721"
       id="linearGradient4006"
       gradientUnits="userSpaceOnUse"
       gradientTransform="translate(-406.67651,444.06046)"
       x1="1207.125"
       y1="407.17468"
       x2="1200.9375"
       y2="455.54968" />
    <linearGradient
       inkscape:collect="always"
       xlink:href="#linearGradient3721"
       id="linearGradient4008"
       gradientUnits="userSpaceOnUse"
       gradientTransform="translate(-406.67651,444.06046)"
       x1="1207.125"
       y1="407.17468"
       x2="1200.9375"
       y2="455.54968" />
    <linearGradient
       inkscape:collect="always"
       xlink:href="#linearGradient3721"
       id="linearGradient4010"
       gradientUnits="userSpaceOnUse"
       gradientTransform="translate(-406.67651,444.06046)"
       x1="1207.125"
       y1="407.17468"
       x2="1200.9375"
       y2="455.54968" />
    <linearGradient
       inkscape:collect="always"
       xlink:href="#linearGradient3721"
       id="linearGradient4012"
       gradientUnits="userSpaceOnUse"
       gradientTransform="translate(-406.67651,444.06046)"
       x1="1207.125"
       y1="407.17468"
       x2="1200.9375"
       y2="455.54968" />
    <linearGradient
       inkscape:collect="always"
       xlink:href="#linearGradient3721"
       id="linearGradient4014"
       gradientUnits="userSpaceOnUse"
       gradientTransform="translate(-406.67651,444.06046)"
       x1="1207.125"
       y1="407.17468"
       x2="1200.9375"
       y2="455.54968" />
    <linearGradient
       inkscape:collect="always"
       xlink:href="#linearGradient3699"
       id="linearGradient4016"
       gradientUnits="userSpaceOnUse"
       x1="134.12532"
       y1="151.84966"
       x2="157.33098"
       y2="-91.345467" />
    <linearGradient
       inkscape:collect="always"
       xlink:href="#linearGradient3908"
       id="linearGradient4018"
       gradientUnits="userSpaceOnUse"
       gradientTransform="matrix(1.0271861,0,0,1.0271861,-7.0117096,-18.069297)"
       x1="308.25436"
       y1="688.92035"
       x2="331.30795"
       y2="659.02576" />
    <inkscape:perspective
       id="perspective3030"
       inkscape:persp3d-origin="0.5 : 0.33333333 : 1"
       inkscape:vp_z="1 : 0.5 : 1"
       inkscape:vp_y="0 : 1000 : 0"
       inkscape:vp_x="0 : 0.5 : 1"
       sodipodi:type="inkscape:persp3d" />
    <linearGradient
       inkscape:collect="always"
       xlink:href="#linearGradient3721"
       id="linearGradient4112"
       gradientUnits="userSpaceOnUse"
       gradientTransform="translate(-406.67651,444.06046)"
       x1="1207.125"
       y1="407.17468"
       x2="1200.9375"
       y2="455.54968" />
    <linearGradient
       inkscape:collect="always"
       xlink:href="#linearGradient3721"
       id="linearGradient4114"
       gradientUnits="userSpaceOnUse"
       gradientTransform="translate(-406.67651,444.06046)"
       x1="1207.125"
       y1="407.17468"
       x2="1200.9375"
       y2="455.54968" />
    <linearGradient
       inkscape:collect="always"
       xlink:href="#linearGradient3721"
       id="linearGradient4116"
       gradientUnits="userSpaceOnUse"
       gradientTransform="translate(-410.42106,444.06046)"
       x1="1207.125"
       y1="407.17468"
       x2="1200.9375"
       y2="455.54968" />
    <radialGradient
       inkscape:collect="always"
       xlink:href="#linearGradient5375"
       id="radialGradient4118"
       gradientUnits="userSpaceOnUse"
       gradientTransform="matrix(-1.546708,-1.2439155,0.75848248,-1.9794384,1392.562,1136.4734)"
       cx="584.39978"
       cy="140.24142"
       fx="584.39978"
       fy="140.24142"
       r="17.991381" />
    <linearGradient
       inkscape:collect="always"
       xlink:href="#linearGradient3699"
       id="linearGradient4120"
       gradientUnits="userSpaceOnUse"
       x1="134.12532"
       y1="151.84966"
       x2="157.33098"
       y2="-91.345467" />
    <linearGradient
       inkscape:collect="always"
       xlink:href="#linearGradient3908"
       id="linearGradient4122"
       gradientUnits="userSpaceOnUse"
       gradientTransform="matrix(1.0271861,0,0,1.0271861,-7.0117096,-18.069297)"
       x1="308.25436"
       y1="688.92035"
       x2="331.30795"
       y2="659.02576" />
    <linearGradient
       inkscape:collect="always"
       xlink:href="#linearGradient3721"
       id="linearGradient4255"
       gradientUnits="userSpaceOnUse"
       gradientTransform="translate(-339.37555,504.67089)"
       x1="1207.125"
       y1="407.17468"
       x2="1200.9375"
       y2="455.54968" />
    <linearGradient
       inkscape:collect="always"
       xlink:href="#linearGradient3721"
       id="linearGradient4258"
       gradientUnits="userSpaceOnUse"
       gradientTransform="translate(-335.48554,504.0118)"
       x1="1207.125"
       y1="407.17468"
       x2="1200.9375"
       y2="455.54968" />
    <linearGradient
       inkscape:collect="always"
       xlink:href="#linearGradient3721"
       id="linearGradient4261"
       gradientUnits="userSpaceOnUse"
       gradientTransform="translate(-335.44854,504.05845)"
       x1="1207.125"
       y1="407.17468"
       x2="1200.9375"
       y2="455.54968" />
    <filter
       inkscape:collect="always"
       id="filter4346">
      <feGaussianBlur
         inkscape:collect="always"
         stdDeviation="1.4534056"
         id="feGaussianBlur4348" />
    </filter>
    <filter
       inkscape:collect="always"
       id="filter4392"
       x="-0.094924822"
       width="1.1898496"
       y="-0.16307855"
       height="1.3261571">
      <feGaussianBlur
         inkscape:collect="always"
         stdDeviation="0.72295575"
         id="feGaussianBlur4394" />
    </filter>
  </defs>
  <sodipodi:namedview
     id="base"
     pagecolor="#ffffff"
     bordercolor="#666666"
     borderopacity="1.0"
     inkscape:pageopacity="0.0"
     inkscape:pageshadow="2"
     inkscape:zoom="1.4142136"
     inkscape:cx="413.26523"
     inkscape:cy="315.59544"
     inkscape:document-units="mm"
     inkscape:current-layer="layer1"
     showgrid="false"
     inkscape:window-width="1024"
     inkscape:window-height="712"
     inkscape:window-x="-4"
     inkscape:window-y="-4"
     inkscape:window-maximized="1"
     inkscape:snap-global="false"
     showguides="false"
     inkscape:guide-bbox="true"
     inkscape:showpageshadow="false"
     showborder="false">
    <sodipodi:guide
       orientation="1,0"
       position="1517.5,271.5"
       id="guide4234" />
    <sodipodi:guide
       orientation="1,0"
       position="1623.5,262.5"
       id="guide4236" />
    <sodipodi:guide
       orientation="1,0"
       position="184.62891,231.32813"
       id="guide4238" />
    <sodipodi:guide
       orientation="1,0"
       position="543.51953,228.73828"
       id="guide4240" />
    <sodipodi:guide
       orientation="1,0"
       position="440.68749,318.24999"
       id="guide4242" />
    <sodipodi:guide
       orientation="1,0"
       position="287.37499,316.74999"
       id="guide4244" />
  </sodipodi:namedview>
  <metadata
     id="metadata3534">
    <rdf:RDF>
      <cc:Work
         rdf:about="">
        <dc:format>image/svg+xml</dc:format>
        <dc:type
           rdf:resource="http://purl.org/dc/dcmitype/StillImage" />
        <dc:title />
      </cc:Work>
    </rdf:RDF>
  </metadata>
  <g
     inkscape:label="Camada 1"
     inkscape:groupmode="layer"
     id="layer1"
     transform="translate(0,-527.95269)">
    <path
       id="path4030"
       style="font-size:72.80062103px;font-style:normal;font-weight:normal;opacity:0.8;fill:url(#linearGradient4261);fill-opacity:1;stroke:none;filter:url(#filter4042);font-family:Kabel;-inkscape-font-specification:Kabel"
       d="m 197.59594,830.83866 0,27.15805 -15.37416,1.45744 0,-59.91477 15.37416,-1.67072 0,27.30024 20.01306,-27.01586 15.00091,4.07015 -19.5154,25.9139 20.03083,27.74457 -15.72962,4.23011 z" />
    <path
       id="path4032"
       style="font-size:72.80062103px;font-style:normal;font-weight:normal;opacity:0.8;fill:url(#linearGradient4258);fill-opacity:1;stroke:none;filter:url(#filter4042);font-family:Kabel;-inkscape-font-specification:Kabel"
       d="m 253.3147,812.59186 0,31.81472 c 6.94352,1e-5 11.89642,-1.48112 14.85872,-4.4434 2.96223,-2.96223 4.44336,-6.81911 4.4434,-11.5706 l 0,-0.44434 c -0.15408,-5.81786 -1.87812,-9.82283 -5.17212,-12.01495 -3.35331,-2.13279 -8.06331,-3.2466 -14.13,-3.34143 z m 1.24415,45.50038 -16.88491,0 0,-58.59952 17.75582,0 c 6.45771,6e-5 12.1334,1.09017 17.02709,3.27034 4.90547,2.18029 8.69124,5.43286 11.35733,9.7577 2.63044,4.37235 3.96938,9.71034 4.01683,16.01401 -5e-5,4.46712 -0.87688,8.56689 -2.63049,12.29932 -1.74186,3.74432 -4.1176,6.87839 -7.12721,9.40223 -3.0097,2.52386 -6.57627,4.46413 -10.6997,5.82085 -4.1235,1.35672 -8.39509,2.03507 -12.81476,2.03507 z" />
    <path
       id="path4034"
       style="font-size:72.80062103px;font-style:normal;font-weight:normal;opacity:0.8;fill:url(#linearGradient4255);fill-opacity:1;stroke:none;filter:url(#filter4042);font-family:Kabel;-inkscape-font-specification:Kabel"
       d="m 291.22816,858.75133 0,-58.59952 34.94288,0 2.98596,12.95695 -22.85684,0 0,9.24226 16.44057,0 0,12.95695 -16.58275,0 0,10.48642 24.59864,0 -3.85687,12.95694 z" />
    <path
       id="path4358"
       d="m 331.08691,826.7616 18.27861,0 0,10.63962 -18.27861,0 0,-10.63962 z"
       style="opacity:0.9;fill:#0069c5;fill-opacity:0.76470588;stroke:none;filter:url(#filter4392)" />
    <g
       transform="translate(1.999998,-0.750001)"
       style="font-size:72.90200043px;font-style:normal;font-weight:normal;fill:#0168c5;fill-opacity:0.8;stroke:none;filter:url(#filter4346);font-family:Kabel;-inkscape-font-specification:Kabel"
       id="g4289">
      <path
         id="path4277"
         style="letter-spacing:-7.36517239;fill:#0168c5;fill-opacity:0.8"
         d="m 375.39608,860.07361 -23.90317,-0.14239 0,-58.53874 17.49577,0 c 7.1905,6e-5 12.80291,0.91964 16.83723,2.75874 3.98679,1.85109 6.19971,5.69552 6.63878,11.53333 0.0474,0.4272 0.0711,0.83656 0.0712,1.22808 -5e-5,2.33756 -0.48654,4.3547 -1.45947,6.05144 -1.16286,2.04091 -2.33162,3.5241 -3.50627,4.44958 -1.21033,0.97301 -2.12991,1.60189 -2.75874,1.88663 0.14235,0.10682 1.01446,0.62297 2.61635,1.54845 1.55435,0.96114 3.03754,2.34348 4.44959,4.14702 1.36449,1.85105 2.14168,4.13517 2.33158,6.85236 0.0474,0.58143 0.0711,1.16284 0.0712,1.74424 -4e-5,3.10879 -0.65265,5.8082 -1.95781,8.09824 -1.61376,2.71722 -3.89788,4.78182 -6.85236,6.19382 -3.01389,1.45947 -6.37184,2.1892 -10.07387,2.1892 z m -5.53528,-24.20574 -3.71985,0 0,12.24525 4.3072,0 c 3.01382,2e-5 5.19708,-0.53393 6.54979,-1.60185 1.22212,-0.97296 1.83319,-2.37903 1.83322,-4.2182 -3e-5,-0.15424 -3e-5,-0.30256 0,-0.44496 -0.0475,-2.18324 -0.80095,-3.73763 -2.26038,-4.66317 -1.50696,-0.87802 -3.74361,-1.31705 -6.70998,-1.31707 z m -0.14239,-23.17344 -3.57746,0 0,11.8003 3.71985,0 c 2.04085,3e-5 3.81475,-0.58138 5.3217,-1.74424 1.26959,-1.0204 1.9044,-2.38494 1.90443,-4.09362 -3e-5,4e-5 -3e-5,-0.23727 0,-0.71193 -0.20175,-2.14762 -0.93148,-3.55962 -2.1892,-4.23601 -1.3171,-0.67629 -3.04354,-1.01446 -5.17932,-1.0145 z" />
      <path
         id="path4279"
         style="letter-spacing:-7.36517239;fill:#0168c5;fill-opacity:0.8"
         d="m 411.87717,841.70572 0,18.51028 -14.50565,1.38827 0,-44.69164 13.56233,-1.67304 0,7.36851 c 1.11535,-2.19509 2.79432,-3.92152 5.03693,-5.17931 2.18324,-1.26958 4.53855,-1.90438 7.06595,-1.90443 0.77123,5e-5 1.47723,0.0238 2.118,0.0712 0.62884,0.10683 1.06193,0.18396 1.29928,0.23138 l -4.43179,13.9183 c -0.10682,-0.0474 -0.35006,-0.11863 -0.72973,-0.21358 -0.39159,-0.0474 -0.90181,-0.0712 -1.53066,-0.0712 -0.87808,3e-5 -1.87478,0.14242 -2.99012,0.42716 -1.99344,0.58145 -3.31051,1.64935 -3.95123,3.20371 -0.6289,1.61374 -0.9908,3.73174 -1.0857,6.354 0.0949,0.48651 0.14237,1.23997 0.14239,2.26039 z" />
      <path
         id="path4281"
         style="letter-spacing:-7.36517239;fill:#0168c5;fill-opacity:0.8"
         d="m 462.64134,829.60285 0,30.32837 -12.53003,1.45947 0,-3.71986 c -3e-5,0.14239 -0.46279,0.55175 -1.38827,1.22809 -0.973,0.73566 -2.21295,1.3942 -3.71985,1.97561 -1.55441,0.62888 -3.32831,0.96705 -5.32171,1.01451 -0.0949,0 -0.1958,0 -0.30257,0 -2.81215,0 -5.43444,-0.60515 -7.86686,-1.81543 -2.57484,-1.25775 -4.59198,-3.05538 -6.05144,-5.3929 -1.50693,-2.29004 -2.26039,-5.01319 -2.26039,-8.16944 0,-2.91891 0.75346,-5.54119 2.26039,-7.86686 1.45946,-2.33749 3.52406,-4.15886 6.19382,-5.46409 2.38497,-1.17467 4.95979,-1.76201 7.72448,-1.76204 -2e-5,3e-5 0.29662,3e-5 0.88992,0 1.74421,0.0475 3.32233,0.3382 4.73436,0.87212 1.35265,0.53398 2.46801,1.12132 3.34609,1.76204 0.86615,0.61703 1.30518,0.93147 1.31707,0.94331 -3e-5,-1.80354 -0.14835,-3.21554 -0.44496,-4.23601 -0.43905,-1.60182 -1.28744,-2.8121 -2.54516,-3.63086 -1.21031,-0.73563 -3.10287,-1.10346 -5.67767,-1.1035 -0.15427,4e-5 -0.30259,4e-5 -0.44496,0 -2.04089,4e-5 -4.47333,0.53399 -7.29732,1.60185 -2.85961,1.06794 -4.46146,1.77394 -4.80555,2.11801 l 2.54516,-12.38765 c 0.10678,-0.0949 1.05603,-0.33812 2.84774,-0.72973 1.80355,-0.39152 3.62491,-0.73562 5.46409,-1.0323 1.80354,-0.28473 3.55371,-0.45085 5.25051,-0.49836 0.29661,5e-5 0.58732,5e-5 0.87212,0 2.9189,5e-5 5.64204,0.4628 8.16944,1.38827 2.71717,1.06795 4.9034,2.6698 6.55868,4.80556 1.65521,2.13583 2.48283,4.90644 2.48287,8.31182 z m -13.11737,16.76604 c -3e-5,-1.75609 -0.65857,-3.19182 -1.97562,-4.3072 -1.25778,-1.02042 -2.78843,-1.53064 -4.59197,-1.53066 -2e-5,2e-5 -0.095,2e-5 -0.28477,0 -1.75613,0.095 -3.23932,0.62889 -4.44959,1.60185 -1.26963,1.02046 -1.92817,2.30787 -1.97561,3.86224 -2e-5,0.10681 -2e-5,0.20766 0,0.30257 -2e-5,1.60187 0.58732,2.88928 1.76203,3.86224 1.25773,1.11537 2.9545,1.67306 5.09033,1.67305 1.80354,10e-6 3.33419,-0.46275 4.59197,-1.38827 1.22212,-0.91364 1.8332,-2.27225 1.83323,-4.07582 z" />
      <path
         id="path4283"
         style="letter-spacing:-7.36517239;fill:#0168c5;fill-opacity:0.8"
         d="m 501.16929,821.94956 -8.5254,7.65329 c -3e-5,-0.0949 -0.17208,-0.33814 -0.51615,-0.72973 -0.3916,-0.34407 -0.80689,-0.68224 -1.24589,-1.01451 -0.43905,-0.34407 -1.06792,-0.68817 -1.88662,-1.0323 -0.87808,-0.3322 -1.85105,-0.49832 -2.91893,-0.49835 -1.36456,3e-5 -2.55705,0.267 -3.57746,0.80092 -1.06792,0.58145 -1.62561,1.4061 -1.67305,2.47397 -2e-5,3e-5 -2e-5,0.0475 0,0.14239 -2e-5,0.6289 0.48647,1.18658 1.45947,1.67304 0.97295,0.48652 2.23663,0.87808 3.79104,1.17469 1.55436,0.2848 3.15621,0.57551 4.80555,0.87212 2.77651,0.53398 5.40473,1.84512 7.88467,3.93343 2.37307,2.08836 3.55963,5.41665 3.55967,9.98487 -4e-5,0.0949 -4e-5,0.1958 0,0.30257 -0.0475,2.76469 -0.94336,5.29205 -2.68755,7.5821 -1.8036,2.27819 -4.13518,4.05209 -6.99475,5.3217 -2.72911,1.16282 -5.67176,1.74424 -8.82798,1.74424 -0.2492,0 -0.49244,0 -0.72973,0 -4.08177,-0.14239 -7.82535,-1.09164 -11.23075,-2.84774 -3.40542,-1.69677 -5.49376,-2.93672 -6.26502,-3.71985 l 7.06594,-9.25514 c 0.78312,0.83061 2.09426,1.82731 3.93344,2.99012 1.80355,1.16284 3.87408,1.74425 6.21162,1.74424 -2e-5,10e-6 0.0949,10e-6 0.28477,0 1.64929,10e-6 3.08502,-0.33816 4.3072,-1.0145 1.02041,-0.58141 1.53063,-1.3586 1.53066,-2.33159 -3e-5,-0.0949 -3e-5,-0.2195 0,-0.37376 -0.15428,-1.06789 -0.64077,-1.76796 -1.45947,-2.10021 -0.83061,-0.29662 -2.53332,-0.71191 -5.10812,-1.24588 -2.62231,-0.48647 -4.85896,-1.11534 -6.70998,-1.88662 -5.49376,-2.43242 -8.24063,-6.56757 -8.24063,-12.40545 0,-2.76464 0.77719,-5.26827 2.33159,-7.5109 1.50691,-2.23068 3.52406,-3.98085 6.05143,-5.25051 2.47989,-1.2577 5.15557,-1.93404 8.02705,-2.02901 0.39154,5e-5 0.77717,5e-5 1.15689,0 3.79696,5e-5 7.27356,0.87217 10.42983,2.61636 3.45284,1.99345 5.37506,3.40545 5.76666,4.236 z" />
      <path
         id="path4285"
         style="letter-spacing:-7.36517239;fill:#0168c5;fill-opacity:0.8"
         d="m 513.41836,813.63774 -9.55771,-7.36851 8.38302,-8.66779 10.14506,7.20832 z m -7.29732,3.13251 13.77592,-1.67305 0,44.69163 -13.77592,1.01451 z" />
      <path
         id="path4287"
         style="letter-spacing:-7.36517239;fill:#0168c5;fill-opacity:0.8"
         d="m 525.59044,861.39069 0,-59.99821 13.9361,-1.38827 0,60.0694 z" />
    </g>
    <g
       id="g4070"
       transform="translate(73.639589,57.81981)">
      <path
         id="path4072"
         style="font-size:72.80062103px;font-style:normal;font-weight:normal;fill:url(#linearGradient4112);fill-opacity:1;stroke:none;font-family:Kabel;-inkscape-font-specification:Kabel"
         d="m 126.36797,770.84067 0,27.15805 -15.37416,1.45743 0,-59.91477 15.37416,-1.67072 0,27.30024 20.01306,-27.01586 15.00091,4.07015 -19.5154,25.9139 20.03083,27.74457 -15.72962,4.23011 z" />
      <path
         id="path4074"
         style="font-size:72.80062103px;font-style:normal;font-weight:normal;fill:url(#linearGradient4114);fill-opacity:1;stroke:none;font-family:Kabel;-inkscape-font-specification:Kabel"
         d="m 182.12372,752.64052 0,31.81472 c 6.94352,10e-6 11.89642,-1.48112 14.85872,-4.4434 2.96223,-2.96224 4.44336,-6.81911 4.4434,-11.5706 l 0,-0.44434 c -0.15408,-5.81786 -1.87812,-9.82283 -5.17212,-12.01495 -3.35331,-2.13279 -8.06331,-3.2466 -14.13,-3.34143 z m 1.24415,45.50038 -16.88491,0 0,-58.59952 17.75582,0 c 6.45771,6e-5 12.1334,1.09017 17.02709,3.27034 4.90547,2.18028 8.69124,5.43285 11.35733,9.7577 2.63044,4.37235 3.96938,9.71034 4.01683,16.01401 -5e-5,4.46712 -0.87688,8.56689 -2.63049,12.29932 -1.74186,3.74432 -4.1176,6.87839 -7.12721,9.40223 -3.0097,2.52385 -6.57627,4.46413 -10.6997,5.82085 -4.1235,1.35672 -8.39509,2.03507 -12.81476,2.03507 z" />
      <path
         id="path4076"
         style="font-size:72.80062103px;font-style:normal;font-weight:normal;fill:url(#linearGradient4116);fill-opacity:1;stroke:none;font-family:Kabel;-inkscape-font-specification:Kabel"
         d="m 220.18265,798.1409 0,-58.59952 34.94288,0 2.98596,12.95695 -22.85684,0 0,9.24226 16.44057,0 0,12.95695 -16.58275,0 0,10.48642 24.59864,0 -3.85687,12.95694 -35.67159,0 z"
         sodipodi:nodetypes="ccccccccccccc" />
    </g>
    <path
       transform="matrix(1.5587801,-3.9665793,3.9665793,1.5587801,-1085.4404,2750.206)"
       d="m 588.60564,141.22707 c 0,9.93636 -8.05502,17.99138 -17.99138,17.99138 -9.93637,0 -17.99138,-8.05502 -17.99138,-17.99138 0,-9.93637 8.05501,-17.99138 17.99138,-17.99138 9.93636,0 17.99138,8.05501 17.99138,17.99138 z"
       sodipodi:ry="17.991381"
       sodipodi:rx="17.991381"
       sodipodi:cy="141.22707"
       sodipodi:cx="570.61426"
       id="path4078"
       style="fill:#0068c6;fill-opacity:1;stroke:none"
       sodipodi:type="arc" />
    <path
       id="path4080"
       d="m -1637.2041,755.74742 c -15.1111,0.38854 -29.2485,9.64003 -35.125,24.59375 -7.8353,19.93829 1.968,42.44593 21.9062,50.28125 19.9383,7.83532 42.4772,-1.96796 50.3126,-21.90625 7.8353,-19.93829 -1.9993,-42.44593 -21.9376,-50.28125 -4.9845,-1.95883 -10.1192,-2.81701 -15.1562,-2.6875 z m -0.031,2.125 c 4.7486,-0.1221 9.582,0.68456 14.2812,2.53125 18.7968,7.38675 28.043,28.60941 20.6562,47.40625 -7.3867,18.79684 -28.6094,28.043 -47.4062,20.65625 -18.7968,-7.38675 -28.043,-28.60941 -20.6562,-47.40625 5.54,-14.09763 18.879,-22.82121 33.125,-23.1875 z"
       style="fill:#ffffff;fill-opacity:1;stroke:none;filter:url(#filter5331)"
       transform="matrix(1.7822874,0,0,1.7822874,3280.4004,-708.59394)" />
    <path
       transform="matrix(1.0097602,-2.1218372,2.5695051,0.83383621,-575.29135,1828.1096)"
       d="m 588.60564,141.22707 c 0,9.93636 -8.05502,17.99138 -17.99138,17.99138 -9.93637,0 -17.99138,-8.05502 -17.99138,-17.99138 0,-9.93637 8.05501,-17.99138 17.99138,-17.99138 9.93636,0 17.99138,8.05501 17.99138,17.99138 z"
       sodipodi:ry="17.991381"
       sodipodi:rx="17.991381"
       sodipodi:cy="141.22707"
       sodipodi:cx="570.61426"
       id="path4082"
       style="fill:#aaccff;fill-opacity:1;stroke:none;filter:url(#filter5263)"
       sodipodi:type="arc" />
    <path
       sodipodi:type="arc"
       style="opacity:0.9;fill:url(#radialGradient4118);fill-opacity:1;stroke:none"
       id="path4084"
       sodipodi:cx="570.61426"
       sodipodi:cy="141.22707"
       sodipodi:rx="17.991381"
       sodipodi:ry="17.991381"
       d="m 588.60564,141.22707 c 0,9.93636 -8.05502,17.99138 -17.99138,17.99138 -9.93637,0 -17.99138,-8.05502 -17.99138,-17.99138 0,-9.93637 8.05501,-17.99138 17.99138,-17.99138 9.93636,0 17.99138,8.05501 17.99138,17.99138 z"
       transform="matrix(1.5099337,-1.1921213,1.5845248,1.5429205,-702.8319,1138.9471)" />
    <path
       sodipodi:nodetypes="cscsc"
       style="fill:#ffffff;fill-opacity:1;stroke:none;filter:url(#filter5363)"
       d="m -1641.3966,831.87688 c -3.752,-1.34139 -6.9992,-1.95889 -10.6335,-3.96301 -10.0876,-5.56277 -15.1607,-11.75201 -19.5399,-19.09375 3.2155,9.75 9.4433,18.1772 21.5399,21.875 3.0622,0.93608 5.5989,0.77336 8.6335,1.18176 z"
       id="path4086"
       transform="matrix(1.7822874,0,0,1.7822874,3280.4004,-708.59394)" />
    <path
       style="fill:#1468c8;fill-opacity:0.65098039;stroke:none;filter:url(#filter3695)"
       d="m -1635.2362,828.52077 1.617,-1.5466 0.2109,-1.4062 1.9685,-0.9138 1.1248,-2.1794 1.9685,-2.6013 0.4218,-4.429 3.4448,-2.9527 3.0231,-1.4062 3.0933,-0.07 4.0776,-6.8194 0.6327,-1.6169 0.4921,-3.4449 0.1406,-3.3745 1.2654,-0.3516 1.4061,-2.4605 2.9527,-2.8121 0.703,-2.1795 -0.2812,-3.2338 -3.0933,-1.6171 -3.5854,-3.0229 -3.3394,-0.07 -2.2848,-0.9492 -2.074,-0.1054 -0.035,-0.5976 -0.6327,-0.7381 -4.3939,-1.125 -1.6873,-0.9139 -1.617,0.036 -0.8788,-0.6327 0,-1.8982 -1.4412,-1.7575 -0.1757,-1.5819 -1.2655,-0.5975 -2.4254,3.3745 -1.8631,-0.3867 -2.7066,-0.5273 -0.9843,1.0898 -1.6521,-0.036 -1.3357,1.0193 -1.3358,-0.1405 -0.9842,-1.5467 0.2109,-1.3358 0.6327,-0.914 -1.0545,-1.6169 -0.914,-0.3515 -2.32,2.109 -2.3903,0 -2.2496,0.4218 -0.2813,0.5625 1.3358,1.4764 -2.1091,2.6012 -1.406,-0.07 -1.3358,-1.5466 -1.4061,-0.07 -2.109,0.8436 -0.7031,0.703 0.6327,1.8981 -0.4218,6.1867 -3.2339,1.0546 -1.8279,1.4764 -1.1951,3.3041 0.6327,2.3904 3.0933,1.6872 1.8279,-0.9139 0.2812,2.32 0.703,0.6327 2.3903,-0.6327 2.4606,-1.0546 1.3358,-1.0545 1.2654,0.4218 0,2.2496 1.4764,1.9686 4.3588,1.1952 2.1794,0.07 -0.2812,2.32 1.2654,1.7576 2.0388,-0.07 1.6873,3.3746 -0.7031,2.2496 0.4218,2.6716 0.5625,0.703 2.6715,-0.07 2.2497,2.6713 -0.2109,2.4607 1.1951,0.492 0.1406,1.0546 -3.2339,2.6012 -2.32,2.8824 0.8436,0.703 0.7734,-0.07 1.406,0.9842 2.8824,1.6873 -0.07,1.8279 0.3515,0.2812 0,-9e-4 0,-7e-4 z"
       id="path4088"
       sodipodi:nodetypes="ccccccccccccccccccccccccccccccccccccccccccccccccccccccccccccccccccccccccccccccccccccccccccccccccc"
       transform="matrix(1.7822874,0,0,1.7822874,3280.4004,-708.59394)" />
    <path
       sodipodi:nodetypes="ccccccccccccccccccccccccccccccccccccccccccccccccccccccccccccccccccccccccccccccccccccccccccccccccc"
       id="path4090"
       d="m 369.83841,764.5036 2.88208,-2.7565 0.37582,-2.50624 3.5085,-1.62866 2.00463,-3.88431 3.50859,-4.63627 0.75162,-7.89374 6.13966,-5.26256 5.38812,-2.50627 5.51301,-0.12469 7.26742,-12.15413 1.12779,-2.8818 0.87708,-6.13979 0.2506,-6.01433 2.25534,-0.62666 2.50593,-4.3853 5.26265,-5.01199 1.25279,-3.88448 -0.50081,-5.76358 -5.51349,-2.88212 -6.39009,-5.38769 -5.95179,-0.12469 -4.07213,-1.69175 -3.6967,-0.18785 -0.0621,-1.0651 -1.12757,-1.3155 -7.8312,-2.00509 -3.00719,-1.62883 -2.88197,0.0642 -1.56646,-1.12763 0,-3.38315 -2.56842,-3.13239 -0.31332,-2.81941 -2.25544,-1.06488 -4.32284,6.01433 -3.32042,-0.68924 -4.82399,-0.93979 -1.75418,1.94233 -2.9447,-0.0641 -2.38045,1.81668 -2.38094,-0.25041 -1.75406,-2.75664 0.37594,-2.3808 1.12754,-1.62903 -1.8793,-2.88176 -1.62894,-0.6265 -4.13477,3.75886 -4.26021,0 -4.00966,0.75176 -0.50128,1.00254 2.38069,2.63137 -3.75905,4.6361 -2.50592,-0.12471 -2.38068,-2.75648 -2.50618,-0.12469 -3.75869,1.50354 -1.25326,1.25295 1.12791,3.38297 -0.75198,11.02645 -5.76371,1.87962 -3.25801,2.63137 -2.12989,5.88885 1.12767,4.26035 5.51313,3.0071 3.25792,-1.62886 0.50102,4.13494 1.25326,1.12763 4.26011,-1.12763 4.38545,-1.87962 2.38068,-1.87942 2.25558,0.75178 0,4.00943 2.63104,3.50861 7.76871,2.13019 3.8844,0.1247 -0.50126,4.13493 2.25522,3.13253 3.63384,-0.12471 3.00719,6.0145 -1.25302,4.00945 0.75186,4.76156 1.0022,1.25295 4.76151,-0.12469 4.00963,4.761 -0.37591,4.38569 2.13009,0.8769 0.2506,1.87959 -5.76384,4.63606 -4.13487,5.13728 1.50347,1.25297 1.37851,-0.12473 2.50594,1.75417 5.13716,3.0072 -0.12474,3.25787 0.62663,0.50119 0,-10e-4 0,-0.001 z"
       style="fill:#ffffff;fill-opacity:1;stroke:none" />
    <g
       id="g4092"
       transform="matrix(1.7822874,0,0,1.7822874,-301.99724,-562.44635)">
      <g
         transform="translate(63.838485,32.316994)"
         id="g4094">
        <polygon
           transform="matrix(0.16761866,0,0,0.16761866,301.29145,659.99312)"
           id="polygon4096"
           style="fill:url(#linearGradient4120);fill-opacity:1"
           points="95.64209,148.22705 95.64209,30.5293 124.22656,27.79297 123.92383,79.49414 161.63672,29.01074 192.04688,36.00293 152.81445,86.48779 191.74219,140.01514 161.93945,149.44482 123.92383,93.78662 123.92383,143.96826 95.64209,148.22705 " />
        <polygon
           points="192.04688,36.00293 152.81445,86.48779 191.74219,140.01514 161.93945,149.44482 123.92383,93.78662 123.92383,143.96826 95.64209,148.22705 95.64209,148.22705 95.64209,30.5293 124.22656,27.79297 123.92383,79.49414 161.63672,29.01074 "
           style="opacity:0.8;fill:#0f68c7;fill-opacity:0.65098249;filter:url(#filter4141)"
           id="polygon4098"
           transform="matrix(0.16761866,0,0,0.16761866,300.28014,660.92665)" />
      </g>
      <g
         transform="translate(63.639611,31.81981)"
         id="g4100">
        <path
           id="path4102"
           style="fill:#86b3e3;fill-opacity:1;filter:url(#filter3904)"
           d="m 328.65146,687.68067 -0.41226,0.13041 c -0.0602,0.0189 -0.12569,-0.004 -0.16106,-0.0559 0,0 -0.81328,-1.19017 -1.86343,-2.72708 -1.25538,2.45696 -3.80949,4.13993 -6.75891,4.13993 -4.19038,0 -7.5877,-3.3974 -7.5877,-7.58801 0,-3.08278 1.83881,-5.73398 4.47844,-6.92162 l 0,-1.9574 c -0.48042,0.16807 -0.94476,0.37062 -1.38588,0.6109 -3.3e-4,-3.3e-4 -0.002,-0.002 -0.002,-0.002 l -3.57426,-2.34416 c -0.0963,-0.063 -0.22317,-0.0499 -0.3041,0.0316 l -1.87272,1.87239 c -0.0787,0.079 -0.0936,0.20165 -0.0355,0.29726 l 2.19246,3.61085 c -0.38887,0.65377 -0.70031,1.35873 -0.92307,2.10233 l -4.02524,0.83724 c -0.11199,0.0232 -0.19268,0.12242 -0.19268,0.23735 l 0,2.64793 c 0,0.11199 0.0764,0.20899 0.18437,0.23507 l 3.90681,0.95494 c 0.20833,0.86121 0.53127,1.67775 0.95795,2.42811 l -2.26126,3.44841 c -0.0631,0.0963 -0.0499,0.22333 0.0316,0.30452 l 1.87216,1.87238 c 0.0787,0.0786 0.20163,0.0937 0.29765,0.036 l 3.54354,-2.15212 c 0.69607,0.40166 1.44675,0.71775 2.24014,0.93211 l 0.82673,3.97528 c 0.0233,0.11265 0.12301,0.19285 0.23719,0.19285 l 2.64834,0 c 0.11134,0 0.20834,-0.076 0.23491,-0.18519 l 0.97401,-3.98359 c 0.81785,-0.22072 1.59135,-0.54968 2.30438,-0.96961 l 3.4921,2.28987 c 0.096,0.0632 0.22284,0.0505 0.30435,-0.031 l 1.87272,-1.87239 c 0.0792,-0.0792 0.0936,-0.20165 0.0353,-0.29701 l -1.27494,-2.10094 z"
           transform="matrix(1.0271861,0,0,1.0271861,-9.0660818,-18.069297)" />
        <path
           d="m 328.82655,686.66093 -0.42346,0.13395 c -0.0618,0.0194 -0.12911,-0.004 -0.16544,-0.0574 0,0 -0.83539,-1.22252 -1.91409,-2.80122 -1.28951,2.52376 -3.91306,4.25248 -6.94266,4.25248 -4.3043,0 -7.79398,-3.48976 -7.79398,-7.79429 0,-3.16659 1.8888,-5.88987 4.60019,-7.1098 l 0,-2.01061 c -0.49348,0.17264 -0.97044,0.38069 -1.42356,0.62751 -3.3e-4,-3.4e-4 -0.002,-0.002 -0.002,-0.002 l -3.67143,-2.40789 c -0.0989,-0.0647 -0.22924,-0.0512 -0.31237,0.0325 l -1.92363,1.9233 c -0.0808,0.0811 -0.0961,0.20713 -0.0365,0.30534 l 2.25206,3.70901 c -0.39944,0.67155 -0.71935,1.39567 -0.94817,2.15949 l -4.13467,0.86 c -0.11503,0.0238 -0.19791,0.12575 -0.19791,0.2438 l 0,2.71992 c 0,0.11503 0.0785,0.21467 0.18938,0.24146 l 4.01302,0.9809 c 0.21399,0.88462 0.54571,1.72336 0.98399,2.49412 l -2.32273,3.54216 c -0.0648,0.0989 -0.0513,0.2294 0.0325,0.3128 l 1.92305,1.92328 c 0.0808,0.0807 0.20711,0.0963 0.30575,0.037 l 3.63987,-2.21063 c 0.71499,0.41258 1.48608,0.73726 2.30104,0.95745 l 0.84921,4.08335 c 0.0239,0.11572 0.12635,0.1981 0.24363,0.1981 l 2.72034,0 c 0.11437,0 0.21401,-0.0781 0.2413,-0.19023 l 1.00049,-4.09189 c 0.84008,-0.22672 1.63461,-0.56462 2.36703,-0.99597 l 3.58703,2.35213 c 0.0986,0.0649 0.2289,0.0519 0.31263,-0.0318 l 1.92363,-1.92329 c 0.0814,-0.0814 0.0961,-0.20713 0.0363,-0.30508 l -1.3096,-2.15806 z"
           style="fill:url(#linearGradient4122);fill-opacity:1"
           id="path4104" />
      </g>
    </g>
    <g
       id="g4350">
      <path
         d="m 379.39608,856.07361 -23.90317,-0.14239 0,-58.53874 17.49577,0 c 7.1905,6e-5 12.80291,0.91964 16.83723,2.75874 3.98679,1.85109 6.19971,5.69552 6.63878,11.53333 0.0474,0.4272 0.0711,0.83656 0.0712,1.22808 -5e-5,2.33756 -0.48654,4.3547 -1.45947,6.05144 -1.16286,2.04091 -2.33162,3.5241 -3.50627,4.44958 -1.21033,0.97301 -2.12991,1.60189 -2.75874,1.88663 0.14235,0.10682 1.01446,0.62297 2.61635,1.54845 1.55435,0.96114 3.03754,2.34348 4.44959,4.14702 1.36449,1.85105 2.14168,4.13517 2.33158,6.85236 0.0474,0.58143 0.0711,1.16284 0.0712,1.74424 -4e-5,3.10879 -0.65265,5.8082 -1.95781,8.09824 -1.61376,2.71722 -3.89788,4.78182 -6.85236,6.19382 -3.01389,1.45947 -6.37184,2.1892 -10.07387,2.1892 z m -5.53528,-24.20574 -3.71985,0 0,12.24525 4.3072,0 c 3.01382,2e-5 5.19708,-0.53393 6.54979,-1.60185 1.22212,-0.97296 1.83319,-2.37903 1.83322,-4.2182 -3e-5,-0.15424 -3e-5,-0.30256 0,-0.44496 -0.0475,-2.18324 -0.80095,-3.73763 -2.26038,-4.66317 -1.50696,-0.87802 -3.74361,-1.31705 -6.70998,-1.31707 z m -0.14239,-23.17344 -3.57746,0 0,11.8003 3.71985,0 c 2.04085,3e-5 3.81475,-0.58138 5.3217,-1.74424 1.26959,-1.0204 1.9044,-2.38494 1.90443,-4.09362 -3e-5,4e-5 -3e-5,-0.23727 0,-0.71193 -0.20175,-2.14762 -0.93148,-3.55962 -2.1892,-4.23601 -1.3171,-0.67629 -3.04354,-1.01446 -5.17932,-1.0145 z"
         style="font-size:72.90200043px;font-style:normal;font-weight:normal;letter-spacing:-7.36517239;fill:#0068c6;fill-opacity:1;stroke:none;font-family:Kabel;-inkscape-font-specification:Kabel"
         id="path4264" />
      <path
         d="m 415.87717,837.70572 0,18.51028 -14.50565,1.38827 0,-44.69164 13.56233,-1.67304 0,7.36851 c 1.11535,-2.19509 2.79432,-3.92152 5.03693,-5.17931 2.18324,-1.26958 4.53855,-1.90438 7.06595,-1.90443 0.77123,5e-5 1.47723,0.0238 2.118,0.0712 0.62884,0.10683 1.06193,0.18396 1.29928,0.23138 l -4.43179,13.9183 c -0.10682,-0.0474 -0.35006,-0.11863 -0.72973,-0.21358 -0.39159,-0.0474 -0.90181,-0.0712 -1.53066,-0.0712 -0.87808,3e-5 -1.87478,0.14242 -2.99012,0.42716 -1.99344,0.58145 -3.31051,1.64935 -3.95123,3.20371 -0.6289,1.61374 -0.9908,3.73174 -1.0857,6.354 0.0949,0.48651 0.14237,1.23997 0.14239,2.26039 z"
         style="font-size:72.90200043px;font-style:normal;font-weight:normal;letter-spacing:-7.36517239;fill:#0068c6;fill-opacity:1;stroke:none;font-family:Kabel;-inkscape-font-specification:Kabel"
         id="path4266" />
      <path
         d="m 466.64134,825.60285 0,30.32837 -12.53003,1.45947 0,-3.71986 c -3e-5,0.14239 -0.46279,0.55175 -1.38827,1.22809 -0.973,0.73566 -2.21295,1.3942 -3.71985,1.97561 -1.55441,0.62888 -3.32831,0.96705 -5.32171,1.01451 -0.0949,0 -0.1958,0 -0.30257,0 -2.81215,0 -5.43444,-0.60515 -7.86686,-1.81543 -2.57484,-1.25775 -4.59198,-3.05538 -6.05144,-5.3929 -1.50693,-2.29004 -2.26039,-5.01319 -2.26039,-8.16944 0,-2.91891 0.75346,-5.54119 2.26039,-7.86686 1.45946,-2.33749 3.52406,-4.15886 6.19382,-5.46409 2.38497,-1.17467 4.95979,-1.76201 7.72448,-1.76204 -2e-5,3e-5 0.29662,3e-5 0.88992,0 1.74421,0.0475 3.32233,0.3382 4.73436,0.87212 1.35265,0.53398 2.46801,1.12132 3.34609,1.76204 0.86615,0.61703 1.30518,0.93147 1.31707,0.94331 -3e-5,-1.80354 -0.14835,-3.21554 -0.44496,-4.23601 -0.43905,-1.60182 -1.28744,-2.8121 -2.54516,-3.63086 -1.21031,-0.73563 -3.10287,-1.10346 -5.67767,-1.1035 -0.15427,4e-5 -0.30259,4e-5 -0.44496,0 -2.04089,4e-5 -4.47333,0.53399 -7.29732,1.60185 -2.85961,1.06794 -4.46146,1.77394 -4.80555,2.11801 l 2.54516,-12.38765 c 0.10678,-0.0949 1.05603,-0.33812 2.84774,-0.72973 1.80355,-0.39152 3.62491,-0.73562 5.46409,-1.0323 1.80354,-0.28473 3.55371,-0.45085 5.25051,-0.49836 0.29661,5e-5 0.58732,5e-5 0.87212,0 2.9189,5e-5 5.64204,0.4628 8.16944,1.38827 2.71717,1.06795 4.9034,2.6698 6.55868,4.80556 1.65521,2.13583 2.48283,4.90644 2.48287,8.31182 z m -13.11737,16.76604 c -3e-5,-1.75609 -0.65857,-3.19182 -1.97562,-4.3072 -1.25778,-1.02042 -2.78843,-1.53064 -4.59197,-1.53066 -2e-5,2e-5 -0.095,2e-5 -0.28477,0 -1.75613,0.095 -3.23932,0.62889 -4.44959,1.60185 -1.26963,1.02046 -1.92817,2.30787 -1.97561,3.86224 -2e-5,0.10681 -2e-5,0.20766 0,0.30257 -2e-5,1.60187 0.58732,2.88928 1.76203,3.86224 1.25773,1.11537 2.9545,1.67306 5.09033,1.67305 1.80354,10e-6 3.33419,-0.46275 4.59197,-1.38827 1.22212,-0.91364 1.8332,-2.27225 1.83323,-4.07582 z"
         style="font-size:72.90200043px;font-style:normal;font-weight:normal;letter-spacing:-7.36517239;fill:#0068c6;fill-opacity:1;stroke:none;font-family:Kabel;-inkscape-font-specification:Kabel"
         id="path4268" />
      <path
         d="m 505.16929,817.94956 -8.5254,7.65329 c -3e-5,-0.0949 -0.17208,-0.33814 -0.51615,-0.72973 -0.3916,-0.34407 -0.80689,-0.68224 -1.24589,-1.01451 -0.43905,-0.34407 -1.06792,-0.68817 -1.88662,-1.0323 -0.87808,-0.3322 -1.85105,-0.49832 -2.91893,-0.49835 -1.36456,3e-5 -2.55705,0.267 -3.57746,0.80092 -1.06792,0.58145 -1.62561,1.4061 -1.67305,2.47397 -2e-5,3e-5 -2e-5,0.0475 0,0.14239 -2e-5,0.6289 0.48647,1.18658 1.45947,1.67304 0.97295,0.48652 2.23663,0.87808 3.79104,1.17469 1.55436,0.2848 3.15621,0.57551 4.80555,0.87212 2.77651,0.53398 5.40473,1.84512 7.88467,3.93343 2.37307,2.08836 3.55963,5.41665 3.55967,9.98487 -4e-5,0.0949 -4e-5,0.1958 0,0.30257 -0.0475,2.76469 -0.94336,5.29205 -2.68755,7.5821 -1.8036,2.27819 -4.13518,4.05209 -6.99475,5.3217 -2.72911,1.16282 -5.67176,1.74424 -8.82798,1.74424 -0.2492,0 -0.49244,0 -0.72973,0 -4.08177,-0.14239 -7.82535,-1.09164 -11.23075,-2.84774 -3.40542,-1.69677 -5.49376,-2.93672 -6.26502,-3.71985 l 7.06594,-9.25514 c 0.78312,0.83061 2.09426,1.82731 3.93344,2.99012 1.80355,1.16284 3.87408,1.74425 6.21162,1.74424 -2e-5,10e-6 0.0949,10e-6 0.28477,0 1.64929,10e-6 3.08502,-0.33816 4.3072,-1.0145 1.02041,-0.58141 1.53063,-1.3586 1.53066,-2.33159 -3e-5,-0.0949 -3e-5,-0.2195 0,-0.37376 -0.15428,-1.06789 -0.64077,-1.76796 -1.45947,-2.10021 -0.83061,-0.29662 -2.53332,-0.71191 -5.10812,-1.24588 -2.62231,-0.48647 -4.85896,-1.11534 -6.70998,-1.88662 -5.49376,-2.43242 -8.24063,-6.56757 -8.24063,-12.40545 0,-2.76464 0.77719,-5.26827 2.33159,-7.5109 1.50691,-2.23068 3.52406,-3.98085 6.05143,-5.25051 2.47989,-1.2577 5.15557,-1.93404 8.02705,-2.02901 0.39154,5e-5 0.77717,5e-5 1.15689,0 3.79696,5e-5 7.27356,0.87217 10.42983,2.61636 3.45284,1.99345 5.37506,3.40545 5.76666,4.236 z"
         style="font-size:72.90200043px;font-style:normal;font-weight:normal;letter-spacing:-7.36517239;fill:#0068c6;fill-opacity:1;stroke:none;font-family:Kabel;-inkscape-font-specification:Kabel"
         id="path4270" />
      <path
         d="m 517.41836,809.63774 -9.55771,-7.36851 8.38302,-8.66779 10.14506,7.20832 z m -7.29732,3.13251 13.77592,-1.67305 0,44.69163 -13.77592,1.01451 z"
         style="font-size:72.90200043px;font-style:normal;font-weight:normal;letter-spacing:-7.36517239;fill:#0068c6;fill-opacity:1;stroke:none;font-family:Kabel;-inkscape-font-specification:Kabel"
         id="path4272" />
      <path
         d="m 529.59044,857.39069 0,-59.99821 13.9361,-1.38827 0,60.0694 z"
         style="font-size:72.90200043px;font-style:normal;font-weight:normal;letter-spacing:-7.36517239;fill:#0068c6;fill-opacity:1;stroke:none;font-family:Kabel;-inkscape-font-specification:Kabel"
         id="path4274" />
    </g>
    <path
       style="fill:#0068c6;fill-opacity:1;stroke:none"
       d="m 333.08691,824.7616 18.27861,0 0,10.63962 -18.27861,0 0,-10.63962 z"
       id="rect4110" />
  </g>
</svg>
