<?xml version="1.0" encoding="UTF-8" standalone="no"?>
<!-- Created with Inkscape (http://www.inkscape.org/) -->

<svg
   xmlns:dc="http://purl.org/dc/elements/1.1/"
   xmlns:cc="http://creativecommons.org/ns#"
   xmlns:rdf="http://www.w3.org/1999/02/22-rdf-syntax-ns#"
   xmlns:svg="http://www.w3.org/2000/svg"
   xmlns="http://www.w3.org/2000/svg"
   xmlns:xlink="http://www.w3.org/1999/xlink"
   xmlns:sodipodi="http://sodipodi.sourceforge.net/DTD/sodipodi-0.dtd"
   xmlns:inkscape="http://www.inkscape.org/namespaces/inkscape"
   width="744.09448819"
   height="1052.3622047"
   id="svg6914"
   version="1.1"
   inkscape:version="0.48.1 r9760"
   sodipodi:docname="kde-15.svg">
  <defs
     id="defs6916">
    <filter
       inkscape:collect="always"
       id="filter2904-4-1"
       color-interpolation-filters="sRGB">
      <feGaussianBlur
         inkscape:collect="always"
         stdDeviation="2.32"
         id="feGaussianBlur2906-7-7" />
    </filter>
    <linearGradient
       inkscape:collect="always"
       xlink:href="#XMLID_18_-5-9"
       id="linearGradient5610-6-7"
       gradientUnits="userSpaceOnUse"
       gradientTransform="matrix(-1,-4.371139e-8,4.371139e-8,-1,133.6007,132.4)"
       x1="9.5995998"
       y1="68.399902"
       x2="129.6001"
       y2="68.399902" />
    <linearGradient
       x1="9.5995998"
       y1="68.399902"
       x2="129.6001"
       y2="68.399902"
       id="XMLID_18_-5-9"
       gradientUnits="userSpaceOnUse"
       gradientTransform="matrix(-1,-4.371139e-8,4.371139e-8,-1,1186.5436,-193.37143)">
      <stop
         style="stop-color:#003685;stop-opacity:1"
         offset="0"
         id="stop13-6-7" />
      <stop
         style="stop-color:#083c8f;stop-opacity:1"
         offset="0.0105"
         id="stop15-9-6" />
      <stop
         style="stop-color:#2451b1;stop-opacity:1"
         offset="0.0533"
         id="stop17-3-2" />
      <stop
         style="stop-color:#3b63cd;stop-opacity:1"
         offset="0.099"
         id="stop19-7-7" />
      <stop
         style="stop-color:#4d71e3;stop-opacity:1"
         offset="0.1477"
         id="stop21-4-1" />
      <stop
         style="stop-color:#597bf3;stop-opacity:1"
         offset="0.20100001"
         id="stop23-5-5" />
      <stop
         style="stop-color:#6180fc;stop-opacity:1"
         offset="0.2622"
         id="stop25-2-8" />
      <stop
         style="stop-color:#6382ff;stop-opacity:1"
         offset="0.34909999"
         id="stop27-5-8" />
      <stop
         style="stop-color:#6382ff;stop-opacity:1"
         offset="0.58579999"
         id="stop31-4-4" />
      <stop
         style="stop-color:#003685;stop-opacity:1"
         offset="1"
         id="stop33-7-5" />
    </linearGradient>
    <radialGradient
       inkscape:collect="always"
       xlink:href="#XMLID_20_-4-56"
       id="radialGradient5612-4-6"
       gradientUnits="userSpaceOnUse"
       gradientTransform="matrix(0.9824561,0,0,0.9824561,-4.3789474,-3.2)"
       cx="69.600098"
       cy="68.399902"
       r="85" />
    <radialGradient
       cx="69.600098"
       cy="68.399902"
       r="85"
       id="XMLID_20_-4-56"
       gradientUnits="userSpaceOnUse"
       gradientTransform="translate(1047.3429,-330.17143)">
      <stop
         style="stop-color:#6193ff;stop-opacity:1"
         offset="0.5"
         id="stop47-3-84" />
      <stop
         style="stop-color:#003685;stop-opacity:1"
         offset="0.78109998"
         id="stop49-0-8" />
      <stop
         style="stop-color:#709dff;stop-opacity:1"
         offset="1"
         id="stop51-7-8" />
    </radialGradient>
    <radialGradient
       inkscape:collect="always"
       xlink:href="#XMLID_21_-6-87"
       id="radialGradient5614-8-3"
       gradientUnits="userSpaceOnUse"
       gradientTransform="translate(-5.5999998,-4.4)"
       cx="69.600098"
       cy="145.3999"
       r="141" />
    <radialGradient
       cx="69.600098"
       cy="145.3999"
       r="141"
       id="XMLID_21_-6-87"
       gradientUnits="userSpaceOnUse"
       gradientTransform="translate(1047.3429,-330.17143)">
      <stop
         style="stop-color:#2c72c7;stop-opacity:0"
         offset="0.3373"
         id="stop58-8-5" />
      <stop
         style="stop-color:#2c72c7;stop-opacity:1"
         offset="0.57990003"
         id="stop60-8-2" />
      <stop
         style="stop-color:#2c72c7;stop-opacity:0"
         offset="1"
         id="stop62-4-4" />
    </radialGradient>
    <filter
       id="AI_Sfocatura_4-3-5"
       color-interpolation-filters="sRGB">
      <feGaussianBlur
         stdDeviation="4"
         id="feGaussianBlur6-1-0" />
    </filter>
    <clipPath
       id="clipPath4458-4-5">
      <use
         id="use4460-9-7"
         x="0"
         y="0"
         width="1"
         height="1"
         xlink:href="#XMLID_10_-9-4" />
    </clipPath>
    <linearGradient
       inkscape:collect="always"
       xlink:href="#XMLID_23_-0-27"
       id="linearGradient5616-2-3"
       gradientUnits="userSpaceOnUse"
       x1="108.00493"
       y1="72.341148"
       x2="115.9771"
       y2="102.0937" />
    <linearGradient
       x1="115.9771"
       y1="72.399902"
       x2="115.9771"
       y2="120.3999"
       id="XMLID_23_-0-27"
       gradientUnits="userSpaceOnUse">
      <stop
         style="stop-color:#00316e;stop-opacity:0"
         offset="0"
         id="stop79-6-21" />
      <stop
         style="stop-color:#00316e;stop-opacity:1"
         offset="1"
         id="stop81-8-3" />
    </linearGradient>
    <filter
       x="-0.29221493"
       width="1.5844299"
       y="-0.057434313"
       height="1.1148686"
       id="filter4442-9-4"
       color-interpolation-filters="sRGB">
      <feGaussianBlur
         inkscape:collect="always"
         stdDeviation="2.4087233"
         id="feGaussianBlur4444-2-9" />
    </filter>
    <linearGradient
       inkscape:collect="always"
       xlink:href="#XMLID_23_-0-27"
       id="linearGradient5618-6-4"
       gradientUnits="userSpaceOnUse"
       x1="108.00493"
       y1="72.341148"
       x2="115.9771"
       y2="102.0937" />
    <linearGradient
       x1="115.9771"
       y1="72.399902"
       x2="115.9771"
       y2="120.3999"
       id="linearGradient7130"
       gradientUnits="userSpaceOnUse">
      <stop
         style="stop-color:#00316e;stop-opacity:0"
         offset="0"
         id="stop7132" />
      <stop
         style="stop-color:#00316e;stop-opacity:1"
         offset="1"
         id="stop7134" />
    </linearGradient>
    <filter
       x="-0.29221493"
       width="1.5844299"
       y="-0.057434313"
       height="1.1148686"
       id="filter4446-6-1"
       color-interpolation-filters="sRGB">
      <feGaussianBlur
         inkscape:collect="always"
         stdDeviation="2.4087233"
         id="feGaussianBlur4448-4-95" />
    </filter>
    <radialGradient
       inkscape:collect="always"
       xlink:href="#XMLID_27_-5-4"
       id="radialGradient5620-9-7"
       gradientUnits="userSpaceOnUse"
       gradientTransform="matrix(0.4136693,-0.5587442,-0.4989925,-0.3694316,79.652783,167.07706)"
       cx="110.74259"
       cy="123.17536"
       fx="110.74259"
       fy="123.17536"
       r="81.292717" />
    <radialGradient
       cx="76.764198"
       cy="58.0625"
       r="66.164497"
       id="XMLID_27_-5-4"
       gradientUnits="userSpaceOnUse"
       gradientTransform="matrix(0.9397,0,0,0.9397,4.2153,4.1331)">
      <stop
         style="stop-color:#ffffff;stop-opacity:1"
         offset="0"
         id="stop107-0-1" />
      <stop
         style="stop-color:#fdfdfc;stop-opacity:1"
         offset="0.32780001"
         id="stop109-4-2" />
      <stop
         style="stop-color:#f4f5f4;stop-opacity:1"
         offset="0.6773591"
         id="stop111-8-2" />
      <stop
         style="stop-color:#cacfd0;stop-opacity:1;"
         offset="1"
         id="stop113-7-1" />
    </radialGradient>
    <linearGradient
       y2="78.850853"
       x2="67.629204"
       y1="-2.1941743"
       x1="67.629204"
       gradientTransform="translate(0,2)"
       gradientUnits="userSpaceOnUse"
       id="linearGradient4345"
       xlink:href="#XMLID_25_-7-2"
       inkscape:collect="always" />
    <radialGradient
       cx="66.136703"
       cy="0.75440001"
       r="81.971497"
       id="XMLID_25_-7-2"
       gradientUnits="userSpaceOnUse"
       gradientTransform="matrix(0.9459,0,0,1,1051.1319,-330.17143)">
      <stop
         style="stop-color:#ffffff;stop-opacity:1;"
         offset="0.1302"
         id="stop95-2-0" />
      <stop
         style="stop-color:#ffffff;stop-opacity:0.16862746;"
         offset="0.5"
         id="stop97-7-2" />
    </radialGradient>
    <linearGradient
       y2="78.850853"
       x2="67.629204"
       y1="-2.1941743"
       x1="67.629204"
       gradientTransform="translate(0,2)"
       gradientUnits="userSpaceOnUse"
       id="linearGradient7166"
       xlink:href="#XMLID_25_-7-2"
       inkscape:collect="always" />
    <linearGradient
       inkscape:collect="always"
       xlink:href="#XMLID_18_-5-9"
       id="linearGradient7331"
       gradientUnits="userSpaceOnUse"
       gradientTransform="matrix(-1,-4.371139e-8,4.371139e-8,-1,133.6007,132.4)"
       x1="9.5995998"
       y1="68.399902"
       x2="129.6001"
       y2="68.399902" />
    <radialGradient
       inkscape:collect="always"
       xlink:href="#XMLID_20_-4-56"
       id="radialGradient7333"
       gradientUnits="userSpaceOnUse"
       gradientTransform="matrix(0.9824561,0,0,0.9824561,-4.3789474,-3.2)"
       cx="69.600098"
       cy="68.399902"
       r="85" />
    <radialGradient
       inkscape:collect="always"
       xlink:href="#XMLID_21_-6-87"
       id="radialGradient7335"
       gradientUnits="userSpaceOnUse"
       gradientTransform="translate(-5.5999998,-4.4)"
       cx="69.600098"
       cy="145.3999"
       r="141" />
    <linearGradient
       inkscape:collect="always"
       xlink:href="#XMLID_23_-0-27"
       id="linearGradient7337"
       gradientUnits="userSpaceOnUse"
       x1="108.00493"
       y1="72.341148"
       x2="115.9771"
       y2="102.0937" />
    <linearGradient
       inkscape:collect="always"
       xlink:href="#XMLID_23_-0-27"
       id="linearGradient7339"
       gradientUnits="userSpaceOnUse"
       x1="108.00493"
       y1="72.341148"
       x2="115.9771"
       y2="102.0937" />
    <radialGradient
       inkscape:collect="always"
       xlink:href="#XMLID_27_-5-4"
       id="radialGradient7341"
       gradientUnits="userSpaceOnUse"
       gradientTransform="matrix(0.4136693,-0.5587442,-0.4989925,-0.3694316,79.652783,167.07706)"
       cx="110.74259"
       cy="123.17536"
       fx="110.74259"
       fy="123.17536"
       r="81.292717" />
    <linearGradient
       inkscape:collect="always"
       xlink:href="#XMLID_25_-7-2"
       id="linearGradient7343"
       gradientUnits="userSpaceOnUse"
       gradientTransform="translate(0,2)"
       x1="67.629204"
       y1="-2.1941743"
       x2="67.629204"
       y2="78.850853" />
  </defs>
  <sodipodi:namedview
     id="base"
     pagecolor="#ffffff"
     bordercolor="#666666"
     borderopacity="1.0"
     inkscape:pageopacity="0.0"
     inkscape:pageshadow="2"
     inkscape:zoom="0.35"
     inkscape:cx="375"
     inkscape:cy="520"
     inkscape:document-units="px"
     inkscape:current-layer="layer1"
     showgrid="false"
     inkscape:window-width="1440"
     inkscape:window-height="853"
     inkscape:window-x="-3"
     inkscape:window-y="-3"
     inkscape:window-maximized="1" />
  <metadata
     id="metadata6919">
    <rdf:RDF>
      <cc:Work
         rdf:about="">
        <dc:format>image/svg+xml</dc:format>
        <dc:type
           rdf:resource="http://purl.org/dc/dcmitype/StillImage" />
        <dc:title />
      </cc:Work>
    </rdf:RDF>
  </metadata>
  <g
     inkscape:label="Layer 1"
     inkscape:groupmode="layer"
     id="layer1">
    <text
       xml:space="preserve"
       style="font-size:75.91010284px;font-style:normal;font-variant:normal;font-weight:normal;font-stretch:normal;line-height:125%;letter-spacing:0px;word-spacing:0px;fill:#2c408b;fill-opacity:1;stroke:none;font-family:Kabel;-inkscape-font-specification:Kabel"
       x="359.03528"
       y="521.64655"
       id="text2985"
       sodipodi:linespacing="125%"><tspan
         sodipodi:role="line"
         x="359.03528"
         y="521.64655"
         id="tspan5055"
         style="text-align:center;text-anchor:middle">KDE</tspan></text>
    <text
       xml:space="preserve"
       style="font-size:34.7394371px;font-style:normal;font-variant:normal;font-weight:normal;font-stretch:normal;line-height:125%;letter-spacing:0px;word-spacing:0px;fill:#3e3e3e;fill-opacity:1;stroke:none;font-family:Kabel;-inkscape-font-specification:Kabel"
       x="278.96201"
       y="434.08627"
       id="text5673"
       sodipodi:linespacing="125%"><tspan
         sodipodi:role="line"
         id="tspan5675"
         x="278.96201"
         y="434.08627"
         style="font-size:34.7394371px;font-style:normal;font-variant:normal;font-weight:normal;font-stretch:normal;text-align:start;line-height:125%;writing-mode:lr-tb;text-anchor:start;fill:#3e3e3e;fill-opacity:1;font-family:Kabel;-inkscape-font-specification:Kabel">15 years</tspan></text>
    <g
       id="g5525"
       transform="matrix(0.84470585,0,0,0.84470585,57.77676,-158.1971)">
      <path
         id="path3000"
         d="m 335.18877,320.79414 c -1.45062,0.95637 -2.88298,2.00367 -4.28125,3.15625 -26.11645,21.52738 -17.3124,65.36928 15.15625,75.46875 15.49532,4.81986 28.28717,2.37033 40.59375,-7.78125 10.86685,-8.96397 16.03125,-19.94209 16.03125,-34.09375 0,-1.54057 -0.0835,-3.05219 -0.21875,-4.53125 l -21.9375,-10.125 -44.96875,-21.90625 c -0.13207,-0.0644 -0.2499,-0.11996 -0.375,-0.1875 z m 161.8125,90.34375 c -4.26558,-0.0138 -8.47937,0.31822 -12.59375,1 -16.00463,2.65205 -32.58439,9.93041 -42.59375,18.71875 -4.06476,3.56891 -7.85702,6.04923 -8.40625,5.5 -0.54924,-0.54924 -6.40108,-1.9931 -13.03125,-3.21875 -23.98889,-4.43459 -54.87164,5.81411 -70.90625,23.5625 -12.45117,13.78196 -18.22044,28.82507 -19.09375,49.75 -0.99412,23.81929 4.10365,41.13181 17.96875,60.875 16.68393,23.75706 41.72544,40.83251 71.125,48.53125 23.03571,6.03224 27.97938,5.66657 30.75,-2.28125 3.25277,-9.33093 3.15357,-9.51514 -6.25,-14.3125 l -8.5,-4.375 -11.5,7.625 -11.46875,7.625 -6.875,-6.9375 -6.875,-6.96875 7.28125,-11.59375 7.25,-11.625 -3.46875,-8.65625 c -2.24182,-5.60289 -4.99785,-8.94695 -7.875,-9.53125 -22.72856,-4.61577 -20.99893,-3.46361 -21.6875,-14.09375 -0.59494,-9.18455 -0.30865,-9.80445 5.1875,-10.9375 18.43439,-3.80027 20.43958,-4.93362 24.78125,-13.9375 l 4.28125,-8.875 -6.90625,-9.34375 c -8.37572,-11.333 -8.64607,-14.99723 -1.53125,-20.59375 6.98153,-5.49167 7.07194,-5.49671 18.84375,1.96875 7.36766,4.67244 11.36246,5.96746 15.625,5.03125 4.99953,-1.09808 5.75,-0.63027 5.75,3.65625 0,3.28566 -3.11806,7.51985 -9.375,12.75 -13.59366,11.3629 -18.53125,21.96064 -18.53125,39.75 0,10.85201 1.13124,16.64259 4.4375,22.84375 8.3523,15.66543 25.57692,28 39.09375,28 3.86832,0 44.9444,-20.28904 52.3125,-25.84375 0.26293,-0.19823 -6.52269,-11.01349 -15.0625,-24.03125 l -15.53125,-23.65625 0,27.21875 0,27.25 -15.03125,1.75 -15.0625,1.75 -0.53125,-63.09375 c -0.30216,-34.70811 -0.30216,-63.32441 0,-63.59375 0.30216,-0.26934 7.31686,-1.15411 15.59375,-1.96875 l 15.03125,-1.5 0,27.375 0,27.375 12.78125,-17.3125 c 7.02133,-9.51739 16.35762,-21.61364 20.75,-26.90625 l 7.96875,-9.625 16.6875,4.1875 c 15.02224,3.77259 16.39507,4.50809 13.78125,7.53125 -10.7252,12.40487 -34.33438,42.58262 -36.53125,46.6875 -2.43565,4.55109 -1.62353,6.50979 9.96875,23.75 6.94319,10.32598 13.41528,19.2506 14.375,19.84375 2.66357,1.64618 24.59454,-16.38546 31.46875,-25.875 16.88175,-23.30462 10.96285,-59.59957 -13.78125,-84.46875 -16.65041,-16.73458 -41.05961,-26.67523 -64.09375,-26.75 z m -135.96875,1.40625 c -76.98449,0 -79.80828,0.34021 -86.5,10.1875 -3.18785,4.69112 -5.66155,11.70468 -4.34375,54.15625 l 1.53125,49.03125 -33.375,0.4375 c -9.53343,-0.076 0.11984,23.96789 10.4375,24.15625 l 38.78125,0.6875 21.71875,0.90625 0,42.4375 c 0,25.2848 0.84479,44.07669 2.125,46.46875 2.02335,3.78068 4.80256,4 47.34375,4 32.37036,0 45.87152,-0.68402 47.65625,-2.46875 1.36997,-1.36997 2.5,-6.04007 2.5,-10.34375 0,-7.72267 -0.20048,-7.90943 -15.75,-15.09375 -49.78108,-23.00027 -79.71875,-63.62472 -79.71875,-108.1875 0,-28.67803 11.82454,-52.81159 34.28125,-69.875 17.12067,-13.00889 29.76517,-16.92147 54.96875,-17.03125 13.26593,-0.0578 23.47763,0.86504 26.125,2.375 3.52313,2.00947 5.27294,1.84498 9.15625,-0.875 l 4.78125,-3.34375 -4.6875,-3.8125 c -4.36078,-3.53114 -9.97344,-3.8125 -77.03125,-3.8125 z"
         style="fill:#2c408b;fill-opacity:1"
         inkscape:connector-curvature="0" />
      <path
         inkscape:connector-curvature="0"
         id="path4761"
         d="m 184.7388,261.83695 c -3.13401,0.82519 -6.1536,2.11835 -8.97888,3.89791 -18.08187,11.38917 -21.47182,38.54923 -7.56505,60.62813 13.90678,22.07891 51.77519,38.18428 64.46771,29.70808 0.2515,-0.16769 0.49795,-0.34866 0.74114,-0.53946 -15.54026,-2.56897 -36.69248,-14.61545 -46.1248,-29.59055 -13.07998,-20.76626 -9.89487,-46.31917 7.11199,-57.03123 4.71593,-2.97041 10.00556,-4.48218 15.4615,-4.68394 -8.28279,-3.56176 -17.07865,-4.50468 -25.11361,-2.38894 z"
         style="fill:#2c408b;fill-opacity:1;fill-rule:evenodd;stroke:none" />
      <path
         inkscape:connector-curvature="0"
         id="path4761-1"
         d="m 245.81578,249.40492 c -3.12673,-0.85237 -6.38835,-1.24225 -9.72489,-1.11376 -21.35395,0.82238 -37.86976,22.64871 -36.86558,48.72298 1.00416,26.07429 25.74648,58.95615 40.97662,57.96181 0.30166,-0.0195 0.60556,-0.053 0.91158,-0.0966 -12.17378,-9.99492 -24.4689,-31.00359 -25.14997,-48.68856 -0.94447,-24.52411 14.59038,-45.06102 34.67478,-45.8345 5.56932,-0.21449 10.90616,1.12109 15.73202,3.67433 -5.39223,-7.22596 -12.5382,-12.44049 -20.55456,-14.62568 z"
         style="fill:#2c408b;fill-opacity:1;fill-rule:evenodd;stroke:none" />
      <path
         inkscape:connector-curvature="0"
         id="path4761-1-8"
         d="m 301.94088,270.07502 c -2.37297,-2.20727 -5.08023,-4.06762 -8.09462,-5.50372 -19.29226,-9.1911 -44.05684,2.46551 -55.27963,26.02236 -11.22282,23.55685 -4.5863,64.16911 9.36284,70.36328 0.27618,0.1229 0.56087,0.23438 0.85214,0.33789 -6.13778,-14.50611 -7.2669,-38.82192 0.34503,-54.79943 10.55558,-22.15634 33.85248,-33.12678 51.99775,-24.48211 5.03162,2.39713 9.13731,6.05894 12.22488,10.56171 -1.41854,-8.90385 -5.32448,-16.84109 -11.40839,-22.49998 z"
         style="fill:#2c408b;fill-opacity:1;fill-rule:evenodd;stroke:none" />
      <path
         inkscape:connector-curvature="0"
         d="m 239.30579,362.47236 c 0.31501,0.82132 0.62173,1.64464 0.90102,2.47967 0.4435,1.18139 0.69422,2.42128 0.91594,3.65982 0.27755,1.52749 0.62062,3.04137 0.84945,4.57732 0.27741,1.55193 0.40221,3.12236 0.46984,4.6955 0.0382,2.09637 0.0287,4.19166 0.094,6.28764 0.0164,1.7319 0.15957,3.46595 0.0995,5.19851 -0.0266,0.76811 -0.11919,1.64604 -0.19071,2.4131 -0.15742,1.94997 -0.64834,3.69703 -1.3964,5.49062 -0.58542,1.38928 -1.52606,2.54866 -2.55015,3.63415 -1.20079,1.18271 -2.40661,2.36207 -3.66379,3.4849 -1.395,1.17064 -2.95423,2.12049 -4.43442,3.17559 -0.90567,0.64557 -1.79566,1.31287 -2.69473,1.9676 -1.94611,1.43481 -3.88826,2.88508 -5.70976,4.47782 -1.22604,1.07207 -1.51408,1.38466 -2.67536,2.51921 -1.81618,2.00205 -3.75248,3.93173 -5.30371,6.15704 -0.25515,0.36602 -0.48013,0.75218 -0.7202,1.12827 -0.97988,1.71215 -1.81435,3.50306 -2.67656,5.27647 -0.6159,1.2444 -1.19373,2.50643 -1.63952,3.82211 -0.51662,1.44444 -0.67241,2.96922 -0.77368,4.48889 -0.064,1.58024 -0.10456,3.16421 -0.0354,4.74477 0.067,1.37354 0.24754,2.73623 0.63033,4.05755 0.47223,1.40134 1.0882,2.7475 1.68719,4.09766 0.58037,1.29833 1.2253,2.56766 1.8959,3.82168 0.78986,1.33746 1.79207,2.53425 2.69279,3.79787 0.9046,1.36569 1.91762,2.65301 2.82602,4.01552 1.13416,1.71698 2.2368,3.45261 3.45273,5.11353 1.43883,1.79063 2.69995,3.70971 4.04005,5.57189 1.01178,1.56108 2.02463,3.11988 2.92723,4.74713 0.64153,1.30107 1.2435,2.61528 1.94251,3.8873 0.64709,1.30525 1.43227,2.53654 2.27684,3.72195 0.87951,1.15783 1.49936,2.44782 1.99281,3.80745 0.43402,1.26802 0.86883,2.53632 1.23927,3.82463 0.26508,0.92905 0.49165,1.86035 0.59896,2.82104 0.0836,0.96404 0.20265,1.92349 0.26524,2.88959 0.0511,1.03281 0.0605,2.0674 0.0664,3.10134 0.009,0.91169 0.001,1.82342 0.003,2.73513 0.001,0.95125 -0.004,1.90249 -0.007,2.85374 -0.008,1.1 -0.002,2.20001 0.002,3.30001 -0.0518,1.11131 0.21596,2.19241 0.46866,3.26486 0.38193,1.19579 0.89087,2.34652 1.38302,3.49998 0.39751,0.93102 0.96983,1.78681 1.60205,2.57447 0.50474,0.60518 1.0651,1.16699 1.76672,1.53609 0.26523,0.13973 0.51934,0.29517 0.78606,0.4321 0,0 -2.93681,0.55408 -2.93681,0.55408 l 0,0 c -0.26253,-0.14623 -0.5233,-0.29544 -0.78481,-0.44351 -0.68443,-0.43854 -1.25429,-1.01651 -1.76007,-1.65078 -0.62999,-0.81989 -1.21177,-1.69247 -1.60076,-2.65482 -0.48217,-1.17402 -1.00319,-2.33584 -1.38326,-3.54821 -0.26264,-1.09277 -0.53808,-2.19902 -0.49076,-3.33209 0.004,-1.10012 0.01,-2.20025 0.002,-3.30037 -0.002,-0.95101 -0.008,-1.90202 -0.005,-2.85304 0.004,-0.91136 -7.1e-4,-1.82274 0.004,-2.7341 -0.003,-1.02808 -0.004,-2.05678 -0.0642,-3.08351 -0.0631,-0.96146 -0.1842,-1.9159 -0.27107,-2.87501 -0.10753,-0.94256 -0.32755,-1.85889 -0.57273,-2.77463 -0.36143,-1.28234 -0.78429,-2.54583 -1.21951,-3.80482 -0.4953,-1.33342 -1.11615,-2.59595 -1.9854,-3.73085 -0.83945,-1.20098 -1.6206,-2.44562 -2.28011,-3.75522 -0.69313,-1.27335 -1.29326,-2.58696 -1.93135,-3.88796 -0.88422,-1.61923 -1.87708,-3.17337 -2.88261,-4.71958 -1.3183,-1.87706 -2.59714,-3.78072 -4.039,-5.56829 -1.21688,-1.66926 -2.3222,-3.41175 -3.48247,-5.12011 -0.92456,-1.35113 -1.92754,-2.64634 -2.84122,-4.00549 -0.9109,-1.26909 -1.91348,-2.48012 -2.69571,-3.83512 -0.67945,-1.25798 -1.33977,-2.52871 -1.90276,-3.84373 -0.59821,-1.36482 -1.23085,-2.71903 -1.6992,-4.13577 -0.38746,-1.34388 -0.56916,-2.73114 -0.63195,-4.12789 -0.0631,-1.5909 -0.009,-3.1855 0.0437,-4.77613 0.0925,-1.54291 0.24738,-3.09356 0.7553,-4.56403 0.44222,-1.33144 1.00478,-2.61414 1.64721,-3.86162 0.89026,-1.78487 1.76937,-3.5781 2.75831,-5.31074 0.2457,-0.38355 0.47597,-0.77744 0.73709,-1.15066 1.56787,-2.24096 3.52699,-4.17728 5.35478,-6.19889 1.12466,-1.105 1.49021,-1.49348 2.675,-2.53953 1.81367,-1.60129 3.75664,-3.05037 5.69301,-4.49756 0.89192,-0.65504 1.77321,-1.32454 2.66911,-1.97412 1.13866,-0.8256 2.33106,-1.57869 3.45689,-2.42179 0.30834,-0.23091 0.60274,-0.47986 0.90411,-0.71979 1.23914,-1.1204 2.42418,-2.29941 3.62308,-3.46263 1.01706,-1.05379 1.96575,-2.17581 2.56382,-3.52893 0.19708,-0.45833 0.46508,-1.05897 0.62745,-1.52955 0.43284,-1.25444 0.66481,-2.56246 0.82373,-3.87651 0.0811,-0.78302 0.17811,-1.60121 0.20872,-2.38795 0.0673,-1.72844 -0.0726,-3.45946 -0.1043,-5.18679 -0.0771,-2.09292 -0.10272,-4.18595 -0.1572,-6.27943 -0.0714,-1.56283 -0.19119,-3.12322 -0.4696,-4.66498 -0.23048,-1.53237 -0.56845,-3.04456 -0.85331,-4.56733 -0.23007,-1.22495 -0.50189,-2.44613 -0.94529,-3.6142 -0.28612,-0.84124 -0.60288,-1.66863 -0.94336,-2.48913 0,0 2.98204,-0.3184 2.98204,-0.3184 z"
         id="path5468"
         style="fill:#2c408b;fill-opacity:1;stroke:none" />
      <path
         sodipodi:nodetypes="scssss"
         inkscape:connector-curvature="0"
         id="path5470-2"
         d="m 409.5057,350.62137 -26.28755,-9.61244 -44.95179,-21.90534 c -15.79768,-7.69833 18.47105,-38.48781 47.98224,-24.00049 19.80106,9.72053 19.98495,39.68565 33.71353,49.57948 36.94098,26.62241 -2.20405,8.95639 -10.45643,5.93879 z"
         style="fill:#2c408b;fill-opacity:1;stroke:none" />
      <path
         inkscape:connector-curvature="0"
         id="path4300"
         d="m 294.90244,265.52558 c 16.99646,10.63896 22.97759,40.72889 12.5,62.28125 l -2.03125,3.8125 c -12.6532,21.63866 -38.99908,37.62761 -57.65625,28.90625 0.15953,0.0988 0.30696,0.21789 0.46875,0.3125 18.72688,10.95054 46.56975,-5.41066 59.6875,-27.84375 l 2.03125,-3.8125 c 10.61838,-21.84195 4.30487,-52.47182 -13.21875,-62.71875 -0.58521,-0.3422 -1.18279,-0.63656 -1.78125,-0.9375 z"
         style="opacity:0.5413223;fill:#2c408b;fill-opacity:1;stroke:none" />
    </g>
    <g
       id="g7311"
       transform="translate(4.0591198,0)">
      <g
         transform="matrix(2.2116434,0,0,2.2116434,59.802068,613.84176)"
         id="g3082-2-2">
        <g
           transform="matrix(1.0517241,0,0,1.0172414,-7.5172423,-3.0379241)"
           style="opacity:0.8;filter:url(#filter2904-4-1)"
           id="g8-2-9">
          <path
             inkscape:connector-curvature="0"
             d="m 126,113.8 c 0,8.8 -7.2,16 -16,16 l -84,0 c -8.8,0 -16,-7.2 -16,-16 l 0,-83.999998 c 0,-8.8 7.2,-16 16,-16 l 84,0 c 8.8,0 16,7.2 16,16 L 126,113.8 z"
             id="path10-6-7" />
        </g>
        <path
           inkscape:connector-curvature="0"
           id="path35-1-4"
           style="fill:url(#linearGradient7331)"
           d="m 4.000002,20 c 0,-8.8 7.2,-16 16,-16 L 108,4 c 8.8,0 16,7.2 16,16 l 0,88 c 0,8.8 -7.2,16 -16,16 l -87.999998,0 c -8.8,0 -16,-7.2 -16,-16 l 0,-88 z" />
        <path
           inkscape:connector-curvature="0"
           id="path53-0-3"
           style="fill:url(#radialGradient7333)"
           d="M 20.77193,8 C 13.729684,8 8,13.729684 8,20.77193 l 0,86.45614 C 8,114.27032 13.729684,120 20.77193,120 l 86.45614,0 C 114.27032,120 120,114.27032 120,107.22807 l 0,-86.45614 C 120,13.729684 114.27032,8 107.22807,8 l -86.45614,0 0,0 z" />
        <path
           inkscape:connector-curvature="0"
           id="path64-6-5"
           style="fill:url(#radialGradient7335);filter:url(#AI_Sfocatura_4-3-5)"
           d="m 64.026001,7.014 -0.053,0 c -23.021,-0.296 -47.076,4.131 -47.316,4.176 -2.455,0.458 -5.01,3.012 -5.467,5.467 -0.045,0.241 -4.4720008,24.295 -4.1760008,47.316 -0.296,23.074 4.1310008,47.129 4.1760008,47.369 0.457,2.454 3.013,5.01 5.468,5.469 0.24,0.044 24.294,4.47 47.316,4.174 23.075,0.296 47.128999,-4.13 47.368999,-4.174 2.454,-0.458 5.011,-3.015 5.469,-5.47 0.044,-0.239 4.47,-24.293 4.174,-47.315 0.296,-23.074 -4.13,-47.128 -4.174,-47.369 -0.459,-2.455 -3.015,-5.01 -5.469,-5.467 -0.24,-0.045 -24.294999,-4.472 -47.316999,-4.176 z" />
        <g
           id="g66-1-6"
           style="opacity:0.6"
           transform="translate(-5.5999858,-4.4)">
          <defs
             id="defs68-5-1">
            <path
               inkscape:connector-curvature="0"
               id="XMLID_10_-9-4"
               d="m 69.626,12.145 -0.052,0 c -22.727,-0.292 -46.472,4.077 -46.709,4.122 -2.424,0.451 -4.946,2.974 -5.397,5.397 -0.044,0.237 -4.414,23.983 -4.122,46.71 -0.292,22.777 4.078,46.523 4.122,46.761 0.451,2.423 2.974,4.945 5.398,5.398 0.237,0.044 23.982,4.413 46.709,4.121 22.779,0.292 46.524,-4.077 46.761,-4.121 2.423,-0.452 4.946,-2.976 5.398,-5.399 0.044,-0.236 4.413,-23.981 4.121,-46.709 0.292,-22.777 -4.077,-46.523 -4.121,-46.761 -0.453,-2.423 -2.976,-4.946 -5.398,-5.397 -0.238,-0.045 -23.984,-4.414 -46.71,-4.122 z" />
          </defs>
          <g
             id="g4450-4-0"
             clip-path="url(#clipPath4458-4-5)">
            <path
               inkscape:connector-curvature="0"
               id="path83-9-3"
               style="opacity:0.8;fill:url(#linearGradient7337);filter:url(#filter4442-9-4)"
               d="m 119.344,21.665 c -0.377,-1.278 -1.675,-2.576 -3.367,-3.591 -1.693,1.015 -2.989,2.312 -3.365,3.591 -0.07,0.237 -6.965,23.983 -6.504,46.71 -0.461,22.777 6.434,46.523 6.504,46.761 0.376,1.278 1.674,2.576 3.365,3.591 1.694,-1.016 2.991,-2.312 3.367,-3.592 0.069,-0.236 6.963,-23.981 6.503,-46.709 0.46,-22.778 -6.433,-46.524 -6.503,-46.761 z" />
            <path
               inkscape:connector-curvature="0"
               id="path4438-0-1"
               style="opacity:0.8;fill:url(#linearGradient7339);filter:url(#filter4446-6-1)"
               transform="matrix(-1,0,0,1,139.2,0)"
               d="m 119.344,21.665 c -0.377,-1.278 -1.675,-2.576 -3.367,-3.591 -1.693,1.015 -2.989,2.312 -3.365,3.591 -0.07,0.237 -6.965,23.983 -6.504,46.71 -0.461,22.777 6.434,46.523 6.504,46.761 0.376,1.278 1.674,2.576 3.365,3.591 1.694,-1.016 2.991,-2.312 3.367,-3.592 0.069,-0.236 6.963,-23.981 6.503,-46.709 0.46,-22.778 -6.433,-46.524 -6.503,-46.761 z" />
          </g>
        </g>
        <path
           inkscape:connector-curvature="0"
           d="m 70.906252,21.510199 -14.625,1.40625 0,60.25 14.46875,-2.1875 0,-25.6875 19.46875,28.5 15.249998,-4.84375 -19.937498,-27.40625 20.093748,-25.84375 -15.562498,-3.5625 -19.3125,25.84375 0.15625,-26.46875 z m -33.15625,14.6875 c -0.165374,0.01706 -0.34425,0.06275 -0.46875,0.1875 l -5.75,5.75 c -0.241499,0.242246 -0.270998,0.613003 -0.09375,0.90625 l 6.71875,11.09375 c -1.192994,2.005487 -2.161754,4.156762 -2.84375,6.4375 l -12.34375,2.5625 c -0.343499,0.071 -0.59375,0.398002 -0.59375,0.75 l 0,8.125 c 0,0.343498 0.261249,0.637747 0.59375,0.71875 l 11.96875,2.90625 c 0.639996,2.640486 1.628759,5.167263 2.9375,7.46875 l -6.9375,10.5625 c -0.193499,0.295 -0.155746,0.688501 0.09375,0.9375 l 5.75,5.750001 c 0.242246,0.24149 0.613751,0.27174 0.90625,0.0937 l 10.875,-6.593751 c 2.13299,1.231493 4.442266,2.218 6.875,2.875 l 2.53125,12.187501 c 0.071,0.3445 0.367003,0.59375 0.71875,0.59375 l 8.125,0 c 0.340999,0 0.637752,-0.229 0.71875,-0.5625 l 3,-12.250001 c 2.508985,-0.676496 4.874511,-1.680761 7.0625,-2.96875 l 10.71875,7.031251 c 0.295498,0.1925 0.687001,0.15525 0.9375,-0.0937 l 5.71875,-5.750001 c 0.242998,-0.242496 0.302996,-0.613751 0.125,-0.90625 l -3.90625,-6.4375 -1.28125,0.40625 c -0.185002,0.057 -0.390003,-0.0265 -0.5,-0.1875 -10e-7,-10e-7 -2.467514,-3.629779 -5.6875,-8.34375 -3.850977,7.535454 -11.704553,12.6875 -20.75,12.6875 -12.853426,-2e-6 -23.28125,-10.427824 -23.28125,-23.28125 0,-9.454695 5.653795,-17.575271 13.75,-21.21875 l 0,-6 c -1.473491,0.515746 -2.897006,1.138001 -4.25,1.875 -0.0025,-0.0015 0.0025,-0.02975 0,-0.03125 l -10.96875,-7.1875 c -0.147499,-0.0965 -0.303376,-0.110813 -0.46875,-0.09375 z"
           style="fill:url(#radialGradient7341);fill-opacity:1"
           id="path5692_1_-9-2" />
        <path
           inkscape:connector-curvature="0"
           id="path99-1-7"
           style="opacity:0.7;fill:url(#linearGradient7343);fill-opacity:1"
           d="m 118,45.413803 c -1.19623,-13.482422 -3.07337,-22.798818 -3.1032,-22.95486 -0.4464,-2.409328 -3.96206,-5.898191 -6.34937,-6.346689 -0.23451,-0.04416 -22.609029,-4.388805 -45.009257,-4.098311 l -0.05143,0 C 41.087543,11.723449 18.712,16.068091 18.477485,16.112254 16.089143,16.561733 12.574514,20.049615 12.130171,22.458943 12.108571,22.57573 11.037829,27.464065 10,36.102315 c 0,5.785331 0,11.569681 0,17.355012 0,3.607613 2.396571,7.78051 5.328,9.289897 C 15.325943,62.645159 19.962744,76 59.337487,76 98.71326,76 112.9744,55.324924 112.97029,55.554571 115.73714,53.696788 118,49.2491 118,45.640505 c 0,-0.07557 0,-0.151135 0,-0.226702 z" />
      </g>
      <text
         sodipodi:linespacing="125%"
         id="text3111-7-9-6-7-1-4-7-3-9-7"
         y="752.71179"
         x="352.67816"
         style="font-size:151.83903503px;font-style:normal;font-weight:normal;line-height:125%;letter-spacing:0px;word-spacing:0px;fill:#3e3e3e;fill-opacity:1;stroke:none;font-family:Sans"
         xml:space="preserve"><tspan
           style="font-size:151.83903503px;font-style:normal;font-variant:normal;font-weight:normal;font-stretch:normal;text-align:start;line-height:125%;writing-mode:lr-tb;text-anchor:start;fill:#3e3e3e;fill-opacity:1;stroke:none;font-family:Kabel;-inkscape-font-specification:Kabel"
           y="752.71179"
           x="352.67816"
           id="tspan3113-7-4-2-1-2-8-8-9-6-9"
           sodipodi:role="line">KDE</tspan></text>
      <text
         sodipodi:linespacing="125%"
         id="text3915-1-3-8-3-2-81"
         y="815.21588"
         x="364.50403"
         style="font-size:164.41201782px;font-style:normal;font-weight:normal;line-height:125%;letter-spacing:0px;word-spacing:0px;fill:#000000;fill-opacity:1;stroke:none;font-family:Sans"
         xml:space="preserve"><tspan
           style="font-size:164.41201782px;font-style:normal;font-variant:normal;font-weight:normal;font-stretch:normal;text-align:start;line-height:125%;writing-mode:lr-tb;text-anchor:start;fill:#000000;fill-opacity:1;font-family:Jellyka BeesAntique Handwriting;-inkscape-font-specification:Jellyka BeesAntique Handwriting"
           y="815.21588"
           x="364.50403"
           id="tspan3917-1-5-9-3-1-0"
           sodipodi:role="line">15 years</tspan></text>
    </g>
  </g>
</svg>
