<?xml version="1.0" encoding="UTF-8" standalone="no"?>
<!-- Created with Inkscape (http://www.inkscape.org/) -->

<svg
   xmlns:dc="http://purl.org/dc/elements/1.1/"
   xmlns:cc="http://creativecommons.org/ns#"
   xmlns:rdf="http://www.w3.org/1999/02/22-rdf-syntax-ns#"
   xmlns:svg="http://www.w3.org/2000/svg"
   xmlns="http://www.w3.org/2000/svg"
   xmlns:sodipodi="http://sodipodi.sourceforge.net/DTD/sodipodi-0.dtd"
   xmlns:inkscape="http://www.inkscape.org/namespaces/inkscape"
   width="612pt"
   height="792pt"
   id="svg3081"
   version="1.1"
   inkscape:version="0.48+devel r"
   sodipodi:docname="KDEIndia.svg">
  <defs
     id="defs3083" />
  <sodipodi:namedview
     inkscape:document-units="in"
     pagecolor="#ffffff"
     bordercolor="#666666"
     borderopacity="1.0"
     inkscape:pageopacity="0.0"
     inkscape:pageshadow="2"
     inkscape:zoom="0.36"
     inkscape:cx="340"
     inkscape:cy="500"
     inkscape:current-layer="layer1"
     id="namedview3085"
     showgrid="false"
     inkscape:window-width="855"
     inkscape:window-height="677"
     inkscape:window-x="145"
     inkscape:window-y="34"
     inkscape:window-maximized="0" />
  <metadata
     id="metadata3087">
    <rdf:RDF>
      <cc:Work
         rdf:about="">
        <dc:format>image/svg+xml</dc:format>
        <dc:type
           rdf:resource="http://purl.org/dc/dcmitype/StillImage" />
        <dc:title></dc:title>
      </cc:Work>
    </rdf:RDF>
  </metadata>
  <g
     inkscape:label="Layer 1"
     inkscape:groupmode="layer"
     id="layer1">
    <g
       id="g3126"
       transform="translate(35.27778,0)"
       style="fill:#312c20;fill-opacity:1">
      <path
         inkscape:connector-curvature="0"
         id="path3842"
         d="m 204.55748,196.96548 c 0,0 -33.9856,82.40032 39.94685,101.07286 -3.87225,1.3344 -7.23757,3.97976 -9.17415,7.75869 -3.43813,6.70898 -1.27343,15.66312 5.7666,19.02979 5.33724,2.55236 12.40856,0.70962 14.83591,-4.98024 1.21606,-2.85055 0.77671,-6.30629 -1.1009,-8.64992 1.10357,1.7407 1.25049,4.13301 0.41939,6.08115 -0.0857,0.20076 -0.162,0.38864 -0.26212,0.57666 0.0492,-0.27592 0.0926,-0.55306 0.10485,-0.83878 0.13324,-3.11318 -2.22688,-6.08438 -5.45206,-6.13357 -2.44509,-0.0373 -4.78864,1.90007 -4.71815,4.45603 0.0348,1.26237 0.74887,2.47192 1.83484,3.04056 -0.70078,-0.46523 -1.12946,-1.33673 -1.15333,-2.2018 -0.0545,-1.97684 1.77857,-3.43641 3.66967,-3.40753 2.49445,0.038 4.2969,2.3103 4.19389,4.71812 -0.0568,1.32756 -0.6613,2.56241 -1.57271,3.45998 -0.008,0.008 -0.0441,-0.008 -0.0524,0 -2.41893,1.27371 -5.50846,1.33137 -8.07323,0.10484 -5.44496,-2.60385 -7.11518,-9.48971 -4.45603,-14.67863 2.56875,-5.01252 8.37599,-7.5457 13.83986,-6.55296 5.12502,0.85962 10.68155,1.49703 16.72315,1.78241 51.44689,-83.58107 -74.61325,-57.26195 -65.3199,-104.63766 z m 10.22261,38.74108 c 2.36063,-0.0151 4.76641,0.66895 6.71024,2.14938 2.59412,1.9757 4.10508,4.95699 4.50843,8.07325 0.70306,-1.57894 1.93497,-2.92317 3.66966,-3.56482 2.03248,-0.7518 4.35877,-0.30093 5.9763,0.99605 1.43098,0.66153 2.6247,1.79264 3.25026,3.35513 1.19186,2.9768 -0.18395,6.61256 -3.25026,7.75869 -2.58303,0.96551 -5.73227,-0.27959 -6.60538,-2.98814 -0.50134,-1.55525 0.0394,-3.41466 1.25817,-4.40358 0.18206,-0.19628 0.38322,-0.30383 0.62909,-0.41939 -0.24388,0.11109 -0.42594,0.25456 -0.62909,0.41939 -0.59928,0.6461 -0.86522,1.618 -0.68151,2.4639 0.46067,2.1212 2.85564,3.15801 4.82298,2.56877 2.63767,-0.79003 3.79739,-3.77874 2.93573,-6.29084 -0.35029,-1.02127 -0.94558,-1.83495 -1.72999,-2.46393 -1.66609,-0.77019 -3.6186,-0.84686 -5.39963,-0.10484 -2.16971,0.90394 -3.6364,2.77443 -4.14149,4.92782 -0.004,0.0891 -0.0464,0.17317 -0.0524,0.26212 -0.0344,0.17506 -0.0305,0.3467 -0.0524,0.52424 -0.10807,0.87381 -0.11337,1.75515 0.10484,2.62119 0.0132,0.0361 0.038,0.0689 0.0524,0.10485 0.004,0.017 -0.004,0.0361 0,0.0524 0.26248,0.64213 0.61131,1.27806 0.99605,1.83483 0.0619,0.0744 0.14421,0.13551 0.2097,0.2097 0.13948,0.15784 0.21117,0.31539 0.36696,0.47181 11.03444,13.14535 57.21928,2.05672 38.42656,42.88257 -54.28596,2.11927 -46.30418,-37.21629 -42.14863,-47.86283 0.33814,-3.21256 -0.86554,-6.52921 -3.5124,-8.54505 -3.43637,-2.61716 -8.7132,-2.31971 -11.32351,1.31058 -1.97893,2.75223 -1.65313,6.91554 1.3106,8.85961 1.32015,0.86596 3.04771,1.06772 4.456,0.47181 -1.95514,1.05225 -4.53782,0.93852 -6.44811,-0.31454 -3.83194,-2.51356 -4.18378,-7.9223 -1.62512,-11.48078 1.89843,-2.64025 4.88089,-3.86078 7.91596,-3.87937 z m 18.24344,29.93394 c -1.8167,13.06063 -1.48897,21.37384 31.34936,29.19998 12.07758,-25.31729 -27.04769,-17.19945 -31.34936,-29.19998 z m -4.19389,28.46605 c -1.34316,0.004 -2.62104,0.45058 -3.66965,1.25817 1.69129,-0.72555 3.68937,-0.79711 5.45206,0 3.56575,1.61248 5.04889,5.95798 3.51238,9.48868 0.2498,-0.37952 0.45717,-0.74692 0.62909,-1.15333 1.46149,-3.45482 -0.0114,-7.73725 -3.5648,-9.17413 -0.74584,-0.30156 -1.57781,-0.42147 -2.35908,-0.41939 z m -3.66965,1.25817 c -1.4443,0.6196 -2.63269,1.71197 -3.3027,3.25026 -1.28043,2.9398 -0.0424,6.5737 2.98816,7.81113 2.55297,1.0424 5.704,-0.0973 6.65781,-2.77846 0.54767,-1.53954 0.14024,-3.37861 -1.04848,-4.40358 0.57965,0.66377 0.7856,1.67631 0.57666,2.51634 -0.52397,2.10643 -2.92659,3.05936 -4.87541,2.41148 -2.61285,-0.86861 -3.71494,-3.9629 -2.77845,-6.4481 0.37327,-0.99058 1.00122,-1.75744 1.78241,-2.35907 z m 8.91202,9.64595 c -0.35056,0.50796 -0.79664,0.98193 -1.3106,1.46787 0.70273,-0.54779 0.84963,-0.47322 1.3106,-1.46787 z m 18.66283,4.35118 c 0.24336,0.12585 0.46019,0.268 0.68151,0.41937 -0.22009,-0.15576 -0.43056,-0.29641 -0.68151,-0.41937 z m -50.16946,35.59567 c -29.72193,0.0696 -67.46299,39.87139 -85.55544,12.94865 0,0 34.21221,82.2441 99.65741,43.24953 -1.7738,3.67003 -2.24026,7.93008 -0.94363,11.9526 2.31286,7.1751 10.15087,11.98131 17.50951,9.38385 5.57878,-1.96921 9.2793,-8.2574 6.97235,-13.99713 -1.15575,-2.87553 -3.88262,-5.0177 -6.86751,-5.34721 2.01121,0.45052 3.771,2.01896 4.56088,3.98419 0.0814,0.2025 0.14762,0.37289 0.20969,0.57666 -0.1603,-0.22998 -0.27845,-0.4184 -0.47181,-0.62908 -2.10719,-2.29554 -5.91519,-2.77003 -8.23052,-0.52424 -1.75528,1.7026 -2.01446,4.74307 -0.15728,6.50054 0.91727,0.86802 2.28998,1.20459 3.45996,0.83878 -0.82448,0.16654 -1.78292,-0.13911 -2.41148,-0.73394 -1.43641,-1.35925 -1.14793,-3.66346 0.2097,-4.98024 1.79077,-1.73694 4.66108,-1.40848 6.29084,0.36696 0.89855,0.97889 1.32038,2.28566 1.31059,3.56481 1.2e-4,0.0114 -3e-5,0.0405 0,0.0524 -0.8098,2.6111 -2.98089,4.82031 -5.66177,5.7666 -5.69137,2.00897 -11.73649,-1.68504 -13.52529,-7.23447 -1.72802,-5.36074 0.57198,-11.25492 5.13751,-14.4165 4.23363,-3.01704 8.62997,-6.51741 13.10592,-10.58959 -7.45576,-31.32911 -20.08427,-40.76716 -34.59963,-40.73319 z m 10.1702,20.96948 c 6.84498,0.017 13.30727,4.74812 18.66283,19.23947 -36.88743,39.88453 -59.05252,6.43002 -63.64235,-4.03662 -2.03253,-2.51074 -5.24804,-4.01099 -8.54506,-3.5648 -4.2805,0.57927 -7.74603,4.55168 -7.02478,8.96444 0.5468,3.34543 3.7117,6.06824 7.18205,5.34721 1.54582,-0.32117 2.88552,-1.41368 3.45997,-2.83087 -0.63845,2.12656 -2.53374,3.88643 -4.77057,4.35116 -4.48695,0.9326 -8.572,-2.64687 -9.27898,-6.97235 -0.52456,-3.20932 0.6979,-6.22852 2.83087,-8.38777 1.65899,-1.67944 3.86954,-2.81776 6.29084,-3.14543 3.23135,-0.4373 6.42328,0.54556 8.91203,2.46392 -0.61934,-1.61362 -0.72047,-3.40477 0.0524,-5.08512 0.90557,-1.96877 2.81451,-3.33816 4.87539,-3.5648 1.47964,-0.54409 3.11853,-0.55768 4.66572,0.10485 2.94769,1.26216 4.60803,4.78005 3.25028,7.75871 -1.14377,2.50919 -4.28246,3.86661 -6.81509,2.56875 -1.45423,-0.74522 -2.41686,-2.42303 -2.25423,-3.9842 -0.009,-0.26751 0.11753,-0.47836 0.2097,-0.73393 -0.0939,0.25099 -0.18264,0.47373 -0.2097,0.73393 0.0331,0.88063 0.58255,1.73355 1.3106,2.20181 1.82564,1.17414 4.21549,0.23505 5.18995,-1.57272 1.30649,-2.42376 0.0265,-5.38591 -2.35906,-6.55296 -0.96984,-0.47445 -1.98876,-0.63416 -2.98817,-0.52424 -1.72271,0.63348 -3.14465,1.99044 -3.87934,3.7745 -0.89505,2.17339 -0.58889,4.51587 0.57666,6.39569 0.06,0.0659 0.0986,0.19491 0.15727,0.26212 0.0994,0.14837 0.20451,0.27832 0.31455,0.41939 0.54148,0.69426 1.17304,1.27185 1.93966,1.72998 0.0356,0.0151 0.0693,0.0371 0.10485,0.0524 0.0151,0.008 0.0378,0.0441 0.0524,0.0524 0.63967,0.26846 1.32636,0.45503 1.99212,0.57666 0.0965,0.008 0.21581,-0.006 0.31454,0 0.2103,0.0133 0.40832,0.0521 0.62909,0.0524 11.22034,0.97955 25.72582,-16.12733 38.79351,-16.09406 z m 5.39964,8.59747 c -10.49993,-0.42622 -24.16494,15.76057 -32.45025,11.84775 7.95065,10.51987 14.07602,16.16601 42.83013,-1.52029 -2.63302,-7.43686 -6.27123,-10.16067 -10.37988,-10.32746 z m -55.20215,11.84775 c 0.12548,0.38774 0.15197,0.77888 0.15727,1.15332 -0.008,-0.38347 -0.0558,-0.76232 -0.15727,-1.15332 z m 68.36049,16.77559 c -0.26582,0.0454 -0.52196,0.0666 -0.78635,0.15727 0.26115,-0.0831 0.52282,-0.10788 0.78635,-0.15727 z m -23.80036,4.40358 c -0.89978,-0.0301 -1.79138,0.15008 -2.6736,0.52424 -0.74061,0.31415 -1.44114,0.80911 -1.9921,1.36302 -0.94727,0.95224 -1.50712,2.14741 -1.67757,3.45995 0.68289,-1.70896 2.01688,-3.14416 3.82694,-3.82692 3.66155,-1.38119 7.81645,0.61084 9.22656,4.19389 -0.0918,-0.445 -0.20116,-0.84923 -0.36697,-1.25817 -1.05712,-2.60728 -3.64391,-4.36573 -6.34326,-4.45601 z m -6.34327,5.34721 c -0.58315,1.45941 -0.66639,3.10421 -0.0524,4.66571 1.17337,2.98414 4.63589,4.67552 7.65386,3.40755 2.54231,-1.06814 3.9475,-4.08745 2.72604,-6.65781 -0.70136,-1.47591 -2.26159,-2.52732 -3.82694,-2.4115 0.87924,0.0596 1.70313,0.62129 2.14938,1.36302 1.11899,1.85997 0.10617,4.27005 -1.72999,5.18994 -2.46176,1.23336 -5.40543,-0.20167 -6.50054,-2.62117 -0.4365,-0.96439 -0.54636,-1.95795 -0.41939,-2.93574 z m 13.10592,0.52424 c 0.11129,0.60708 0.12472,1.28509 0.10485,1.99211 0.10958,-0.88424 0.27253,-0.9628 -0.10485,-1.99211 z m 249.43188,26.89335 c -3.98623,0.0969 -7.8723,2.22179 -9.5411,6.13357 -1.21606,2.85054 -0.77672,6.30627 1.10089,8.6499 -1.10355,-1.7407 -1.25047,-4.13299 -0.4194,-6.08115 0.0857,-0.20074 0.16182,-0.38863 0.26212,-0.57666 -0.0494,0.27594 -0.0925,0.55308 -0.10484,0.83878 -0.13324,3.1132 2.22687,6.08439 5.45208,6.13357 2.44508,0.0373 4.78862,-1.90007 4.71812,-4.456 -0.0348,-1.26238 -0.74886,-2.47193 -1.83483,-3.04059 0.70079,0.46523 1.12946,1.33674 1.15332,2.2018 0.0545,1.97684 -1.77857,3.43642 -3.66965,3.40755 -2.49446,-0.038 -4.29692,-2.3103 -4.1939,-4.71814 0.057,-1.32755 0.66129,-2.56239 1.57271,-3.45996 0.008,-0.008 0.0441,0.008 0.0524,0 2.41894,-1.27372 5.50846,-1.33137 8.07326,-0.10484 5.44496,2.60385 7.11514,9.4897 4.456,14.67863 -2.46464,4.80933 -7.89488,7.28529 -13.15834,6.60537 -5.30467,-0.92024 -11.05263,-1.53725 -17.35224,-1.83482 -51.44689,83.58107 74.56084,57.20951 65.26747,104.58524 0,0 33.95116,-82.29566 -39.84198,-101.02043 3.83249,-1.3455 7.14851,-4.01058 9.06929,-7.75871 3.43815,-6.70899 1.27342,-15.66311 -5.76661,-19.0298 -1.66787,-0.7976 -3.48285,-1.1974 -5.29479,-1.15331 z m -224.4782,15.62225 c -42.4119,0.2703 -31.06715,85.38797 -70.30014,77.6919 0,0 82.29566,33.95115 101.02041,-39.842 1.34551,3.8325 4.01059,7.14851 7.75871,9.0693 6.709,3.43814 15.66312,1.27343 19.02981,-5.7666 2.55234,-5.33724 0.7096,-12.40857 -4.98026,-14.83591 -2.85053,-1.21606 -6.30627,-0.7767 -8.64992,1.1009 1.74072,-1.10357 4.13301,-1.25049 6.08115,-0.41939 0.20076,0.0857 0.38866,0.16201 0.57666,0.26212 -0.27591,-0.0494 -0.55306,-0.0925 -0.83878,-0.10485 -3.11318,-0.13323 -6.08438,2.22688 -6.13357,5.45206 -0.0373,2.44509 1.90007,4.78865 4.45603,4.71813 1.26237,-0.0348 2.47192,-0.74887 3.04056,-1.83482 -0.46521,0.70078 -1.33673,1.12946 -2.20178,1.15331 -1.97683,0.0545 -3.43641,-1.77855 -3.40755,-3.66965 0.038,-2.49447 2.3103,-4.29692 4.71813,-4.19389 1.32755,0.0568 2.56241,0.66128 3.45997,1.5727 0.008,0.008 -0.008,0.0441 0,0.0524 1.27371,2.41896 1.33138,5.50848 0.10485,8.07325 -2.60386,5.44497 -9.48972,7.11517 -14.67864,4.45601 -4.78828,-2.45383 -7.2544,-7.86395 -6.60538,-13.10592 0.92595,-5.32117 1.53613,-11.13352 1.83483,-17.45708 -14.36549,-8.84244 -25.48262,-12.42808 -34.28509,-12.37199 z m 217.45343,0.57666 c 0.22008,0.15595 0.43056,0.29644 0.68151,0.41939 -0.24337,-0.12604 -0.4602,-0.268 -0.68151,-0.41939 z m 26.63123,2.93574 c -2.00796,0.006 -4.00278,1.18697 -4.71812,3.19783 -0.54769,1.53954 -0.14024,3.37864 1.04847,4.40359 -0.57967,-0.66376 -0.78562,-1.67632 -0.57666,-2.51633 0.52394,-2.10645 2.92658,-3.05935 4.8754,-2.41149 2.61284,0.86862 3.71494,3.96292 2.77844,6.44811 -0.37327,0.99056 -1.0012,1.75745 -1.78239,2.35907 1.44431,-0.61958 2.63268,-1.71199 3.30268,-3.25028 1.28043,-2.93978 0.0424,-6.57368 -2.98814,-7.81111 -0.63824,-0.26062 -1.27036,-0.42155 -1.93968,-0.41939 z m 1.62514,11.48078 c -1.6913,0.72553 -3.68937,0.79711 -5.45206,0 -3.56577,-1.61248 -5.04889,-5.95798 -3.5124,-9.48869 -0.24979,0.37953 -0.45716,0.74693 -0.62908,1.15332 -1.46151,3.45483 0.0113,7.73725 3.56482,9.17415 0.74582,0.30156 1.57781,0.42148 2.35905,0.41939 1.34317,-0.004 2.62104,-0.4506 3.66967,-1.25817 z m -7.60144,-11.11381 c -0.70272,0.54776 -0.84962,0.47319 -1.31059,1.46784 0.35056,-0.50796 0.79663,-0.98193 1.31059,-1.46784 z m -223.90154,7.75869 c 4.13313,0.14591 9.24321,1.51964 15.62226,4.45602 2.11927,54.28596 -37.21628,46.30416 -47.86283,42.14863 -3.21256,-0.33816 -6.52921,0.86555 -8.54505,3.51238 -2.61716,3.43639 -2.2673,8.71322 1.36301,11.32353 2.75223,1.97894 6.91553,1.65315 8.8596,-1.31059 0.86596,-1.32016 1.01531,-3.04772 0.4194,-4.45603 1.05224,1.95516 0.99094,4.53784 -0.26212,6.44811 -2.51357,3.83196 -7.97475,4.18379 -11.53321,1.62514 -2.64025,-1.89842 -3.86078,-4.8809 -3.87936,-7.91598 -0.0151,-2.36062 0.72136,-4.76638 2.2018,-6.71021 1.97569,-2.59411 4.90456,-4.10509 8.02083,-4.50845 -1.57895,-0.70305 -2.87075,-1.93495 -3.5124,-3.66965 -0.7518,-2.03247 -0.35336,-4.35879 0.94363,-5.9763 0.66152,-1.431 1.79263,-2.62469 3.35512,-3.25028 2.97681,-1.19185 6.61256,0.18396 7.75869,3.25028 0.96551,2.58304 -0.27958,5.73225 -2.98814,6.60539 -1.55524,0.50133 -3.41468,-0.0394 -4.40358,-1.25818 0.6461,0.5993 1.67043,0.8652 2.51633,0.68151 2.12119,-0.46068 3.10559,-2.85564 2.51634,-4.82297 -0.79003,-2.63768 -3.77874,-3.7974 -6.29084,-2.93574 -1.02126,0.3503 -1.83495,0.94558 -2.46392,1.72999 -0.77022,1.66609 -0.84687,3.61859 -0.10485,5.39964 0.90394,2.1697 2.82686,3.63639 4.98025,4.14146 0.0891,0.006 0.17298,0.0464 0.26211,0.0524 0.17507,0.0346 0.29428,0.0829 0.47182,0.10485 0.87381,0.10807 1.80758,0.0609 2.67361,-0.15727 0.0361,-0.0133 0.0689,-0.0379 0.10485,-0.0524 0.017,-0.006 0.0361,0.006 0.0524,0 0.64212,-0.26246 1.22564,-0.61132 1.78241,-0.99606 0.0744,-0.0619 0.1355,-0.14421 0.20969,-0.20969 0.15784,-0.13948 0.36782,-0.21115 0.52422,-0.36695 11.09141,-9.3103 4.88897,-43.67038 27.2079,-42.88258 z m 195.43548,1.52029 c 48.88208,0.38896 41.24648,37.60142 37.22083,47.91523 -0.33817,3.21258 0.86552,6.52921 3.51237,8.54507 3.43638,2.61716 8.71322,2.26728 11.32352,-1.36302 1.97895,-2.75221 1.65314,-6.91554 -1.3106,-8.85959 -1.32015,-0.86596 -3.04772,-1.0153 -4.45601,-0.41939 1.95517,-1.05224 4.53782,-0.99094 6.44812,0.26212 3.83193,2.51356 4.2362,7.97474 1.67756,11.5332 -1.89843,2.64023 -4.93333,3.86076 -7.96841,3.87935 -2.36062,0.0151 -4.71396,-0.72137 -6.6578,-2.20178 -2.59411,-1.9757 -4.15752,-4.90455 -4.56086,-8.02083 -0.70305,1.57894 -1.93497,2.87074 -3.66967,3.51238 -2.03247,0.7518 -4.30634,0.35336 -5.92387,-0.94361 -1.43098,-0.66155 -2.6771,-1.79265 -3.30269,-3.35513 -1.19185,-2.97682 0.18396,-6.61256 3.25026,-7.75871 2.58304,-0.96549 5.73228,0.27961 6.60539,2.98816 0.50134,1.55527 0.0132,3.41467 -1.20573,4.40358 0.59928,-0.6461 0.81276,-1.67042 0.62907,-2.51632 -0.46067,-2.1212 -2.8032,-3.10559 -4.77055,-2.51635 -2.63768,0.79003 -3.84981,3.77874 -2.98814,6.29085 0.35029,1.02124 0.99798,1.83494 1.78239,2.46392 1.66611,0.77021 3.6186,0.84688 5.39965,0.10484 2.16969,-0.90394 3.58396,-2.82685 4.08904,-4.98026 0.006,-0.0891 0.0988,-0.17317 0.10485,-0.26212 0.0346,-0.17506 0.0305,-0.29425 0.0524,-0.47181 0.10807,-0.8738 0.0609,-1.80759 -0.15727,-2.6736 -0.0132,-0.0362 -0.0378,-0.0689 -0.0524,-0.10485 -0.006,-0.017 0.006,-0.0363 0,-0.0524 -0.26248,-0.64215 -0.61132,-1.22564 -0.99605,-1.78241 -0.0619,-0.0744 -0.0918,-0.13551 -0.15728,-0.2097 -0.13948,-0.15784 -0.26357,-0.36784 -0.41939,-0.52424 -11.03442,-13.14536 -57.21927,-2.00431 -38.42656,-42.83014 1.69644,-0.0662 3.351,-0.0649 4.92783,-0.0524 z m -3.09299,2.30665 c -12.0776,25.31726 26.99528,17.19944 31.29693,29.19998 1.81673,-13.06063 1.5414,-21.37384 -31.29693,-29.19998 z m -186.99528,0.15727 c -15.57226,-0.54754 -10.6787,29.83963 -21.17915,33.60356 13.06063,1.81674 21.37384,1.48897 29.19998,-31.34936 -3.16466,-1.50969 -5.79622,-2.17598 -8.02083,-2.2542 z m 22.90916,13.21077 c -0.15576,0.22006 -0.29643,0.43055 -0.41939,0.68149 0.12604,-0.24335 0.268,-0.46018 0.41939,-0.68149 z m 101.96406,12.52926 c -1.08355,0.0375 -2.17407,0.24894 -3.25028,0.68149 -2.87551,1.15576 -5.01768,3.88265 -5.34721,6.8675 0.45052,-2.01118 2.01898,-3.77098 3.98421,-4.56085 0.20249,-0.0814 0.4253,-0.14743 0.62907,-0.2097 -0.22997,0.1603 -0.47081,0.27845 -0.68149,0.47181 -2.29554,2.10718 -2.7176,5.91517 -0.47182,8.23053 1.7026,1.75525 4.74307,2.01446 6.50054,0.15727 0.868,-0.91727 1.20458,-2.23757 0.83876,-3.40755 0.16655,0.82449 -0.1391,1.7305 -0.73391,2.35907 -1.35927,1.43642 -3.71591,1.14791 -5.03269,-0.20969 -1.73691,-1.79078 -1.40848,-4.66111 0.36697,-6.29084 0.97888,-0.89857 2.28568,-1.3204 3.56482,-1.3106 0.0113,-1.1e-4 0.0405,0 0.0524,0 2.61111,0.80979 4.82031,2.98091 5.7666,5.66176 2.00895,5.69139 -1.68503,11.7365 -7.23447,13.52531 -5.36074,1.728 -11.25494,-0.57201 -14.41651,-5.13752 -3.01704,-4.23363 -6.46498,-8.62998 -10.53716,-13.10592 -95.47919,22.72229 12.28654,93.22679 -27.78455,120.15507 0,0 82.19824,-34.20922 43.19712,-99.65741 3.67001,1.7738 7.93008,2.24026 11.9526,0.94363 7.17508,-2.31285 11.98129,-10.15088 9.38383,-17.50952 -1.59997,-4.53275 -6.05153,-7.81662 -10.74685,-7.65384 z m -110.71882,5.5569 c -2.7293,-0.0358 -5.42288,1.47667 -6.50054,4.14147 -0.30156,0.74584 -0.42147,1.5778 -0.41939,2.35907 0.004,1.34317 0.45058,2.62102 1.25817,3.66965 -0.72555,-1.69128 -0.7971,-3.68937 0,-5.45206 1.61246,-3.56575 5.95798,-5.04887 9.48868,-3.51238 -0.37952,-0.24982 -0.74692,-0.45718 -1.15331,-0.62908 -0.8637,-0.36538 -1.76384,-0.56478 -2.67361,-0.57667 z m -5.66176,10.17019 c 0.61959,1.44431 1.71197,2.6327 3.25026,3.3027 2.93981,1.28043 6.5737,0.0424 7.81113,-2.98816 1.04241,-2.55296 -0.0973,-5.70399 -2.77844,-6.65781 -1.53956,-0.54766 -3.37863,-0.14023 -4.4036,1.04848 0.66376,-0.57967 1.67631,-0.78562 2.51634,-0.57666 2.10644,0.52395 3.05936,2.92659 2.41148,4.8754 -0.86861,2.61284 -3.9629,3.71494 -6.44809,2.77846 -0.99059,-0.37327 -1.75745,-1.00122 -2.35908,-1.78241 z m 9.64595,-8.91201 c 0.50796,0.35055 0.98194,0.79663 1.46787,1.31057 -0.54776,-0.70272 -0.4732,-0.8496 -1.46787,-1.31057 z m 80.15582,2.67359 c 39.88453,36.88744 6.48244,59.05252 -3.98419,63.64235 -2.51076,2.03253 -4.01099,5.24806 -3.56482,8.54507 0.57927,4.28049 4.49927,7.74601 8.91203,7.02475 3.34544,-0.54679 6.06822,-3.7117 5.34721,-7.18202 -0.32116,-1.54583 -1.4137,-2.88553 -2.83088,-3.45998 2.12657,0.63846 3.88644,2.53374 4.35117,4.77055 0.93224,4.48697 -2.64689,8.62444 -6.97235,9.33143 -3.20932,0.52456 -6.17609,-0.75033 -8.33537,-2.88331 -1.67942,-1.65896 -2.87016,-3.86953 -3.19783,-6.29084 -0.4373,-3.23134 0.59799,-6.42329 2.51632,-8.91202 -1.61361,0.61934 -3.45717,0.72046 -5.13752,-0.0524 -1.96877,-0.90557 -3.28574,-2.81452 -3.51237,-4.8754 -0.54411,-1.47964 -0.61013,-3.11852 0.0524,-4.66572 1.26215,-2.94768 4.78005,-4.60802 7.75869,-3.25026 2.50919,1.14375 3.86663,4.28244 2.56877,6.81508 -0.74521,1.45422 -2.42302,2.41685 -3.98419,2.2542 -0.26754,0.009 -0.47839,-0.11771 -0.73394,-0.20969 0.25097,0.0939 0.47373,0.18263 0.73394,0.20969 0.8806,-0.0331 1.78595,-0.58254 2.2542,-1.31057 1.17416,-1.82564 0.18263,-4.2155 -1.62512,-5.18996 -2.42376,-1.30647 -5.38593,-0.0265 -6.55296,2.35907 -0.47446,0.96982 -0.58173,1.98874 -0.47181,2.98816 0.63347,1.72272 1.93801,3.14463 3.72207,3.87934 2.17339,0.89503 4.56829,0.58887 6.44811,-0.57666 0.0659,-0.06 0.14251,-0.0986 0.2097,-0.15727 0.14838,-0.0996 0.2783,-0.20451 0.41939,-0.31454 0.69425,-0.54148 1.32428,-1.17303 1.78241,-1.93968 0.0151,-0.0356 0.0371,-0.0693 0.0524,-0.10485 0.008,-0.0151 -0.008,-0.038 0,-0.0524 0.26846,-0.63964 0.45501,-1.32634 0.57667,-1.99208 0.008,-0.0965 -0.006,-0.21581 0,-0.31455 0.0132,-0.2103 0.052,-0.40832 0.0524,-0.62908 1.49264,-17.09769 -39.01128,-41.8766 3.14541,-57.45636 z m 17.98132,0.10485 c 0.0454,0.26583 0.11904,0.52195 0.2097,0.78636 -0.0831,-0.26116 -0.1603,-0.52282 -0.2097,-0.78636 z m -18.29586,2.77846 c -26.44217,9.3619 6.96421,31.30275 1.52029,42.83015 10.51985,-7.95066 16.166,-14.07603 -1.52029,-42.83015 z m -135.2531,11.58563 c 0.36295,0.18547 0.67513,0.42045 0.94362,0.68151 -0.27572,-0.26658 -0.59539,-0.47677 -0.94362,-0.68151 z m 164.87247,2.41148 c -0.25195,-0.006 -0.48141,0.0734 -0.99603,0.26212 0.60705,-0.11128 1.23264,-0.12472 1.93966,-0.10485 -0.44212,-0.0547 -0.69165,-0.15159 -0.94363,-0.15727 z m -1.1533,0.31454 c -0.445,0.0918 -0.84925,0.20116 -1.25818,0.36697 -3.47638,1.4095 -5.48103,5.48796 -3.98421,9.01688 0.31417,0.74062 0.80911,1.44115 1.36302,1.99211 0.95226,0.94726 2.19985,1.5071 3.5124,1.67754 -1.70896,-0.68287 -3.19659,-2.01688 -3.87936,-3.82692 -1.38119,-3.66157 0.66328,-7.81645 4.24633,-9.22658 z m -0.36697,13.0535 c 1.45941,0.58317 3.05177,0.66641 4.61328,0.0524 2.98414,-1.17335 4.67552,-4.63588 3.40753,-7.65387 -1.06812,-2.54229 -4.08745,-3.94747 -6.65781,-2.72602 -1.47589,0.70135 -2.47488,2.31401 -2.35905,3.87935 0.0594,-0.87923 0.62128,-1.75554 1.36302,-2.20178 1.85996,-1.119 4.2176,-0.10618 5.13751,1.72996 1.23336,2.46179 -0.14932,5.40543 -2.56877,6.50054 -0.96437,0.4365 -1.95792,0.54636 -2.93571,0.41939 z m -26.00215,38.05959 c 0.19327,-0.0214 0.38943,0.002 0.57666,0 -0.38347,0.008 -0.76232,0.0558 -1.15332,0.15728 0.19387,-0.0628 0.38339,-0.13589 0.57666,-0.15728 z"
         style="fill:#312c20;fill-opacity:1;stroke:none" />
      <path
         inkscape:connector-curvature="0"
         id="path3846"
         d="m 280.83394,220.34644 c 10.25934,12.25421 12.49457,51.13118 -1.41545,70.405 33.73878,-32.04552 9.96491,-68.41013 1.41545,-70.405 z m 27.10305,21.38886 c 0,0 -5.45553,27.07415 -19.13467,42.46318 17.57206,-10.41828 19.56585,-26.04382 19.13467,-42.46318 z m 7.18204,26.94576 c -2.52476,-0.0401 -8.27867,0.94327 -14.04955,9.279 8.61767,3.42218 12.79117,-6.69556 15.41257,-9.12173 0,0 -0.52143,-0.14383 -1.36302,-0.15727 z m -63.64236,31.61148 c -0.2827,2.02888 -3.64861,7.28843 0.78635,10.22261 2.03172,-5.44795 0.58422,-8.47086 -0.26212,-9.64595 -0.28204,-0.39174 -0.52423,-0.57666 -0.52423,-0.57666 z m -7.549,1.72999 c 0.61362,1.68099 -0.0884,7.06261 4.98025,7.65384 -0.54924,-4.9972 -3.07145,-6.80177 -4.29876,-7.39172 -0.40906,-0.19671 -0.68149,-0.26212 -0.68149,-0.26212 z m -3.93179,6.08114 c -0.33019,0.0293 -0.52424,0.10485 -0.52424,0.10485 1.02297,0.72773 2.6402,3.96139 6.02873,2.56875 -2.24528,-2.59651 -4.5139,-2.76198 -5.50449,-2.6736 z m 2.09696,4.66571 c -1.48118,0.0592 -2.36368,0.80659 -2.77847,1.25817 -0.18433,0.20074 -0.31454,0.31454 -0.31454,0.31454 0.93725,-0.0267 3.36614,1.48899 4.77057,-1.36302 -0.62596,-0.16692 -1.18383,-0.22945 -1.67756,-0.20969 z m 1.78241,2.93571 c -1.31139,1.2796 -1.35555,2.92902 -1.3106,3.66967 0.0151,0.24696 0.0524,0.36697 0.0524,0.36697 0.36743,-0.64796 1.96291,-1.34733 1.25818,-4.03664 z m -22.12281,0.73394 c 0,0 15.3044,23.0098 16.51348,43.56407 5.05846,-19.79213 -4.59833,-32.25871 -16.51348,-43.56407 z m -29.98633,2.98816 c -1.87399,0.1092 -3.36674,0.52155 -4.29873,1.1009 15.91948,1.41058 44.96123,27.28159 48.75401,50.74612 1.04764,-40.70196 -31.33733,-52.6119 -44.45528,-51.84702 z m 55.20212,10.17018 c 0,0 -0.49636,0.25313 -1.1009,0.83878 -1.8136,1.75694 -5.16872,6.53858 -3.3551,16.51347 8.51344,-3.67375 4.31796,-13.78309 4.456,-17.35225 z m -23.74792,68.20321 c 1.23473,1.63454 2.60034,7.71902 7.81113,6.6578 -2.41566,-5.28892 -5.59542,-6.37292 -7.02477,-6.60538 -0.47645,-0.0776 -0.78636,-0.0524 -0.78636,-0.0524 z m -1.31059,5.92387 c -0.93286,-0.0113 -1.6675,0.14554 -2.14938,0.31454 -0.42833,0.15008 -0.62907,0.31455 -0.62907,0.31455 1.62255,0.75473 4.90992,5.05322 8.91202,1.88726 -2.45121,-1.96575 -4.57882,-2.4986 -6.13357,-2.51635 z m 3.3027,5.7142 c -2.63175,0.12869 -4.00265,1.32452 -4.56088,1.99209 -0.21266,0.25428 -0.31454,0.47181 -0.31454,0.47181 1.23794,-0.20873 4.66985,0.91689 6.08115,-2.4639 -0.42795,-0.031 -0.82978,-0.0189 -1.20573,0 z m 1.52027,2.77844 c -0.56063,0.3246 -0.97544,0.68539 -1.31058,1.04848 -1.00547,1.08922 -1.12692,2.21827 -1.1009,2.83089 0.0114,0.27232 0,0.47179 0,0.47179 0.64387,-0.68158 3.43509,-1.3414 2.41148,-4.35116 z m 2.04453,1.83484 c -0.0225,1.83209 1.06964,3.02042 1.62514,3.51238 0.18528,0.16408 0.31454,0.26212 0.31454,0.26212 -0.19836,-0.718 0.46025,-2.37121 -1.93968,-3.7745 z m 11.9526,7.65386 c 0,0 -0.14384,0.52144 -0.15727,1.363 -0.0401,2.52477 0.94326,8.27867 9.279,14.04955 3.42217,-8.61765 -6.69557,-12.79117 -9.12173,-15.41255 z m -27.10305,8.54505 c 0,0 27.07417,5.45552 42.46319,19.13464 -10.41828,-17.57203 -26.04382,-19.56582 -42.46319,-19.13464 z m 10.43232,11.00898 c -17.31945,0.58532 -30.6367,11.01783 -31.82116,16.09407 12.2542,-10.25935 51.13117,-12.49459 70.40499,1.41544 -13.0185,-13.70637 -26.73367,-17.90999 -38.58383,-17.50951 z m 243.40314,5.29479 c -0.36742,0.64796 -1.96288,1.34733 -1.25815,4.03662 1.31137,-1.2796 1.35552,-2.929 1.31058,-3.66965 -0.0152,-0.24698 -0.0524,-0.36697 -0.0524,-0.36697 z m 1.41545,4.98025 c -0.89993,-0.0191 -1.86656,0.35639 -2.56875,1.78241 0.62594,0.16692 1.18383,0.22945 1.67754,0.20969 1.48117,-0.0592 2.36367,-0.80658 2.77846,-1.25817 0.18434,-0.20076 0.31455,-0.31454 0.31455,-0.31454 -0.46864,0.0132 -1.30187,-0.40031 -2.2018,-0.41939 z m -3.09299,3.66965 c -0.37051,0.0435 -0.78218,0.14043 -1.20575,0.31454 2.24527,2.59653 4.5139,2.76198 5.50448,2.67362 0.3302,-0.0293 0.52424,-0.10485 0.52424,-0.10485 -0.8951,-0.63677 -2.22939,-3.18739 -4.82297,-2.88331 z m -7.96841,0.57666 c -2.03169,5.44795 -0.58421,8.47086 0.26212,9.64597 0.28205,0.39174 0.52424,0.57666 0.52424,0.57666 0.28269,-2.02888 3.64862,-7.28845 -0.78636,-10.22263 z m 3.35511,0.83878 c 0.54924,4.9972 3.07147,6.8018 4.29875,7.39174 0.40908,0.1967 0.68151,0.26212 0.68151,0.26212 -0.61364,-1.681 0.0884,-7.06262 -4.98026,-7.65386 z m -30.51058,18.92495 c -33.73875,32.04552 -9.96488,68.41012 -1.41542,70.40501 -10.25935,-12.25424 -12.49459,-51.13119 1.41542,-70.40501 z m -9.38383,6.55296 c -17.57205,10.41828 -19.56582,26.04382 -19.13464,42.46318 0,0 5.45552,-27.07415 19.13464,-42.46318 z m -144.00786,2.77846 c -2.31895,0.002 -3.77401,0.78163 -4.50843,1.31058 -0.39174,0.28205 -0.57667,0.52424 -0.57667,0.52424 2.02888,0.28271 7.28843,3.64862 10.22261,-0.78636 -2.04297,-0.76188 -3.74612,-1.04993 -5.13751,-1.04846 z m 128.75256,2.77845 c -6.60782,-0.32283 -10.1307,7.68036 -12.42441,9.80324 0,0 0.52144,0.14383 1.36302,0.15727 2.52477,0.0401 8.27867,-0.94329 14.04955,-9.279 -1.0772,-0.42778 -2.04417,-0.63539 -2.98816,-0.68151 z m -124.45381,1.62514 c -4.99722,0.54924 -6.80179,3.07145 -7.39174,4.29873 -0.19669,0.40908 -0.26212,0.68151 -0.26212,0.68151 1.68099,-0.61362 7.06263,0.0884 7.65386,-4.98024 z m 28.57092,1.04847 c -3.43174,-0.0307 -6.86535,0.96023 -8.64992,0.89121 0,0 0.25313,0.49636 0.83879,1.10088 1.75693,1.81362 6.53857,5.16873 16.51345,3.35513 -1.83688,-4.25672 -5.2706,-5.31659 -8.70232,-5.34722 z m -27.47004,2.35906 c -2.59651,2.24529 -2.76198,4.51392 -2.67359,5.50448 0.0295,0.3302 0.10484,0.52424 0.10484,0.52424 0.72773,-1.02295 3.96141,-2.64017 2.56875,-6.02872 z m 5.87147,1.46787 c -0.27777,0.0231 -0.60747,0.0693 -0.94363,0.15727 1.27958,1.31139 2.929,1.35554 3.66965,1.31059 0.24698,-0.0151 0.36697,-0.0524 0.36697,-0.0524 -0.56695,-0.32151 -1.14865,-1.57714 -3.09299,-1.41544 z m -3.66966,0.26211 c -0.16693,0.62595 -0.22946,1.18384 -0.2097,1.67757 0.0592,1.48115 0.80659,2.36365 1.25817,2.77844 0.20075,0.18434 0.31454,0.31454 0.31454,0.31454 -0.0267,-0.93723 1.48899,-3.36612 -1.36301,-4.77055 z m 36.64416,4.14147 c -14.02326,0.0133 -23.94617,8.19545 -33.13177,17.87649 0,0 23.00981,-15.30439 43.56408,-16.51347 -3.71102,-0.94846 -7.19619,-1.36611 -10.43231,-1.36302 z m 17.45708,3.40755 c -42.80826,1.41279 -51.04219,41.53103 -46.55223,48.75402 1.4106,-15.9195 27.33403,-44.96124 50.79855,-48.75402 -1.45364,-0.0375 -2.86541,-0.0456 -4.24632,0 z m 37.43051,5.18994 c -5.28892,2.41564 -6.42535,5.5954 -6.65781,7.02477 -0.0776,0.47644 -0.0524,0.78636 -0.0524,0.78636 1.63452,-1.23474 7.77144,-2.60035 6.71023,-7.81113 z m 13.31562,0.31454 c -0.718,0.19836 -2.3188,-0.46025 -3.7221,1.93968 1.83211,0.0225 3.02043,-1.06963 3.5124,-1.62513 0.16409,-0.1851 0.2097,-0.31455 0.2097,-0.31455 z m -11.58563,2.67362 c -3.14521,3.92193 -2.60006,6.99794 -2.14938,8.28293 0.15008,0.42834 0.26212,0.62908 0.26212,0.62908 0.75473,-1.62254 5.05322,-4.90992 1.88726,-8.91201 z m 7.02477,1.10088 c -0.30703,0.0204 -0.67225,0.0818 -1.04847,0.2097 0.32459,0.56065 0.68537,0.97546 1.04847,1.31059 1.08921,1.00548 2.27069,1.12692 2.88329,1.1009 0.27234,-0.0113 0.41939,0 0.41939,0 -0.59638,-0.56339 -1.15347,-2.76425 -3.30268,-2.62119 z m -3.82694,0.52424 c -0.24836,3.42367 1.22916,5.12864 1.99211,5.7666 0.25428,0.21267 0.47181,0.31454 0.47181,0.31454 -0.20875,-1.23792 0.91689,-4.66982 -2.46392,-6.08114 z"
         style="fill:#312c20;stroke:none;fill-opacity:1" />
      <path
         id="path4021"
         d="m 311.03766,277.5043 c -41.3665,17.24678 -70.43862,58.01854 -70.43862,105.62835 0,63.21407 51.22651,114.49972 114.44058,114.49972 46.90203,0 87.1826,-28.27611 104.8595,-68.66435 l -8.81222,-12.89304 c -0.71781,2.09233 -1.51781,4.18166 -2.3657,6.20995 l 4.02169,14.90389 c 0.46099,1.72045 -0.58611,3.50155 -2.30656,3.96254 l -14.96303,4.02169 0,15.49531 c 0,1.78114 -1.47169,3.25283 -3.25283,3.25283 l -15.49532,0 -4.02168,14.96303 c -0.46099,1.72045 -2.24209,2.76755 -3.96254,2.30656 l -15.02217,-4.02169 -7.74766,13.42533 c -0.89056,1.54251 -2.83403,2.07341 -4.37654,1.18285 l -13.42533,-7.8068 -11.00049,11.00049 c -1.25946,1.25946 -3.2945,1.25946 -4.55396,0 l -11.00049,-10.94135 -13.42533,7.74766 c -1.54251,0.89056 -3.48598,0.35966 -4.37654,-1.18285 l -7.74766,-13.42533 -15.02217,4.02169 c -1.72045,0.46099 -3.50155,-0.58611 -3.96254,-2.30656 l -4.02169,-14.96303 -15.49531,0 c -1.78114,0 -3.25283,-1.47169 -3.25283,-3.25283 l 0,-15.49531 -14.96303,-4.02169 c -1.72045,-0.46099 -2.76755,-2.24209 -2.30656,-3.96254 l 4.02169,-15.02217 -13.42533,-7.74766 c -1.54251,-0.89056 -2.07343,-2.83403 -1.18285,-4.37654 l 7.74766,-13.48447 -11.00049,-10.94135 c -1.25946,-1.25946 -1.25946,-3.2945 0,-4.55396 l 11.00049,-11.00049 -7.74766,-13.42533 c -0.89058,-1.54251 -0.35966,-3.48598 1.18285,-4.37654 l 13.42533,-7.74766 -4.02169,-15.02217 c -0.46099,-1.72045 0.58611,-3.50155 2.30656,-3.96254 l 14.96303,-4.02169 0,-15.55445 c 0,-1.78114 1.47169,-3.19369 3.25283,-3.19369 l 15.43617,0 c 0.0221,-0.017 0.0371,-0.0422 0.0591,-0.0591 L 297.08,287.73598 c 0.40336,-1.5054 1.81697,-2.45692 3.31198,-2.3657 0.21357,0.0132 0.43551,0.0606 0.65057,0.11829 l 9.99506,2.66141 0,-10.64564 z"
         style="fill:#312c20;fill-opacity:1;stroke:none"
         inkscape:connector-curvature="0" />
      <path
         sodipodi:nodetypes="cccccccccscccccccccccccccsccssccccccccccccccccccccccccccsccccccccccccsccccccscscccccccccccccccccccccccccccccccccccsscscccsccccccccccccccccccccccccccccccccccccccccccccsccsccccccccccccccccccccsccccccccscccssccscscccccccccsccssccsccccccccccccscsccccccccccccsccccssccccccccccccssccccccccccccsccsssssccccccsscccsccccccccccccccccccccccsssccccssscccccccsssccccsccccscsccccccccssssssccccccccccccccccssssccccsssccccccssssscccssssssccccccccccccccccccccccccccccccsssccccssssccsssscccccccccccccsccssccscccccsssccsccscccccccsccc"
         inkscape:connector-curvature="0"
         id="path5692_2_-5"
         d="m 397.76135,142.15545 -75.61075,7.29532 0,103.12452 c 9.23496,-10.06506 20.0944,-17.6791 31.68253,-21.41698 l -0.26057,-0.26055 c 14.54001,-4.78817 30.59716,-3.01497 43.66768,4.53353 z m 99.05997,3.23078 -80.8738,108.33545 c 14.72281,18.74383 14.67907,46.72666 -2.60546,64.30299 -3.05656,3.10816 -6.55573,5.72057 -10.26556,7.76433 l 18.86362,27.56587 c 3.74966,-2.86936 6.82632,-4.58565 6.82632,-4.58565 0.72498,9.44137 16.06898,20.06919 10.78665,30.43191 l 1.61541,2.34492 c 2.66161,-14.33227 26.83633,-20.37477 26.83633,-20.37477 -2.35236,12.5589 20.46138,34.04773 -14.33009,38.71728 l 3.49134,5.10672 -0.41688,0.72953 c 0.53032,0.30025 1.03834,0.62943 1.56327,0.93799 l 39.3426,57.633 8.23329,-2.60548 c 0.006,0.0151 -0.006,0.0371 0,0.0522 l 0.67744,-0.26053 1.92804,-0.62531 c 1.64174,-13.8207 9.12298,-17.95883 17.24822,-18.08198 8.15321,-0.12339 16.90106,3.77323 21.1564,5.94049 l 4.11666,-1.30274 c -0.0876,-0.36383 -0.15633,-0.75466 -0.15633,-1.14642 0,-2.65961 2.13445,-4.79405 4.79408,-4.79405 2.03599,0 3.82067,1.24259 4.5335,3.02234 l 16.41446,-5.21095 -21.10431,-29.02492 -6.0968,2.76179 -1.19851,-3.80401 4.11663,-3.28288 -10.89085,-14.95539 -5.36728,3.33499 -1.71959,-3.59556 3.9603,-4.06451 -10.5782,-14.53853 -6.98266,5.73203 -2.13649,-3.33499 5.47147,-7.39954 -10.83875,-14.8512 -10.21343,10.99509 -2.55338,-3.02233 8.02486,-14.53852 -15.68493,-21.52119 c -1.15329,1.02643 -2.96414,0.93256 -4.01241,-0.20845 -1.05851,-1.15204 -0.94367,-2.95396 0.20841,-4.01241 0.14402,-0.13229 0.30731,-0.21609 0.46901,-0.31267 L 473.47623,297.65006 577.4345,163.93733 496.82125,145.38637 z m -123.75985,88.84654 c -4.66012,0.15879 -9.2885,0.94997 -13.80897,2.34492 l -0.10428,-0.10428 c -6.33278,2.0828 -12.07171,5.48332 -16.93556,9.79658 2.76213,0.66532 4.42194,-0.51213 5.10672,-0.57322 0.55672,-0.0496 0.51697,0.70473 -0.10428,3.804 -5.97836,0.83271 -7.63817,0.22902 -7.66007,-0.67744 -15.61297,16.02858 -20.38952,41.98602 -3.75188,61.07224 -1.5631,-0.0662 -2.90409,1.1466 -2.97023,2.70968 -0.0662,1.56307 1.1466,2.90408 2.70968,2.97024 1.56309,0.0662 2.90408,-1.1466 2.97024,-2.70969 0.001,-0.0352 -1.9e-4,-0.0693 0,-0.10428 0.56612,0.57082 1.11445,1.11268 1.66749,1.6675 -14.84896,-16.57468 -15.47792,-43.03948 0.72955,-59.19628 5.14049,-5.12442 11.57215,-8.60782 18.39461,-10.26555 -12.65019,-1.66324 -6.93056,-5.5757 -6.93056,-5.5757 4.69466,2.86556 10.37604,-0.77949 7.34744,5.47147 12.35963,-2.86251 25.90214,0.21907 35.01751,10.16133 -1.80313,-5.3959 0.44021,-9.0591 2.50124,-11.0993 l 0,-3.75188 c -6.93153,-3.52576 -13.72039,-5.39818 -20.21843,-5.88835 -0.36101,-0.0272 -0.73526,-0.0333 -1.0943,-0.052 -0.95527,-0.0189 -1.90965,-0.0326 -2.86603,0 z m 4.16878,0.88585 c 2.65531,4.87006 8.04541,5.99982 2.03226,10.00501 -10.58494,-7.99674 -2.03226,-10.00501 -2.03226,-10.00501 z m -13.91323,1.35485 c 3.82529,4.01687 11.70221,1.87028 6.93054,7.29531 -12.29397,-4.98467 -6.93054,-7.29531 -6.93054,-7.29531 z m 25.9505,2.24071 c 1.30437,5.39134 4.9623,9.09956 0.52109,11.41195 -8.15457,-10.46386 -0.52109,-11.41195 -0.52109,-11.41195 z m -58.77943,13.49633 c -3.05878,3.0478 -5.82241,6.10259 -8.33749,9.17126 l 0,4.95038 c 3.44624,-8.58093 8.33749,-14.12164 8.33749,-14.12164 z m 85.35521,1.6675 -4.79406,6.40947 c 3.26813,-1.27084 6.25313,-1.40697 6.25313,-1.40697 -2.7843,4.5453 -6.92888,13.80435 -14.38221,12.34994 l -0.41685,0.5211 c 1.08572,7.04587 -0.11526,14.36154 -4.42931,19.74946 0.42577,-0.0632 0.83559,-0.14138 1.25062,-0.15633 10.19457,-0.36545 16.41446,13.23579 16.41446,13.23579 -6.34194,-0.9428 -16.67139,-3.00095 -20.16632,-10.10923 -1.07609,1.0403 -2.34789,1.88395 -3.8561,2.50126 12.46487,4.95792 12.19359,21.20851 12.19359,21.20851 -5.29585,-4.20581 -18.15169,-11.12174 -13.809,-20.63531 -0.0691,0.0189 -0.13835,0.0344 -0.20841,0.0522 0.0736,-0.0312 0.1355,-0.0723 0.20841,-0.10428 0.14213,-0.30768 0.28997,-0.62491 0.46901,-0.93797 0.26804,0.0865 0.52426,0.21637 0.78163,0.31265 1.50976,-0.77226 2.87526,-1.6427 4.06453,-2.65759 -0.25851,-0.56375 -0.50946,-1.14382 -0.67743,-1.77172 1.06374,-0.46496 2.08329,-0.76921 3.07446,-0.93797 2.46538,-4.35365 2.76268,-10.19874 1.51117,-15.5286 l -2.29279,3.12658 0.0522,-9.22338 c -0.50264,-0.94311 -1.05896,-1.85582 -1.66749,-2.65756 -10.65008,-14.03112 -31.63514,-13.43485 -44.03247,-2.18861 -13.93259,12.63901 -14.69281,33.72194 -4.63771,48.61809 3.58746,-5.09469 14.01356,-20.28299 25.95046,-21.20855 0.79834,-0.0619 1.58676,-0.0208 2.39704,0.0521 -0.98966,10.70862 -27.9928,21.02097 -28.3475,21.15642 0.008,0.0114 -0.008,0.0403 0,0.0522 1.27233,1.88043 2.71126,3.66265 4.32508,5.31515 4.21276,4.31376 9.14883,7.48775 14.43429,9.53603 -8.35869,-1.57349 -16.31587,-5.38945 -22.87604,-11.62041 l -3.69974,1.09431 8.70224,20.06213 4.01245,-0.15633 -2.44916,-14.64273 c 4.79207,4.61417 9.31816,8.86275 13.75689,13.07944 -14.5123,3.313 -28.30744,8.48863 -41.16642,15.21596 l 0.20843,1.56327 c 0.0479,-0.025 0.10844,-0.0273 0.15633,-0.0522 l 0,20.21846 c 4.63474,4.91597 12.92311,3.9082 12.92311,3.9082 7.70835,-23.56415 -7.1867,-8.10854 -12.87101,-24.17876 12.54578,-6.54011 26.48174,-11.63506 40.64533,-14.9033 -15.46664,22.9596 7.29534,26.26315 7.29534,26.26315 13.49077,-20.68372 -4.68974,-9.81651 -6.14894,-26.52368 0.1391,-0.0312 0.27762,-0.0734 0.41689,-0.10428 6.06291,5.77977 11.82771,11.384 16.83133,16.77922 -7.31057,10.03565 -15.38899,27.44085 8.18117,35.59074 -9.40757,0.97222 -18.45509,3.08555 -27.04476,6.201 25.76745,-30.89617 -7.44341,-29.53843 -14.90328,-40.43689 0,0 -23.13167,38.58229 12.76679,41.21853 -8.7281,3.36438 -16.9456,7.78979 -24.49143,13.07947 12.52683,-26.99978 -1.37434,-28.70338 -13.60054,-31.16141 l 0,10.36975 c 7.02784,2.45028 19.72042,0.35652 10.99507,18.65519 -2.66926,0.58862 -4.85655,0.69695 -6.66999,0.41685 -1.49128,-1.77323 -2.93504,-3.5754 -4.32508,-5.41938 l 0,9.64024 c 1.5094,1.59482 3.02707,3.079 4.53352,4.53352 -0.42978,0.37028 -0.87856,0.71783 -1.30274,1.0943 -1.07705,-1.04206 -2.1521,-2.11842 -3.23078,-3.23077 l 0,6.25313 c -0.1868,0.17903 -0.38762,0.34077 -0.5732,0.52107 l 0.5732,0.57322 0,38.61307 12.34992,-1.87594 c -4.42465,-11.40001 -6.5269,-23.2776 -8.54594,-33.61057 7.90247,11.77816 25.35239,18.66155 41.42696,28.71229 l 29.65028,-4.48142 0,-12.97524 c -2.36377,3.72862 -5.36201,7.82135 -9.27548,12.50626 l -0.26057,0.31265 -0.41685,0 c 0,0 -9.78125,-0.31348 -23.91824,-6.09679 -10.49888,-4.29499 -23.39289,-11.65973 -36.58078,-24.12665 0.40637,-0.35953 0.83901,-0.68849 1.25062,-1.04221 12.97418,12.23784 25.66987,19.44993 35.9555,23.65769 13.51387,5.52838 22.46455,5.86969 22.98023,5.88837 4.55783,-5.49177 7.80703,-10.15893 10.26557,-14.33009 l 0,-7.66008 c -2.86035,6.05398 -6.66526,12.52466 -11.62041,19.48891 -21.44966,-4.56139 -39.17725,-16.02767 -53.20371,-30.64034 18.05097,-14.00426 40.48472,-22.64849 64.87622,-23.55344 l -0.10428,-1.66751 c -1.79588,0.0668 -3.59355,0.16389 -5.36727,0.31267 2.03927,-1.43545 3.86144,-2.80262 5.41939,-4.11666 l 0,-4.9504 c -1.34273,1.77483 -3.51063,3.74903 -6.77423,5.9926 -19.50699,-6.17441 -2.68276,-23.12041 -1.82382,-23.97032 0.21719,0.26994 0.41195,0.56383 0.6253,0.83373 0.44214,0.76279 1.06511,1.51938 1.77171,2.24071 2.36014,3.14842 4.4361,6.28587 6.20104,9.48393 l 0,-46.84636 c -10.11539,3.76931 -21.39965,3.9038 -31.42197,0.0522 10.5806,1.96613 21.74955,0.2612 31.42197,-4.79405 l 0,-6.87844 3.38709,4.95038 c 3.37659,-2.13155 6.51797,-4.70299 9.32761,-7.71219 15.52794,-16.63096 17.06479,-41.50384 6.09677,-60.29058 z m -18.70727,2.86601 c -0.22595,0.11715 -0.47395,0.20987 -0.72952,0.31267 0.25033,0.3393 0.48533,0.68755 0.72952,1.04218 z m -27.87852,2.03227 c 5.43792,4.31862 15.46437,10.35441 10.05711,18.02986 1.56531,-0.85031 3.35633,-1.35484 5.26305,-1.35484 0.0865,0 0.17449,-0.002 0.26054,0 -6.23202,-7.36512 0,-16.41447 0,-16.41447 2.56773,6.50371 4.83358,12.87128 0,16.41447 5.9819,0.1374 10.78665,5.03223 10.78665,11.0472 0,6.10145 -4.94576,11.04719 -11.04719,11.04719 -5.98037,0 -10.85626,-4.74848 -11.0472,-10.68244 -11.34038,8.98821 -31.10931,-0.10428 -31.10931,-0.10428 3.65835,-1.44434 11.0296,-3.4937 17.92562,-3.75186 5.33175,-0.19961 10.38376,0.69021 13.18369,3.75186 -0.002,-0.0859 0,-0.17412 0,-0.26055 0,-1.93188 0.53563,-3.7353 1.40696,-5.31515 -13.40405,5.49417 -23.18871,-12.24572 -23.18871,-12.24572 6.89118,1.02442 20.25754,1.70826 23.24081,12.08939 0.98183,-1.7202 2.39646,-3.13483 4.11666,-4.11665 -8.9754,-3.34387 -9.84868,-18.13407 -9.84868,-18.13407 z m 26.05468,10.10923 c 0.69166,-0.008 1.1464,0.052 1.1464,0.052 -1.02811,6.91626 0.0151,7.37314 -5.94045,8.02486 -1.28588,-7.12078 2.71915,-8.05313 4.79405,-8.07696 z m 17.0919,2.39703 c 4.33106,-0.21881 8.54593,1.77172 8.54593,1.77172 -3.91144,3.71308 -10.02226,8.43713 -16.93554,4.79408 1.58178,-4.89242 5.02099,-6.3956 8.38961,-6.5658 z m -2.55335,11.72462 c 6.40608,-0.25105 11.93305,3.75188 11.93305,3.75188 -8.7699,7.10008 -17.19634,4.83358 -20.73955,0 2.83274,-2.65569 5.89461,-3.63778 8.8065,-3.75188 z m -30.58823,13.60056 c 5.60205,11.76056 -15.0075,29.54602 -15.0075,29.54602 1.02815,-6.91626 5.08407,-26.62811 15.0075,-29.54602 z m -57.11191,1.35485 0,10.31765 c 1.58186,-0.46288 3.28688,-0.9287 5.26305,-1.40696 -2.25994,-2.99287 -3.96265,-5.97042 -5.26305,-8.91069 z m 62.79184,0.15632 c 9.06474,9.6313 -0.10428,27.7743 -0.10428,27.7743 -2.56773,-6.50373 -7.56215,-20.83183 0.10428,-27.7743 z m 47.00268,2.866 c 0.53972,-0.0371 1.1073,0.0713 1.61537,0.36477 1.35488,0.78225 1.87657,2.55332 1.09432,3.9082 -0.78223,1.35487 -2.55335,1.77235 -3.90821,0.99008 -1.3549,-0.78224 -1.82442,-2.50121 -1.04219,-3.85609 0.48892,-0.8468 1.34116,-1.34487 2.24071,-1.40696 z m 8.59804,1.45906 c 0.54842,-0.0132 1.06808,0.15444 1.56329,0.469 1.32061,0.83884 1.72474,2.58762 0.88587,3.90819 -0.83884,1.32058 -2.58764,1.72472 -3.90823,0.88586 -1.32061,-0.83883 -1.72472,-2.63974 -0.88585,-3.9603 0.52428,-0.82539 1.43091,-1.28019 2.34492,-1.30275 z m 8.59806,1.30275 c 0.31757,0.022 0.63635,0.12812 0.93797,0.26054 0.17241,0.0757 0.36134,0.14762 0.52109,0.26055 1.27733,0.9033 1.58071,2.68295 0.67743,3.96031 -0.90332,1.27734 -2.68297,1.63279 -3.96031,0.72952 -1.27737,-0.90331 -1.5807,-2.73504 -0.67742,-4.01241 0.59276,-0.83827 1.54854,-1.26479 2.50124,-1.19851 z m 9.11915,2.60546 c 0.49245,-0.0151 1.01682,0.0924 1.45905,0.31265 0.16844,0.0838 0.31509,0.19219 0.46899,0.31267 1.2321,0.96416 1.43314,2.72825 0.46898,3.96031 -0.96414,1.23205 -2.72822,1.48524 -3.96031,0.52109 -1.23203,-0.96414 -1.48524,-2.78035 -0.52109,-4.01242 0.42183,-0.53902 0.98676,-0.90546 1.61539,-1.0422 0.15727,-0.0342 0.30483,-0.0471 0.46899,-0.0522 z m -124.54147,1.25062 c -3.98607,1.32046 -7.9464,2.75971 -11.88095,4.32508 l 0.6253,1.56329 c 3.90424,-1.55332 7.8217,-3.01492 11.77673,-4.32508 z m 132.61841,1.66751 c 0.62937,-0.1003 1.29889,-0.006 1.87596,0.31265 0.16485,0.0908 0.32007,0.23788 0.46898,0.36478 1.19135,1.01412 1.32678,2.76903 0.31265,3.9603 -1.01413,1.19129 -2.82112,1.32676 -4.01243,0.31267 -1.19133,-1.01414 -1.32678,-2.82116 -0.31263,-4.01244 0.44365,-0.52118 1.0381,-0.83763 1.66747,-0.93796 z m -25.84623,2.39702 9.06701,2.18859 -8.02484,21.36487 -3.54343,-1.82382 z m 34.70484,0.99009 c 0.62576,-0.0816 1.31236,0.0757 1.87594,0.41688 0.16125,0.0977 0.32543,0.17998 0.46898,0.31265 1.14882,1.06201 1.21833,2.86361 0.15632,4.01243 -1.06199,1.14884 -2.86361,1.21831 -4.01241,0.15632 -1.14882,-1.06201 -1.21833,-2.86364 -0.15632,-4.01245 0.46462,-0.50258 1.04175,-0.80409 1.66749,-0.88583 z m -147.57384,0.20845 c -1.56448,0 -2.81391,1.24943 -2.81391,2.81391 0,1.56446 1.24943,2.81389 2.81391,2.81389 1.56448,0 2.86601,-1.24943 2.86601,-2.81389 0,-1.56448 -1.30153,-2.81391 -2.86601,-2.81391 z m 13.23579,2.2928 c -6.36444,2.08855 -12.67697,4.49679 -19.01992,7.24321 l 0.6253,1.56329 c 6.29813,-2.72702 12.60146,-5.11903 18.91572,-7.19111 z m 142.31079,0.46899 c 0.7183,0 1.42704,0.28061 1.98016,0.83373 1.10624,1.10627 1.10626,2.90619 0,4.01245 -0.20466,0.20464 -0.43385,0.3421 -0.67742,0.46897 -0.10239,0.0666 -0.20415,0.10485 -0.31267,0.15633 -1.05826,0.50204 -2.35283,0.30474 -3.23076,-0.5732 -1.1062,-1.10628 -1.05416,-2.90619 0.0522,-4.01243 0.29607,-0.29609 0.62543,-0.49765 0.99005,-0.62532 0.37002,-0.16995 0.80042,-0.26053 1.19854,-0.26053 z m -18.13407,2.65757 8.75438,3.335 -10.73454,20.16636 -3.23079,-2.24072 z m -141.58126,5.73204 -1.30273,0.5732 0,15.32016 4.01241,6.67001 3.96033,-0.67742 z m 165.55158,4.27298 8.2333,4.48141 -13.28791,18.55094 -2.91813,-2.65759 z m -103.90617,7.13899 c 0.27293,-0.0307 0.55428,-0.017 0.83377,0 0.31941,0.0197 0.61684,0.0702 0.93797,0.15633 2.56898,0.68836 4.12757,3.31937 3.43921,5.88837 -0.68836,2.56897 -3.37148,4.12757 -5.94045,3.43921 -2.569,-0.68834 -4.07549,-3.37148 -3.38713,-5.94046 0.52704,-1.96689 2.20629,-3.32895 4.11663,-3.54345 z m 43.14662,1.45905 c 0.92521,-0.0653 1.89805,0.12661 2.76179,0.62532 2.3033,1.32979 3.0494,4.31461 1.7196,6.61789 -1.32979,2.30328 -4.2625,3.04942 -6.56578,1.7196 -2.30328,-1.32979 -3.1015,-4.26249 -1.77172,-6.56577 0.83114,-1.43956 2.31403,-2.28807 3.85611,-2.39704 z m 24.38719,3.43923 c -8.73512,16.37213 14.07323,15.70703 -8.49384,27.149 0,0 -18.89688,-14.83277 8.49384,-27.149 z M 343.776,345.12157 c -0.33244,0 -0.67659,0.0401 -0.99009,0.10428 -0.62579,0.13001 -1.20976,0.37978 -1.71961,0.72952 -0.25618,0.17317 -0.45955,0.35537 -0.67742,0.5732 -0.43573,0.43574 -0.79847,0.98716 -1.04218,1.56329 -0.24369,0.57615 -0.36477,1.21105 -0.36477,1.87594 0,0.33246 0.0401,0.62449 0.10428,0.93797 0.004,0.0151 -0.004,0.036 0,0.0522 0.13115,0.60856 0.34019,1.16832 0.67742,1.6675 0.0114,0.0197 0.0392,0.0329 0.0522,0.0522 0.87016,1.24807 2.32351,2.08437 3.96032,2.08437 1.32981,0 2.51567,-0.53548 3.38711,-1.40694 0.23139,-0.22418 0.44275,-0.41126 0.62532,-0.67743 0.006,-0.009 -0.006,-0.0414 0,-0.0522 0.33695,-0.501 0.60265,-1.05656 0.72953,-1.6675 0.0704,-0.32799 0.10428,-0.641 0.10428,-0.99007 0,-0.33246 -0.0401,-0.67661 -0.10428,-0.99009 -0.13002,-0.62863 -0.37978,-1.20365 -0.72953,-1.71962 -0.18263,-0.26936 -0.39393,-0.50196 -0.62532,-0.72952 -0.21785,-0.21785 -0.42122,-0.4001 -0.67742,-0.5732 -0.51595,-0.34974 -1.09094,-0.59956 -1.7196,-0.72954 -0.3135,-0.0642 -0.65764,-0.10428 -0.99009,-0.10428 z m 19.80158,2.86601 c 2.36945,8.96018 10.46456,0.96057 6.09678,12.81891 0,0 -11.93236,0.99918 -6.09678,-12.81891 z m 106.09474,1.40696 c 1.23244,0 2.44681,0.46663 3.38713,1.40695 1.88062,1.88061 1.88062,4.94571 0,6.82634 -1.88065,1.88062 -4.89362,1.88062 -6.77424,0 -1.88061,-1.88063 -1.88061,-4.94573 0,-6.82634 0.94032,-0.94032 2.15468,-1.40695 3.38711,-1.40695 z m -22.98024,0.5732 c -11.96278,9.049 -1.14642,14.17376 -1.14642,14.17376 9.71179,-8.08576 -1.28168,-5.2293 1.14642,-14.17376 z m 46.58581,9.17126 c -12.67488,13.55347 9.54356,18.86325 -15.21594,24.07456 0,0 -14.42914,-19.26724 15.21594,-24.07456 z m -168.78237,3.96031 c 4.60779,8.04161 10.32104,-1.79812 9.17126,10.78667 0,0 -11.23159,4.07092 -9.17126,-10.78667 z m 160.49698,3.85608 c -13.8972,5.6445 -4.74196,13.39214 -4.74196,13.39214 11.47361,-5.29667 0.0814,-5.38087 4.74196,-13.39214 z m -132.56635,3.85611 c 4.16001,6.07753 22.88003,5.2956 7.86853,22.87604 -20.96446,-0.93871 -7.86853,-22.87604 -7.86853,-22.87604 z m 153.77487,1.30274 c 1.63152,0.0413 3.24394,0.93761 4.11664,2.44914 1.3298,2.30328 0.53156,5.23599 -1.77172,6.56577 -2.30328,1.32981 -5.23597,0.53158 -6.56579,-1.7717 -1.32981,-2.30329 -0.58367,-5.23598 1.71963,-6.56579 0.57581,-0.33244 1.20301,-0.54827 1.82382,-0.62532 0.23281,-0.029 0.44434,-0.0581 0.67742,-0.0522 z m -117.45462,1.66751 c -1.43613,0.19995 -2.67554,1.27309 -3.07444,2.76179 -0.53186,1.98494 0.62053,4.00166 2.60547,4.53353 1.98495,0.53185 4.05376,-0.62055 4.58564,-2.60548 0.53185,-1.98494 -0.67263,-4.05377 -2.6576,-4.58561 -0.49623,-0.13286 -0.98033,-0.17109 -1.45907,-0.10428 z m 72.22366,1.40695 c 0,0 -15.90836,4.02036 -14.90328,13.60056 l 5.52358,8.02484 c 21.30737,-2.16989 8.04876,-14.51961 9.3797,-21.6254 z m -104.06249,6.0968 c -2.05496,0 -3.69978,1.6448 -3.69978,3.69976 0,2.05495 1.64482,3.69978 3.69978,3.69978 2.05496,0 3.75188,-1.64483 3.75188,-3.69978 0,-2.05496 -1.69692,-3.69976 -3.75188,-3.69976 z m 145.80212,1.98014 c -5.76374,12.02506 12.49669,40.55609 -28.66019,32.93315 -17.50744,-33.72299 28.66019,-32.93315 28.66019,-32.93315 z m -48.51387,1.30276 c 0.95226,0 1.87895,0.36776 2.60548,1.09428 1.45307,1.45309 1.45307,3.80998 0,5.26307 -1.45308,1.45307 -3.80996,1.45307 -5.26305,0 -1.45308,-1.45309 -1.45308,-3.80998 0,-5.26307 0.72652,-0.72652 1.70533,-1.09428 2.65757,-1.09428 z m 68.26333,3.02232 c 1.57575,0.004 3.29139,0.0713 5.15883,0.26057 -15.75087,9.81113 4.36878,20.70707 -20.89588,19.33259 0,0 -7.8991,-19.63568 15.73705,-19.59316 z m -4.84617,5.67993 c -14.88455,1.85531 -8.02485,11.67251 -8.02485,11.67251 12.45354,-2.14655 1.44985,-5.14041 8.02485,-11.67251 z m -126.52164,1.71963 c 0.83125,7.34089 5.22493,8.35634 5.94049,13.23577 l 0,-11.04718 c -1.33499,-1.12136 -3.26194,-1.93033 -5.94049,-2.18859 z m 100.10216,0 c -4.75068,0.19062 -23.20756,1.99341 -14.74696,18.29039 22.73086,4.21011 12.65799,-11.64899 15.84127,-18.29039 0,0 -0.41562,-0.0271 -1.09431,0 z m -112.55631,1.71962 c 0,0 14.99494,18.33827 4.27298,43.45922 -0.10447,-0.0532 -0.2089,-0.10257 -0.31267,-0.15632 0.24772,-20.79915 -9.61169,-29.8261 -17.56085,-41.06221 -0.0373,0.0867 1.41488,22.14388 16.31023,40.43689 -20.09892,-11.27427 -26.52368,-35.90338 -26.52368,-35.90338 -0.91537,10.18837 -1.41065,31.98281 27.149,36.6329 0.2153,0.25658 0.40457,0.5268 0.6253,0.78163 0.006,-0.23233 -0.004,-0.44795 0,-0.67742 0.0888,0.0133 0.17128,0.0386 0.26057,0.0522 -0.089,0.20718 -0.16806,0.41722 -0.26057,0.62532 8.5889,-7.04207 16.99592,-32.54424 -3.96031,-44.18879 z m -51.22354,0.15632 c -0.2468,0.0151 -0.48141,0.0901 -0.72952,0.15633 -1.98497,0.53186 -3.18945,2.54857 -2.65761,4.5335 0.53187,1.98496 2.6007,3.18945 4.58565,2.65759 1.98494,-0.53187 3.13733,-2.6007 2.60545,-4.58563 -0.46536,-1.73682 -2.07644,-2.8655 -3.80397,-2.76179 z m 154.66071,5.26305 c 0.17696,-0.0151 0.34237,-0.0132 0.5211,0 1.19148,0.0842 2.32807,0.76367 2.97024,1.87594 1.02748,1.77965 0.4248,4.02712 -1.35485,5.05461 -1.77964,1.02748 -4.02713,0.42478 -5.05462,-1.35485 -1.02749,-1.77965 -0.42478,-4.02711 1.35484,-5.0546 0.50053,-0.289 1.03294,-0.47197 1.56329,-0.5211 z m 53.09948,1.40697 c 2.23587,-0.13419 4.3481,1.29557 4.9504,3.54343 0.68836,2.56898 -0.87023,5.25211 -3.43923,5.94045 -2.56897,0.68837 -5.19999,-0.87023 -5.88837,-3.43921 -0.68834,-2.56899 0.87024,-5.20001 3.43925,-5.88835 0.32111,-0.0859 0.61855,-0.13702 0.93795,-0.15632 z m -188.27127,5.05477 c -8.49821,15.86332 9.64025,21.52118 9.64025,21.52118 -5.35327,-6.10486 -7.15296,-13.98335 -9.64025,-21.52118 z m 50.12926,2.76179 c -0.23735,1.80628 -0.84798,4.01408 -1.98018,6.87844 4.3e-4,-0.001 0.94993,-1.60269 1.98018,-3.96031 z m -62.94818,0.0522 c -1.00557,0.73196 -1.98974,1.47723 -2.97022,2.24069 -0.50082,-0.53486 -1.02016,-1.07268 -1.51119,-1.61539 1.40233,-0.1145 2.90529,-0.32092 4.48141,-0.6253 z m 179.04792,0.15632 c 8.88177,-0.36833 17.40454,2.03227 17.40454,2.03227 -8.67968,10.12355 1.51339,42.40257 -36.26813,24.38721 -4.6028,-20.87167 7.44416,-25.9459 18.86359,-26.41948 z m -3.23078,9.53601 c -6.80377,-0.2414 -15.3829,1.88667 -12.55835,14.69486 20.86665,9.94983 15.26837,-7.95724 20.06209,-13.54844 0,0 -3.42148,-1.00158 -7.50374,-1.14642 z m 30.74455,0.67744 c 3.31154,-0.0454 7.50234,0.71105 12.76681,2.70969 -17.75351,5.4002 -1.17295,21.10241 -25.22097,13.23577 0,0 -1.89583,-15.7492 12.45416,-15.94546 z m -35.85128,4.63773 c 1.72756,-0.10371 3.3386,0.97287 3.804,2.70969 0.53185,1.98493 -0.62053,4.05376 -2.60548,4.58563 -1.98493,0.53184 -4.05375,-0.67264 -4.58563,-2.65759 -0.53187,-1.98495 0.67265,-4.00164 2.65759,-4.53351 0.24811,-0.0666 0.48275,-0.0893 0.72952,-0.10428 z m 34.96541,0.46898 c -11.79693,-0.45982 -8.23328,9.4839 -8.23328,9.4839 12.58476,1.14979 2.79718,-4.61556 10.83875,-9.22335 -0.92859,-0.1287 -1.819,-0.22989 -2.60547,-0.26055 z m -205.46737,15.5807 c 1.11477,5.04904 2.22019,10.5941 3.8561,16.20605 l 15.73701,-2.39704 c -8.18232,-4.13002 -15.39794,-8.27557 -19.59311,-13.80901 z m 187.17698,8.54594 c -4.22487,0.0717 -8.1686,2.12629 -9.37968,8.70228 l 5.10672,-1.61539 c 0.52288,-1.40566 1.84335,-2.39702 3.43921,-2.39702 0.79758,0 1.53466,0.25406 2.13649,0.67742 l 8.85859,-2.81391 c -2.60089,-1.17844 -6.48695,-2.61549 -10.16133,-2.55338 z"
         style="fill:#312c20;display:inline;fill-opacity:1" />
      <path
         id="path3848"
         d="m 302.63943,293.8276 c 3.84095,4.36335 6.39643,9.21135 8.27994,14.0759 l 0,-6.56481 c -2.5984,-2.44325 -5.36297,-4.94167 -8.27994,-7.51109 z m -21.11384,16.50074 c 16.94456,11.27642 20.38353,32.27467 29.39378,37.43715 l 0,-19.28043 c -6.79254,-6.40296 -17.14327,-12.08212 -29.39378,-18.15672 z m -16.14588,21.46869 c 23.8347,8.04135 31.55701,35.74701 45.53966,27.20552 l 0,-3.78512 c -4.29998,-13.64299 -21.97993,-18.68054 -45.53966,-23.4204 z m 3.78512,24.2484 c -4.34639,0.0785 -8.99368,0.34359 -13.83933,0.65056 25.55655,1.6273 40.25265,27.28862 51.63133,13.83933 -5.24753,-12.21788 -18.95765,-14.8302 -37.792,-14.48989 z m 18.33415,19.28042 c -9.64858,-0.12831 -21.62306,3.33227 -35.42631,7.98423 25.10691,-5.04266 45.95472,15.93605 53.46474,0 -4.43204,-5.62338 -10.53399,-7.88443 -18.03843,-7.98423 z m 6.50566,16.73731 c -10.72109,0.52516 -23.38179,8.00256 -38.206,17.86101 22.94627,-11.36899 48.5609,3.49744 51.69047,-13.83933 -4.09748,-3.06047 -8.61125,-4.26039 -13.48447,-4.02168 z m 114.02658,12.95219 0,16.08673 c 8.29133,5.58613 21.09049,8.75397 36.37259,11.82849 -18.18282,-6.13452 -27.00884,-23.70907 -36.37259,-27.91522 z m -102.43466,1.36027 c -12.59422,-0.26978 -24.8286,11.81541 -39.27057,28.21093 15.91813,-14.0123 38.2241,-11.13567 44.59338,-19.69442 l 0,-7.68852 c -1.78445,-0.54778 -3.55649,-0.79016 -5.32281,-0.82799 z m 5.32281,12.83391 c -10.89657,4.33777 -19.02852,18.38982 -28.0335,36.55001 7.56058,-11.36093 19.44275,-16.62735 28.0335,-21.58698 l 0,-14.96303 z m 97.11185,9.58107 0,14.48989 c 5.75381,3.72527 12.62362,7.34867 20.22671,11.11877 -10.32353,-6.87019 -15.62494,-17.29485 -20.22671,-25.60866 z m -97.11185,17.44701 c -2.64345,7.20228 -4.66472,15.92931 -6.62395,25.66781 1.58006,-4.68331 3.94809,-8.75151 6.62395,-12.36077 l 0,-13.30704 z m 90.13304,15.55445 a 10.893574,10.893574 0 0 1 -2.30655,0.59143 l -0.82799,0.11828 c 2.86196,2.72038 5.95735,5.51885 9.22621,8.39823 -2.52961,-2.87366 -4.49618,-5.95075 -6.09167,-9.10794 z m -22.94725,3.72598 -5.14539,0.76885 c 2.71362,4.77308 5.92289,9.81749 9.46278,15.14046 -2.60824,-5.26428 -3.76518,-10.67266 -4.31739,-15.90931 z m -22.35584,3.37111 -4.73139,0.70971 c 1.32719,4.88238 2.9994,10.06436 4.84968,15.55446 -1.14256,-5.68869 -0.91541,-11.11838 -0.11829,-16.26417 z m -24.89895,3.72598 -2.12913,0.29571 c 0.11507,2.90858 0.27624,5.88157 0.47314,8.98965 0.20765,-3.26113 0.79686,-6.36225 1.65599,-9.28536 z"
         style="fill:#312c20;stroke:none;fill-opacity:1"
         inkscape:connector-curvature="0" />
      <text
         sodipodi:linespacing="125%"
         id="text3110"
         y="619.78033"
         x="164.68164"
         style="font-size:66.55967712000000347px;font-style:normal;font-weight:normal;line-height:125%;letter-spacing:0px;word-spacing:0px;fill:#312c20;fill-opacity:1;stroke:none;font-family:Bitstream Vera Sans"
         xml:space="preserve"><tspan
           style="font-style:italic;font-variant:normal;font-weight:bold;font-stretch:normal;font-family:Samarkan;-inkscape-font-specification:Samarkan Bold Italic;fill:#312c20;fill-opacity:1"
           y="619.78033"
           x="164.68164"
           id="tspan3112"
           sodipodi:role="line">india</tspan></text>
    </g>
  </g>
</svg>
